﻿


EVENT   1
 PAGE   1
  0()



EVENT   2
 PAGE   1
  281(1)
  250(bytes(0x04,0x08,0x6f,0x3a,0x0c,0x52,0x50,0x47,0x3a,0x3a,0x53,0x45,0x08,0x3a,0x0a,0x40,0x6e,0x61,0x6d,0x65,0x49,0x22,0x09,0x4d,0x6f,0x76,0x65,0x06,0x3a,0x06,0x45,0x54,0x3a,0x0b,0x40,0x70,0x69,0x74,0x63,0x68,0x69,0x69,0x3a,0x0c,0x40,0x76,0x6f,0x6c,0x75,0x6d,0x65,0x69,0x55))
  TeleportPlayer(0,37,29,15,0,0)
  0()



EVENT   3
 PAGE   1
  281(1)
  250(bytes(0x04,0x08,0x6f,0x3a,0x0c,0x52,0x50,0x47,0x3a,0x3a,0x53,0x45,0x08,0x3a,0x0a,0x40,0x6e,0x61,0x6d,0x65,0x49,0x22,0x09,0x4d,0x6f,0x76,0x65,0x06,0x3a,0x06,0x45,0x54,0x3a,0x0b,0x40,0x70,0x69,0x74,0x63,0x68,0x69,0x69,0x3a,0x0c,0x40,0x76,0x6f,0x6c,0x75,0x6d,0x65,0x69,0x55))
  TeleportPlayer(0,37,27,29,0,0)
  0()



EVENT   4
 PAGE   1
  281(1)
  250(bytes(0x04,0x08,0x6f,0x3a,0x0c,0x52,0x50,0x47,0x3a,0x3a,0x53,0x45,0x08,0x3a,0x0a,0x40,0x6e,0x61,0x6d,0x65,0x49,0x22,0x09,0x4d,0x6f,0x76,0x65,0x06,0x3a,0x06,0x45,0x54,0x3a,0x0b,0x40,0x70,0x69,0x74,0x63,0x68,0x69,0x69,0x3a,0x0c,0x40,0x76,0x6f,0x6c,0x75,0x6d,0x65,0x69,0x55))
  TeleportPlayer(0,37,38,29,0,0)
  0()



EVENT   5
 PAGE   1
  0()



EVENT   6
 PAGE   1
  250(bytes(0x04,0x08,0x6f,0x3a,0x0c,0x52,0x50,0x47,0x3a,0x3a,0x53,0x45,0x08,0x3a,0x0a,0x40,0x6e,0x61,0x6d,0x65,0x49,0x22,0x09,0x4d,0x6f,0x76,0x65,0x06,0x3a,0x06,0x45,0x54,0x3a,0x0b,0x40,0x70,0x69,0x74,0x63,0x68,0x69,0x69,0x3a,0x0c,0x40,0x76,0x6f,0x6c,0x75,0x6d,0x65,0x69,0x55))
  TeleportPlayer(0,38,70,5,0,0)
  0()



EVENT   7
 PAGE   1
  250(bytes(0x04,0x08,0x6f,0x3a,0x0c,0x52,0x50,0x47,0x3a,0x3a,0x53,0x45,0x08,0x3a,0x0a,0x40,0x6e,0x61,0x6d,0x65,0x49,0x22,0x09,0x4d,0x6f,0x76,0x65,0x06,0x3a,0x06,0x45,0x54,0x3a,0x0b,0x40,0x70,0x69,0x74,0x63,0x68,0x69,0x69,0x3a,0x0c,0x40,0x76,0x6f,0x6c,0x75,0x6d,0x65,0x69,0x55))
  TeleportPlayer(0,38,71,5,0,0)
  0()



EVENT   8
 PAGE   1
  250(bytes(0x04,0x08,0x6f,0x3a,0x0c,0x52,0x50,0x47,0x3a,0x3a,0x53,0x45,0x08,0x3a,0x0a,0x40,0x6e,0x61,0x6d,0x65,0x49,0x22,0x09,0x4d,0x6f,0x76,0x65,0x06,0x3a,0x06,0x45,0x54,0x3a,0x0b,0x40,0x70,0x69,0x74,0x63,0x68,0x69,0x69,0x3a,0x0c,0x40,0x76,0x6f,0x6c,0x75,0x6d,0x65,0x69,0x55))
  TeleportPlayer(0,38,70,29,0,0)
  0()



EVENT   9
 PAGE   1
  250(bytes(0x04,0x08,0x6f,0x3a,0x0c,0x52,0x50,0x47,0x3a,0x3a,0x53,0x45,0x08,0x3a,0x0a,0x40,0x6e,0x61,0x6d,0x65,0x49,0x22,0x09,0x4d,0x6f,0x76,0x65,0x06,0x3a,0x06,0x45,0x54,0x3a,0x0b,0x40,0x70,0x69,0x74,0x63,0x68,0x69,0x69,0x3a,0x0c,0x40,0x76,0x6f,0x6c,0x75,0x6d,0x65,0x69,0x55))
  TeleportPlayer(0,38,71,29,0,0)
  0()



EVENT   10
 PAGE   1
  281(1)
  250(bytes(0x04,0x08,0x6f,0x3a,0x0c,0x52,0x50,0x47,0x3a,0x3a,0x53,0x45,0x08,0x3a,0x0a,0x40,0x6e,0x61,0x6d,0x65,0x49,0x22,0x09,0x4d,0x6f,0x76,0x65,0x06,0x3a,0x06,0x45,0x54,0x3a,0x0b,0x40,0x70,0x69,0x74,0x63,0x68,0x69,0x69,0x3a,0x0c,0x40,0x76,0x6f,0x6c,0x75,0x6d,0x65,0x69,0x55))
  TeleportPlayer(0,37,59,28,0,0)
  0()



EVENT   11
 PAGE   1
  281(1)
  250(bytes(0x04,0x08,0x6f,0x3a,0x0c,0x52,0x50,0x47,0x3a,0x3a,0x53,0x45,0x08,0x3a,0x0a,0x40,0x6e,0x61,0x6d,0x65,0x49,0x22,0x09,0x4d,0x6f,0x76,0x65,0x06,0x3a,0x06,0x45,0x54,0x3a,0x0b,0x40,0x70,0x69,0x74,0x63,0x68,0x69,0x69,0x3a,0x0c,0x40,0x76,0x6f,0x6c,0x75,0x6d,0x65,0x69,0x55))
  TeleportPlayer(0,37,32,42,0,0)
  0()



EVENT   12
 PAGE   1
  0()



EVENT   13
 PAGE   1
  281(1)
  250(bytes(0x04,0x08,0x6f,0x3a,0x0c,0x52,0x50,0x47,0x3a,0x3a,0x53,0x45,0x08,0x3a,0x0a,0x40,0x6e,0x61,0x6d,0x65,0x49,0x22,0x09,0x4d,0x6f,0x76,0x65,0x06,0x3a,0x06,0x45,0x54,0x3a,0x0b,0x40,0x70,0x69,0x74,0x63,0x68,0x69,0x69,0x3a,0x0c,0x40,0x76,0x6f,0x6c,0x75,0x6d,0x65,0x69,0x55))
  TeleportPlayer(0,37,62,39,0,0)
  0()



EVENT   14
 PAGE   1
  281(1)
  250(bytes(0x04,0x08,0x6f,0x3a,0x0c,0x52,0x50,0x47,0x3a,0x3a,0x53,0x45,0x08,0x3a,0x0a,0x40,0x6e,0x61,0x6d,0x65,0x49,0x22,0x09,0x4d,0x6f,0x76,0x65,0x06,0x3a,0x06,0x45,0x54,0x3a,0x0b,0x40,0x70,0x69,0x74,0x63,0x68,0x69,0x69,0x3a,0x0c,0x40,0x76,0x6f,0x6c,0x75,0x6d,0x65,0x69,0x55))
  TeleportPlayer(0,37,30,53,0,0)
  216(0)
  0()



EVENT   15
 PAGE   1
  281(1)
  250(bytes(0x04,0x08,0x6f,0x3a,0x0c,0x52,0x50,0x47,0x3a,0x3a,0x53,0x45,0x08,0x3a,0x0a,0x40,0x6e,0x61,0x6d,0x65,0x49,0x22,0x09,0x4d,0x6f,0x76,0x65,0x06,0x3a,0x06,0x45,0x54,0x3a,0x0b,0x40,0x70,0x69,0x74,0x63,0x68,0x69,0x69,0x3a,0x0c,0x40,0x76,0x6f,0x6c,0x75,0x6d,0x65,0x69,0x55))
  TeleportPlayer(0,37,57,49,0,0)
  0()



EVENT   16
 PAGE   1
  281(1)
  250(bytes(0x04,0x08,0x6f,0x3a,0x0c,0x52,0x50,0x47,0x3a,0x3a,0x53,0x45,0x08,0x3a,0x0a,0x40,0x6e,0x61,0x6d,0x65,0x49,0x22,0x09,0x4d,0x6f,0x76,0x65,0x06,0x3a,0x06,0x45,0x54,0x3a,0x0b,0x40,0x70,0x69,0x74,0x63,0x68,0x69,0x69,0x3a,0x0c,0x40,0x76,0x6f,0x6c,0x75,0x6d,0x65,0x69,0x55))
  TeleportPlayer(0,37,60,50,0,0)
  0()



EVENT   17
 PAGE   1
  If(1,1063,0,12,2)
   ShowMessageFace("",0,0,2,1)
   ShowMessage("【武器屋】")
   ShowMessage("ふひ……おうひひひひ……")
   0()
  EndIf()
  If(1,1063,0,13,1)
   ShowMessageFace("",0,0,2,2)
   ShowMessage("【武器屋】")
   ShowMessage("理性を失っている間にも、割と武器が売れていた……")
   ShowMessage("アリ娘達が、律儀に金を払っていったようだ。")
   0()
  EndIf()
  Shop(1,23,0,0,false)
  605(1,104,0,0)
  605(1,130,0,0)
  605(1,177,0,0)
  605(1,202,0,0)
  605(1,246,0,0)
  605(1,271,0,0)
  605(1,529,0,0)
  605(1,605,0,0)
  605(1,878,0,0)
  605(1,904,0,0)
  0()



EVENT   18
 PAGE   1
  If(1,1063,0,12,2)
   ShowMessageFace("",0,0,2,1)
   ShowMessage("【防具屋】")
   ShowMessage("お、王妃さまぁ……は、はふふふ……")
   0()
  EndIf()
  If(1,1063,0,13,1)
   ShowMessageFace("",0,0,2,2)
   ShowMessage("【防具屋】")
   ShowMessage("うちの防具は、とっても頑丈だよ。")
   ShowMessage("ケチると死ぬから、目一杯買っていきな。")
   0()
  EndIf()
  Shop(2,25,0,0,false)
  605(2,64,0,0)
  605(2,85,0,0)
  605(2,137,0,0)
  605(2,215,0,0)
  605(2,310,0,0)
  0()



EVENT   19
 PAGE   1
  If(1,1063,0,12,2)
   ShowMessageFace("vampire_fc1",0,0,2,1)
   ShowMessage("【吸血鬼の鍛冶屋】")
   ShowMessage("なんだか、大変な事になってるわね……")
   ShowMessage("まあ私は、状況も相手も選ばないけど……お金さえあればね。")
   ShowMessageFace("vampire_fc1",0,0,2,2)
   ShowMessage("【吸血鬼の鍛冶屋】")
   ShowMessage("さあ、注文は何かしら？")
   ShowMessage("闇の力、その武具に宿してあげるわ。")
   355("call_synthesize(17)")
   EndEventProcessing()
   0()
  EndIf()
  If(1,1063,0,13,1)
   ShowMessageFace("vampire_fc1",0,0,2,3)
   ShowMessage("【吸血鬼の鍛冶屋】")
   ShowMessage("さあ、注文は何かしら？")
   ShowMessage("闇の力、その武具に宿してあげるわ。")
   ShowChoices(strings("鍛冶を頼む","オリハルコン製品を造ってもらう","話をする"),5)
   IfPlayerPicksChoice(0,null)
    355("call_synthesize(17)")
    EndEventProcessing()
    0()
   IfPlayerPicksChoice(1,null)
    If(8,156)
     Shop(1,24,0,0,false)
     605(1,106,0,0)
     605(1,160,0,0)
     605(1,225,0,0)
     605(1,273,0,0)
     605(1,315,0,0)
     605(1,349,0,0)
     605(1,384,0,0)
     605(1,423,0,0)
     605(1,458,0,0)
     605(1,492,0,0)
     605(1,532,0,0)
     605(1,572,0,0)
     605(1,607,0,0)
     605(1,642,0,0)
     605(1,682,0,0)
     605(1,714,0,0)
     605(1,741,0,0)
     605(1,765,0,0)
     605(1,786,0,0)
     605(1,809,0,0)
     605(1,834,0,0)
     605(1,857,0,0)
     605(2,44,0,0)
     605(2,86,0,0)
     605(2,115,0,0)
     605(2,217,0,0)
     605(2,250,0,0)
     605(2,312,0,0)
     605(0,105,0,0)
     EndEventProcessing()
     0()
    Else()
     ShowMessageFace("vampire_fc1",0,0,2,4)
     ShowMessage("【吸血鬼の鍛冶屋】")
     ShowMessage("鉱石がなければ、造る事はできないわ。")
     ShowMessage("悪いけど、注文者自身で調達してきて……")
     EndEventProcessing()
     0()
    EndIf()
    0()
   IfPlayerPicksChoice(2,null)
    ShowMessageFace("vampire_fc1",0,0,2,5)
    ShowMessage("【吸血鬼の鍛冶屋】")
    ShowMessage("トップクラスの鍛冶屋ってのは、大半が魔物なの。")
    ShowMessage("伝説の鍛冶屋、ランドルフは例外だけどね……")
    EndEventProcessing()
    0()
   IfPlayerCancelsChoice()
    EndEventProcessing()
    0()
   404()
   EndEventProcessing()
   0()
  EndIf()
  0()



EVENT   20
 PAGE   1
  If(1,1063,0,12,2)
   ShowMessageFace("",0,0,2,1)
   ShowMessage("【道具屋】")
   ShowMessage("王妃様……う、うぉぉぁぁぁ……")
   0()
  EndIf()
  If(1,1063,0,13,1)
   ShowMessageFace("",0,0,2,2)
   ShowMessage("【道具屋】")
   ShowMessage("いらっしゃいませ！")
   ShowMessage("理性のあるなしにかかわらず通常営業中ですよ！")
   0()
  EndIf()
  Shop(0,2,0,0,false)
  605(0,7,0,0)
  605(0,11,0,0)
  605(0,13,0,0)
  605(0,14,0,0)
  605(0,15,0,0)
  605(0,16,0,0)
  605(0,17,0,0)
  605(0,18,0,0)
  605(0,19,0,0)
  605(0,20,0,0)
  605(0,23,0,0)
  605(0,35,0,0)
  605(0,52,0,0)
  605(0,56,0,0)
  605(0,60,0,0)
  605(0,102,0,0)
  605(0,109,0,0)
  If(1,1005,0,17,0)
   If(4,66,0)
    If(0,2065,0)
     If(0,2264,1)
      ShowMessageFace("vgirl_fc1",0,0,2,3)
      ShowMessage("【ヴァニラ】")
      ShowMessage("はじめまして、商人のヴァニラです。")
      ShowMessage("魔導三属性の魔石を、我が店に仕入れてほしいのですけど……")
      ShowMessageFace("",0,0,2,4)
      ShowMessage("【道具屋】")
      ShowMessage("うちではどうにもできないねぇ。")
      ShowMessage("魔石は、国立魔導研究所から供給してるんだよ。")
      ShowMessageFace("",0,0,2,5)
      ShowMessage("【道具屋】")
      ShowMessage("うちは代々取引があるけど、新規業者の参入は無理だと思うね。")
      ShowMessage("王宮にコネでもない限りは……")
      ShowMessageFace("vgirl_fc1",0,0,2,6)
      ShowMessage("【ヴァニラ】")
      ShowMessage("王宮にコネなら……あるのだ！")
      ShowMessage("さっそく、倉庫で魔導研究所の人と話してみるのだ！")
      ChangeSwitch(2264,2264,0)
      EndEventProcessing()
      0()
     EndIf()
     0()
    EndIf()
    0()
   EndIf()
   0()
  EndIf()
  0()



EVENT   21
 PAGE   1
  If(1,1063,0,12,2)
   ShowMessageFace("",0,0,2,1)
   ShowMessage("【アクセサリ屋】")
   ShowMessage("王妃様、王妃様ぁ……あぁぁぁぁ……")
   0()
  EndIf()
  If(1,1063,0,13,1)
   ShowMessageFace("",0,0,2,2)
   ShowMessage("【アクセサリ屋】")
   ShowMessage("あなたの力を上乗せする、分かりやすく便利なアクセサリですよ！")
   0()
  EndIf()
  Shop(2,1003,0,0,false)
  605(2,1008,0,0)
  605(2,1013,0,0)
  605(2,1018,0,0)
  605(2,1023,0,0)
  605(2,1028,0,0)
  605(2,1033,0,0)
  605(2,1038,0,0)
  605(2,1043,0,0)
  0()



EVENT   22
 PAGE   1
  If(1,1063,0,12,2)
   ShowMessageFace("",0,0,2,1)
   ShowMessage("【マスター】")
   ShowMessage("私も組織の一員ですよ。")
   ShowMessage("景気付けに、いかがです？")
   0()
  EndIf()
  If(1,1063,0,13,1)
   ShowMessageFace("",0,0,2,2)
   ShowMessage("【マスター】")
   ShowMessage("おや、救国の英雄がおいでですか。")
   ShowMessage("ドンによろしく言っておいて下さいね。")
   0()
  EndIf()
  Shop(0,428,0,0,false)
  605(0,429,0,0)
  605(0,430,0,0)
  605(0,431,0,0)
  0()



EVENT   23
 PAGE   1
  If(1,1063,0,12,2)
   ShowMessageFace("",0,0,2,1)
   ShowMessage("【魔術師】")
   ShowMessage("た、たすけ……")
   ShowMessage("頭が、おかしく……なるぅ……")
   EndEventProcessing()
   0()
  EndIf()
  If(1,1063,0,13,1)
   ShowMessageFace("",0,0,2,2)
   ShowMessage("【魔術師】")
   ShowMessage("オリハルコン製の装備品は、この地域でも最高クラスの逸品。")
   ShowMessage("でもオリハルコンの鉱石を持っていないと、作ってもらえないわ。")
   ShowMessageFace("",0,0,2,3)
   ShowMessage("【魔術師】")
   ShowMessage("オリハルコン鉱石が、どこで手に入るのかって？")
   ShowMessage("ここから西の関所を超えた先、北西に進めば溶岩鉱窟があるわ。")
   ShowMessageFace("",0,0,2,4)
   ShowMessage("【魔術師】")
   ShowMessage("そこから発掘できるって話だけど……")
   ShowMessage("入手できる冒険者は、ほんの僅かね。")
   If(1,1064,0,0,0)
    ChangeVariable(1064,1064,0,0,1)
    0()
   EndIf()
   If(8,156)
    EndEventProcessing()
    0()
   Else()
    If(0,4,0)
     ShowMessageFace("alice_fc5",2,0,2,5)
     ShowMessage("【アリス】")
     ShowMessage("ゴルド地方で最高クラスの武具か……")
     ShowMessage("何よりもまず、オリハルコンの入手を優先すべきかもしれんな。")
     0()
    EndIf()
    If(0,5,0)
     ShowMessageFace("iriasu_fc4",0,0,2,6)
     ShowMessage("【イリアス】")
     ShowMessage("オリハルコンの武具は、実に魅力的ですね。")
     ShowMessage("現在、何よりも優先すべき目的とみました。")
     0()
    EndIf()
    0()
   EndIf()
   0()
  EndIf()
  0()



EVENT   24
 PAGE   1
  If(1,829,0,2,1)
   If(0,1578,1)
    ShowMessageFace("mob_heisi_fc1",0,0,2,1)
    ShowMessage("【アウグスタ】")
    ShowMessage("皆さん、私を連れて行ってほしいのです！")
    ShowMessage("腕を磨き、世界一のヒラ兵士になりたいのです！")
    ShowChoices(strings("仲間にする","仲間にしない"),0)
    IfPlayerPicksChoice(0,null)
     ShowMessageFace("mob_heisi_fc1",0,0,2,2)
     ShowMessage("【アウグスタ】")
     ShowMessage("粉骨砕身、戦い抜くのです！")
     PictureClear(5)
     205(0,bytes(0x04,0x08,0x6f,0x3a,0x13,0x52,0x50,0x47,0x3a,0x3a,0x4d,0x6f,0x76,0x65,0x52,0x6f,0x75,0x74,0x65,0x09,0x3a,0x0c,0x40,0x72,0x65,0x70,0x65,0x61,0x74,0x46,0x3a,0x0f,0x40,0x73,0x6b,0x69,0x70,0x70,0x61,0x62,0x6c,0x65,0x46,0x3a,0x0a,0x40,0x77,0x61,0x69,0x74,0x54,0x3a,0x0a,0x40,0x6c,0x69,0x73,0x74,0x5b,0x09,0x6f,0x3a,0x15,0x52,0x50,0x47,0x3a,0x3a,0x4d,0x6f,0x76,0x65,0x43,0x6f,0x6d,0x6d,0x61,0x6e,0x64,0x07,0x3a,0x0a,0x40,0x63,0x6f,0x64,0x65,0x69,0x2a,0x3a,0x10,0x40,0x70,0x61,0x72,0x61,0x6d,0x65,0x74,0x65,0x72,0x73,0x5b,0x00,0x6f,0x3b,0x0a,0x07,0x3b,0x0b,0x69,0x0f,0x3b,0x0c,0x5b,0x00,0x6f,0x3b,0x0a,0x07,0x3b,0x0b,0x69,0x2c,0x3b,0x0c,0x5b,0x00,0x6f,0x3b,0x0a,0x07,0x3b,0x0b,0x69,0x00,0x3b,0x0c,0x5b,0x00))
     355("add_actor_ex(578)")
     249(bytes(0x04,0x08,0x6f,0x3a,0x0c,0x52,0x50,0x47,0x3a,0x3a,0x4d,0x45,0x08,0x3a,0x0a,0x40,0x6e,0x61,0x6d,0x65,0x49,0x22,0x0c,0x66,0x61,0x6e,0x66,0x61,0x6c,0x65,0x06,0x3a,0x06,0x45,0x54,0x3a,0x0b,0x40,0x70,0x69,0x74,0x63,0x68,0x69,0x69,0x3a,0x0c,0x40,0x76,0x6f,0x6c,0x75,0x6d,0x65,0x69,0x69))
     ShowMessageFace("",0,0,2,3)
     ShowMessage("アウグスタが仲間に加わった！")
     Wait(60)
     EndEventProcessing()
     0()
    IfPlayerPicksChoice(1,null)
     ShowMessageFace("mob_heisi_fc1",0,0,2,4)
     ShowMessage("【アウグスタ】")
     ShowMessage("恐縮の至りなのです……")
     0()
    404()
    0()
   EndIf()
   0()
  EndIf()
  RunCommonEvent(7281)
  0()
 PAGE   2
  // condition: party contains actor #578
  0()



EVENT   25
 PAGE   1
  If(0,2321,1)
   ShowMessageFace("",0,0,2,1)
   ShowMessage("【エルカ】")
   ShowMessage("おお、お前達か。")
   ShowMessage("その様子じゃ、元気にやってるみたいだな。")
   ShowMessageFace("ruka_fc1",0,0,2,2)
   ShowMessage("【ルカ】")
   ShowMessage("エルカさんも、ラザロおじさんの手伝いに来たんですか？")
   ShowMessageFace("",0,0,2,3)
   ShowMessage("【エルカ】")
   ShowMessage("ラザロさんに助っ人に呼ばれて来てみりゃ、このザマだ……")
   ShowMessage("正直、あんまり首突っ込みたきゃなかったぜ。")
   0()
  Else()
   ShowMessageFace("",0,0,2,4)
   ShowMessage("【エルカ】")
   ShowMessage("俺はエルカ……")
   ShowMessage("まあ、ラザロさんの仕事仲間といったところか。")
   ShowMessageFace("",0,0,2,5)
   ShowMessage("【エルカ】")
   ShowMessage("ラザロさんに助っ人に呼ばれて来てみりゃ、このザマだ……")
   ShowMessage("正直、あんまり首突っ込みたきゃなかったぜ。")
   0()
  EndIf()
  ShowMessageFace("lazarus3_fc1",1,0,2,6)
  ShowMessage("【ラザロ】")
  ShowMessage("んじゃ、今からでも帰るか？")
  ShowMessageFace("",0,0,2,7)
  ShowMessage("【エルカ】")
  ShowMessage("冷てぇ事、言わんで下さいよ……")
  ShowMessage("ここで帰っちゃ、掻き集めたテンプガードの元さえ取れませんぜ。")
  ShowMessageFace("",0,0,2,8)
  ShowMessage("【エルカ】")
  ShowMessage("ああ、テンプガードってのは誘惑を無効にする高級アクセサリだ。")
  ShowMessage("うっとうしい淫気対策に、実働部隊全員分を揃えたんだよ。")
  ShowMessageFace("",0,0,2,9)
  ShowMessage("【エルカ】")
  ShowMessage("それでさえ、長時間淫気にさらされれば効果がなくなるってんだから……")
  ShowMessage("どれだけヤバいヤマに首突っ込んでんだか。")
  If(0,2321,1)
   If(2,"A",1)
    ChangeSelfSwitch("A",0)
    ShowMessageFace("",0,0,2,10)
    ShowMessage("【エルカ】")
    ShowMessage("そういうわけで、お前にもテンプガードを分けてやるよ。")
    ShowMessage("パーティ全員分にゃ足りないだろうが、これで全部なんだ。")
    250(bytes(0x04,0x08,0x6f,0x3a,0x0c,0x52,0x50,0x47,0x3a,0x3a,0x53,0x45,0x08,0x3a,0x0a,0x40,0x6e,0x61,0x6d,0x65,0x49,0x22,0x0a,0x49,0x74,0x65,0x6d,0x31,0x06,0x3a,0x06,0x45,0x54,0x3a,0x0b,0x40,0x70,0x69,0x74,0x63,0x68,0x69,0x69,0x3a,0x0c,0x40,0x76,0x6f,0x6c,0x75,0x6d,0x65,0x69,0x55))
    ChangeInventoryArmor(1587,0,0,3,false)
    ShowMessageFace("ruka_fc1",0,0,2,11)
    ShowMessage("【ルカ】")
    ShowMessage("ありがとうございます！")
    0()
   EndIf()
   0()
  EndIf()
  ShowMessageFace("",0,0,2,12)
  ShowMessage("【エルカ】")
  ShowMessage("俺は爆破指揮で、突入班には加わらねぇが……")
  ShowMessage("まあ、お互い頑張ろうや。")
  0()
 PAGE   2
  // condition: variable 1063 >= 12
  0()



EVENT   26
 PAGE   1
  PictureDisplay(5,"80_merlin_st01",0,0,0,0,100,100,0,0)
  PictureMove(5,null,0,0,0,0,100,100,255,0,30,true)
  If(0,6,0)
   ShowMessageFace("merlin_fc1",0,0,2,1)
   ShowMessage("【マーリン】")
   ShowMessage("ルカさん、ソニアさん……お二人とも強くなりましたね。")
   ShowMessage("マルケルスやカレンも、さぞ鼻が高いでしょう。")
   0()
  Else()
   ShowMessageFace("merlin_fc1",0,0,2,2)
   ShowMessage("【マーリン】")
   ShowMessage("ルカさん、お強くなりましたね。")
   ShowMessage("マルケルスも、さぞ鼻が高いでしょう。")
   0()
  EndIf()
  ShowMessageFace("ruka_fc1",0,0,2,3)
  ShowMessage("【ルカ】")
  ShowMessage("マーリンさんも、僕の父さんやソニアの母さんと旅したんですよね……")
  ShowMessage("いったい、どういう流れで裏社会のトップに？")
  ShowMessageFace("merlin_fc1",0,0,2,4)
  ShowMessage("【マーリン】")
  ShowMessage("冒険後に、まあ色々ありまして……")
  ShowMessage("マルケルスやカレンは一切関わっておりませんので、ご安心を。")
  PictureDisplay(5,"80_lazarus_st21",0,0,-150,0,100,100,255,0)
  PictureDisplay(6,"80_merlin_st01",0,0,150,0,100,100,255,0)
  ShowMessageFace("lazarus3_fc1",0,0,2,5)
  ShowMessage("【ラザロ】")
  ShowMessage("じいさん、いらん話してんじゃねぇよ……")
  If(0,6,0)
   ShowMessageFace("sonia_fc1",5,0,2,6)
   ShowMessage("【ソニア】")
   ShowMessage("じゃあ、ラザロおじさんが直接話してくれるの……？")
   ShowMessageFace("lazarus3_fc1",2,0,2,7)
   ShowMessage("【ラザロ】")
   ShowMessage("怒るなよ……")
   0()
  EndIf()
  ShowMessageFace("merlin_fc1",0,0,2,8)
  ShowMessage("【マーリン】")
  ShowMessage("まあ、今は目の前の話をしましょう。")
  ShowMessage("しかし、この淫気は凄まじいですね。")
  ShowMessageFace("merlin_fc1",0,0,2,9)
  ShowMessage("【マーリン】")
  ShowMessage("現状で、致命的な事態が発生するギリギリのラインでしょう。")
  ShowMessage("これ以上、淫気にさらされれば……住民達の精神はもちますまい。")
  ShowMessageFace("merlin_fc1",0,0,2,10)
  ShowMessage("【マーリン】")
  ShowMessage("精神的抵抗力が低い者から、重篤な脳障害を引き起こします。")
  ShowMessage("淫気にさらされる時間が長くなるほど、被害は大きくなるでしょう。")
  ShowMessageFace("merlin_fc1",0,0,2,11)
  ShowMessage("【マーリン】")
  ShowMessage("そうなる前に、すみやかに元を断たなければ……")
  ShowMessage("事態はもはや、一刻の猶予もない状況まで来ております。")
  ShowMessageFace("lazarus3_fc1",0,0,2,12)
  ShowMessage("【ラザロ】")
  ShowMessage("勇者気分が抜けてないのかよ、じいさん……")
  ShowMessage("これはあくまでビジネスだぜ。")
  ShowMessageFace("lazarus3_fc1",0,0,2,13)
  ShowMessage("【ラザロ】")
  ShowMessage("メフィストさん、報酬は弾んでもらうからな。")
  ShowMessage("グランゴルド解放後の利権やら、アレやらコレやらも含めてな。")
  If(12,"exist_party_persona_id?(391)")
   ShowMessageFace("mefist_fc2",0,0,2,14)
   ShowMessage("【メフィスト】")
   ShowMessage("もちろん、リスクに見合ったリターンは保証します。")
   ShowMessage("その点、ご心配なく……")
   0()
  Else()
   ShowMessageFace("mefist_fc1",0,0,2,15)
   ShowMessage("【メフィスト】")
   ShowMessage("もちろん、リスクに見合ったリターンは保証します。")
   ShowMessage("その点、ご心配なく……")
   0()
  EndIf()
  ShowMessageFace("lazarus3_fc1",1,0,2,16)
  ShowMessage("【ラザロ】")
  ShowMessage("へへへ……")
  ShowMessageFace("merlin_fc1",0,0,2,17)
  ShowMessage("【マーリン】")
  ShowMessage("ハハハ……")
  If(12,"exist_party_persona_id?(391)")
   ShowMessageFace("mefist_fc2",1,0,2,18)
   ShowMessage("【メフィスト】")
   ShowMessage("ふふふ……")
   0()
  Else()
   ShowMessageFace("mefist_fc1",0,0,2,19)
   ShowMessage("【メフィスト】")
   ShowMessage("ふふふ……")
   0()
  EndIf()
  If(0,6,0)
   ShowMessageFace("sonia_fc4",0,0,2,20)
   ShowMessage("【ソニア】")
   ShowMessage("なにか悪巧みしてる……")
   0()
  EndIf()
  PictureClear(5)
  PictureClear(6)
  0()
 PAGE   2
  // condition: switch 31 is ON
  0()
 PAGE   3
  // condition: variable 1063 >= 12
  0()



EVENT   27
 PAGE   1
  PictureDisplay(5,"80_lazarus_st21",0,0,0,0,100,100,0,0)
  PictureMove(5,null,0,0,0,0,100,100,255,0,30,true)
  ShowMessageFace("lazarus3_fc1",0,0,2,1)
  ShowMessage("【ラザロ】")
  ShowMessage("作戦開始と同時に、重要施設の爆弾を一斉起爆。")
  ShowMessage("その隙に、水路から城内に潜入するって流れだ。")
  ShowMessageFace("lazarus3_fc1",0,0,2,2)
  ShowMessage("【ラザロ】")
  ShowMessage("ルカ、ちゃんと準備は出来てるのか？　装備は整えたか？")
  ShowMessage("アイテムは持ったか？　ちゃんと最適な職に就いたか？")
  ShowChoices(strings("ちょっと待って","準備は終わった"),1)
  IfPlayerPicksChoice(0,null)
   ShowMessageFace("lazarus3_fc1",0,0,2,3)
   ShowMessage("【ラザロ】")
   ShowMessage("なら、準備はしっかりしとけ。")
   PictureClear(5)
   EndEventProcessing()
   0()
  IfPlayerPicksChoice(1,null)
   ShowMessageFace("lazarus3_fc1",0,0,2,4)
   ShowMessage("【ラザロ】")
   ShowMessage("よし、これより作戦決行だ！")
   ShowMessage("それじゃ、城内に繋がってる水路に案内するぜ。")
   ShowMessageFace("lazarus3_fc1",0,0,2,5)
   ShowMessage("【ラザロ】")
   ShowMessage("城内まで、俺も同行する。")
   ShowMessage("マーリン爺さんもついてきな。")
   PictureDisplay(5,"80_lazarus_st21",0,0,-150,0,100,100,255,0)
   PictureDisplay(6,"80_merlin_st01",0,0,150,0,100,100,255,0)
   ShowMessageFace("merlin_fc1",0,0,2,6)
   ShowMessage("【マーリン】")
   ShowMessage("そう言われると思っておりました……")
   ShowMessage("こちらの準備も万端です。")
   If(12,"exist_party_persona_id?(391)")
    ShowMessageFace("mefist_fc2",0,0,2,7)
    ShowMessage("【メフィスト】")
    ShowMessage("おや……ドン・ファーザーは、高見の見物予定だったのでは？")
    0()
   Else()
    ShowMessageFace("mefist_fc1",0,0,2,8)
    ShowMessage("【メフィスト】")
    ShowMessage("おや……ドン・ファーザーは、高見の見物予定だったのでは？")
    0()
   EndIf()
   ShowMessageFace("lazarus3_fc1",0,0,2,9)
   ShowMessage("【ラザロ】")
   ShowMessage("こいつらだけで、城内に行かせる訳にもいかんだろうが……")
   ShowMessage("そういう訳で、俺もついていくぜ。")
   PictureClear(5)
   PictureClear(6)
   205(0,bytes(0x04,0x08,0x6f,0x3a,0x13,0x52,0x50,0x47,0x3a,0x3a,0x4d,0x6f,0x76,0x65,0x52,0x6f,0x75,0x74,0x65,0x09,0x3a,0x0c,0x40,0x72,0x65,0x70,0x65,0x61,0x74,0x46,0x3a,0x0f,0x40,0x73,0x6b,0x69,0x70,0x70,0x61,0x62,0x6c,0x65,0x46,0x3a,0x0a,0x40,0x77,0x61,0x69,0x74,0x54,0x3a,0x0a,0x40,0x6c,0x69,0x73,0x74,0x5b,0x09,0x6f,0x3a,0x15,0x52,0x50,0x47,0x3a,0x3a,0x4d,0x6f,0x76,0x65,0x43,0x6f,0x6d,0x6d,0x61,0x6e,0x64,0x07,0x3a,0x0a,0x40,0x63,0x6f,0x64,0x65,0x69,0x2a,0x3a,0x10,0x40,0x70,0x61,0x72,0x61,0x6d,0x65,0x74,0x65,0x72,0x73,0x5b,0x00,0x6f,0x3b,0x0a,0x07,0x3b,0x0b,0x69,0x0f,0x3b,0x0c,0x5b,0x00,0x6f,0x3b,0x0a,0x07,0x3b,0x0b,0x69,0x2c,0x3b,0x0c,0x5b,0x00,0x6f,0x3b,0x0a,0x07,0x3b,0x0b,0x69,0x00,0x3b,0x0c,0x5b,0x00))
   355("add_actor_ex(520)")
   249(bytes(0x04,0x08,0x6f,0x3a,0x0c,0x52,0x50,0x47,0x3a,0x3a,0x4d,0x45,0x08,0x3a,0x0a,0x40,0x6e,0x61,0x6d,0x65,0x49,0x22,0x0c,0x66,0x61,0x6e,0x66,0x61,0x6c,0x65,0x06,0x3a,0x06,0x45,0x54,0x3a,0x0b,0x40,0x70,0x69,0x74,0x63,0x68,0x69,0x69,0x3a,0x0c,0x40,0x76,0x6f,0x6c,0x75,0x6d,0x65,0x69,0x69))
   ShowMessageFace("",0,0,2,10)
   ShowMessage("ラザロが仲間に加わった！")
   Wait(60)
   PictureDisplay(5,"80_merlin_st01",0,0,0,0,100,100,0,0)
   PictureMove(5,null,0,0,0,0,100,100,255,0,30,true)
   If(0,6,0)
    ShowMessageFace("merlin_fc1",0,0,2,11)
    ShowMessage("【マーリン】")
    ShowMessage("マルケルスの息子さん、カレンの娘さんとご一緒するとは。")
    ShowMessage("人生とは数奇なものですなぁ……")
    0()
   Else()
    ShowMessageFace("merlin_fc1",0,0,2,12)
    ShowMessage("【マーリン】")
    ShowMessage("マルケルスの息子さんとご一緒するとは。")
    ShowMessage("人生とは数奇なものですなぁ……")
    0()
   EndIf()
   ChangeSwitch(31,31,0)
   PictureClear(5)
   355("add_actor_ex(522)")
   249(bytes(0x04,0x08,0x6f,0x3a,0x0c,0x52,0x50,0x47,0x3a,0x3a,0x4d,0x45,0x08,0x3a,0x0a,0x40,0x6e,0x61,0x6d,0x65,0x49,0x22,0x0c,0x66,0x61,0x6e,0x66,0x61,0x6c,0x65,0x06,0x3a,0x06,0x45,0x54,0x3a,0x0b,0x40,0x70,0x69,0x74,0x63,0x68,0x69,0x69,0x3a,0x0c,0x40,0x76,0x6f,0x6c,0x75,0x6d,0x65,0x69,0x69))
   ShowMessageFace("",0,0,2,13)
   ShowMessage("マーリンが仲間に加わった！")
   Wait(60)
   If(0,6,0)
    ShowMessageFace("sonia_fc2",2,0,2,14)
    ShowMessage("【ソニア】")
    ShowMessage("でも……ラザロおじさん、戦えるの？")
    ShowMessage("腕があんまり動かないんでしょ……？")
    0()
   Else()
    ShowMessageFace("ruka_fc1",0,0,2,15)
    ShowMessage("【ルカ】")
    ShowMessage("ラザロおじさん、戦えるの？")
    ShowMessage("腕があんまり動かないんじゃ……")
    0()
   EndIf()
   ShowMessageFace("lazarus3_fc1",1,0,2,16)
   ShowMessage("【ラザロ】")
   ShowMessage("今の世の中、銃ってもんがあるんだよ。")
   ShowMessage("トリガーを引く指に、あんまり力はいらないぜ。")
   ShowMessageFace("lazarus3_fc1",1,0,2,17)
   ShowMessage("【ラザロ】")
   ShowMessage("さあ、作戦決行だぜ！")
   ShowMessage("爆破班、やっちまえ！")
   ShowMessageFace("lazarus3_fc1",1,0,2,18)
   ShowMessage("【ラザロ】")
   ShowMessage("ルカ達は、俺について来い。")
   ShowMessage("手筈通り、地下水路から城内に侵入するぜ……")
   221()
   ChangeSwitch(1,1,1)
   ChangeSwitch(100,100,0)
   ChangeSwitch(31,31,1)
   ChangeVariable(1063,1063,0,0,12)
   ChangeVariable(1002,1002,0,0,32)
   211(0)
   TeleportPlayer(0,37,47,5,0,2)
   241(bytes(0x04,0x08,0x6f,0x3a,0x0d,0x52,0x50,0x47,0x3a,0x3a,0x42,0x47,0x4d,0x08,0x3a,0x0a,0x40,0x6e,0x61,0x6d,0x65,0x49,0x22,0x0a,0x6b,0x69,0x6b,0x69,0x33,0x06,0x3a,0x06,0x45,0x54,0x3a,0x0c,0x40,0x76,0x6f,0x6c,0x75,0x6d,0x65,0x69,0x69,0x3a,0x0b,0x40,0x70,0x69,0x74,0x63,0x68,0x69,0x69))
   Wait(60)
   0()
  404()
  0()
 PAGE   2
  // condition: variable 1063 >= 12
  0()



EVENT   28
 PAGE   1
  // condition: variable 1063 >= 11
  221()
  PictureClear(5)
  TeleportPlayer(0,38,32,53,8,0)
  241(bytes(0x04,0x08,0x6f,0x3a,0x0d,0x52,0x50,0x47,0x3a,0x3a,0x42,0x47,0x4d,0x08,0x3a,0x0a,0x40,0x6e,0x61,0x6d,0x65,0x49,0x22,0x16,0x64,0x75,0x6e,0x67,0x65,0x6f,0x6e,0x5f,0x63,0x6f,0x6c,0x6f,0x73,0x73,0x65,0x75,0x6d,0x06,0x3a,0x06,0x45,0x54,0x3a,0x0c,0x40,0x76,0x6f,0x6c,0x75,0x6d,0x65,0x69,0x69,0x3a,0x0b,0x40,0x70,0x69,0x74,0x63,0x68,0x69,0x69))
  222()
  PictureDisplay(5,"80_lazarus_st23",0,0,0,0,100,100,0,0)
  PictureMove(5,null,0,0,0,0,100,100,255,0,30,true)
  ShowMessageFace("lazarus3_fc1",2,0,2,1)
  ShowMessage("【ラザロ】")
  ShowMessage("ったく……聞いてなかったぞ、こんな話……")
  If(0,6,0)
   ShowMessageFace("sonia_fc1",5,0,2,2)
   ShowMessage("【ソニア】")
   ShowMessage("こっちだって、聞いてなかったわよ……")
   ShowMessage("ラザロおじさんが、裏社会のボスだっただなんて！")
   0()
  Else()
   ShowMessageFace("ruka_fc1",0,0,2,3)
   ShowMessage("【ルカ】")
   ShowMessage("こっちだって、聞いてなかったよ。")
   ShowMessage("ラザロおじさんが、裏社会のボスだったなんて……")
   0()
  EndIf()
  PictureDisplay(5,"80_lazarus_st21",0,0,0,0,100,100,255,0)
  ShowMessageFace("lazarus3_fc1",0,0,2,4)
  ShowMessage("【ラザロ】")
  ShowMessage("お前等こそ、なんで国家転覆計画なんぞに関わってんだ！")
  ShowMessage("ガキはもっと健全に冒険しやがれ！")
  If(12,"exist_party_persona_id?(391)")
   ShowMessageFace("mefist_fc2",0,0,2,5)
   ShowMessage("【メフィスト】")
   ShowMessage("……まあまあ、お二人とも落ち着いて。")
   ShowMessageFace("mefist_fc2",0,0,2,6)
   ShowMessage("【メフィスト】")
   ShowMessage("まさかドン・ファーザーが彼らの育ての親だったとは……")
   ShowMessage("こちらも、調べが足りませんでした。")
   0()
  Else()
   ShowMessageFace("mefist_fc1",0,0,2,7)
   ShowMessage("【メフィスト】")
   ShowMessage("……まあまあ、お二人とも落ち着いて。")
   ShowMessageFace("mefist_fc1",0,0,2,8)
   ShowMessage("【メフィスト】")
   ShowMessage("まさかドン・ファーザーが彼らの育ての親だったとは……")
   ShowMessage("こちらも、調べが足りませんでした。")
   0()
  EndIf()
  ShowMessageFace("lazarus3_fc1",0,0,2,9)
  ShowMessage("【ラザロ】")
  ShowMessage("ったく……")
  ShowMessage("身内バレとか、勘弁してくれよ……")
  If(0,6,0)
   ShowMessageFace("sonia_fc1",5,0,2,10)
   ShowMessage("【ソニア】")
   ShowMessage("ラザロおじさん……")
   ShowMessage("後で、詳しい話を聞かせてもらうからね。")
   ShowMessageFace("lazarus3_fc1",0,0,2,11)
   ShowMessage("【ラザロ】")
   ShowMessage("ほら見ろ、怒られるだろ……！")
   0()
  Else()
   ShowMessageFace("ruka_fc1",0,0,2,12)
   ShowMessage("【ルカ】")
   ShowMessage("ラザロおじさん、後で詳しい話を聞かせてもらうよ……")
   ShowMessageFace("lazarus3_fc1",0,0,2,13)
   ShowMessage("【ラザロ】")
   ShowMessage("はいはい、再来年くらいにな。")
   0()
  EndIf()
  PictureDisplay(5,"80_merlin_st01",0,0,0,0,100,100,255,0)
  ShowMessageFace("merlin_fc1",0,0,2,14)
  ShowMessage("【マーリン】")
  ShowMessage("まぁまぁ、ドン……")
  ShowMessage("いつかは伝えなければならなかった事でしょう。")
  If(1,1033,0,2,1)
   If(0,6,0)
    ShowMessageFace("sonia_fc2",2,0,2,15)
    ShowMessage("【ソニア】")
    ShowMessage("マーリンさん……")
    ShowMessage("あなたが、ドン・ファーザーだっていう話でしたよね？")
    0()
   Else()
    ShowMessageFace("ruka_fc1",0,0,2,16)
    ShowMessage("【ルカ】")
    ShowMessage("マーリンさん……")
    ShowMessage("あなたが、ドン・ファーザーだっていう話でしたよね？")
    0()
   EndIf()
   ShowMessageFace("merlin_fc1",0,0,2,17)
   ShowMessage("【マーリン】")
   ShowMessage("ええ、普段は私がドン・ファーザーとして活動しています。")
   ShowMessage("しかし真のドンは、ラザロなのですよ。")
   0()
  Else()
   ShowMessageFace("ruka_fc1",0,0,2,18)
   ShowMessage("【ルカ】")
   ShowMessage("あなたは……？")
   ShowMessageFace("merlin_fc1",0,0,2,19)
   ShowMessage("【マーリン】")
   ShowMessage("私はマーリン、表向きにはドン・ファーザーとして知られています。")
   ShowMessage("しかし真のドンは、ラザロなのですよ。")
   0()
  EndIf()
  ShowMessageFace("merlin_fc1",0,0,2,20)
  ShowMessage("【マーリン】")
  ShowMessage("そして私は、ルカさんの父やソニアさんの母とも知己。")
  ShowMessage("かつて、ラザロも含め四人で冒険をしていたのです。")
  If(0,6,0)
   ShowMessageFace("sonia_fc2",2,0,2,21)
   ShowMessage("【ソニア】")
   ShowMessage("じゃあ、あなたが……")
   ShowMessage("パーティで魔法使いを務めたっていう……")
   0()
  Else()
   ShowMessageFace("ruka_fc1",0,0,2,22)
   ShowMessage("【ルカ】")
   ShowMessage("じゃあ、あなたが……")
   ShowMessage("パーティで魔法使いを務めたっていう……")
   0()
  EndIf()
  ShowMessageFace("merlin_fc1",0,0,2,23)
  ShowMessage("【マーリン】")
  ShowMessage("ええ、魔導師マーリンでございます。")
  ShowMessage("最近は、魔法の腕などすっかり錆び付いてしまいましたが。")
  If(12,"exist_party_persona_id?(391)")
   ShowMessageFace("mefist_fc2",0,0,2,24)
   ShowMessage("【メフィスト】")
   ShowMessage("……まあまあ、積もる話は作戦が終わった後で。")
   ShowMessage("今は、これからの事を話し合いましょう。")
   0()
  Else()
   ShowMessageFace("mefist_fc1",0,0,2,25)
   ShowMessage("【メフィスト】")
   ShowMessage("……まあまあ、積もる話は作戦が終わった後で。")
   ShowMessage("今は、これからの事を話し合いましょう。")
   0()
  EndIf()
  PictureDisplay(5,"80_lazarus_st21",0,0,0,0,100,100,255,0)
  ShowMessageFace("lazarus3_fc1",0,0,2,26)
  ShowMessage("【ラザロ】")
  ShowMessage("話し合う事なんて、特にねぇよ。")
  ShowMessage("準備は万端だ、こちらはいつでも決行できるぜ。")
  If(0,6,0)
   ShowMessageFace("sonia_fc1",5,0,2,27)
   ShowMessage("【ソニア】")
   ShowMessage("準備って……いったいどんな悪巧み？")
   0()
  Else()
   ShowMessageFace("ruka_fc1",0,0,2,28)
   ShowMessage("【ルカ】")
   ShowMessage("準備って……何をしたの？")
   0()
  EndIf()
  If(12,"exist_party_persona_id?(391)")
   ShowMessageFace("mefist_fc2",0,0,2,29)
   ShowMessage("【メフィスト】")
   ShowMessage("彼の組織の者達が、この町のあちこちに潜入しているのです。")
   ShowMessage("そして、合図があれば一斉に破壊工作を始めるのですよ。")
   0()
  Else()
   ShowMessageFace("mefist_fc1",0,0,2,30)
   ShowMessage("【メフィスト】")
   ShowMessage("彼の組織の者達が、この町のあちこちに潜入しているのです。")
   ShowMessage("そして、合図があれば一斉に破壊工作を始めるのですよ。")
   0()
  EndIf()
  PictureDisplay(5,"80_lazarus_st22",0,0,0,0,100,100,255,0)
  ShowMessageFace("lazarus3_fc1",1,0,2,31)
  ShowMessage("【ラザロ】")
  ShowMessage("グランゴルドの重要施設15箇所に、部下が浸透してる。")
  ShowMessage("難しい仕事かと思ったが、周囲は淫気ですっかりフヌケでな……")
  ShowMessageFace("lazarus3_fc1",1,0,2,32)
  ShowMessage("【ラザロ】")
  ShowMessage("潜入工作は、非常に簡単だったって話だぜ。")
  ShowMessage("合図があれば、各所の爆弾が一斉起爆って寸法だ。")
  If(0,6,0)
   ShowMessageFace("sonia_fc2",5,0,2,33)
   ShowMessage("【ソニア】")
   ShowMessage("それ、無差別テロじゃない！")
   0()
  Else()
   ShowMessageFace("ruka_fc1",0,0,2,34)
   ShowMessage("【ルカ】")
   ShowMessage("それ、無差別テロじゃないか！")
   0()
  EndIf()
  ShowMessageFace("lazarus3_fc1",1,0,2,35)
  ShowMessage("【ラザロ】")
  ShowMessage("無差別テロとは、人聞きの悪い……")
  ShowMessage("れっきとした有差別テロだ、一般人は巻き込まねぇよ。")
  ShowMessageFace("lazarus3_fc1",1,0,2,36)
  ShowMessage("【ラザロ】")
  ShowMessage("こっちもプロだ、安心しな。")
  ShowMessage("ちゃんと重要拠点かつ人的被害の出ない場所を選んでるんだよ。")
  If(12,"exist_party_persona_id?(391)")
   ShowMessageFace("mefist_fc2",0,0,2,37)
   ShowMessage("【メフィスト】")
   ShowMessage("この作戦は、魔王の手からグランゴルドを救うという体裁。")
   ShowMessage("ゆえに、作戦成功後に市民の支持を得るのも重要なのです。")
   ShowMessageFace("mefist_fc2",0,0,2,38)
   ShowMessage("【メフィスト】")
   ShowMessage("一般市民に決して被害は出さない……")
   ShowMessage("ヒューマニズム的観点のみならず、戦略上重要な事なのですよ。")
   0()
  Else()
   ShowMessageFace("mefist_fc1",0,0,2,39)
   ShowMessage("【メフィスト】")
   ShowMessage("この作戦は、魔王の手からグランゴルドを救うという体裁。")
   ShowMessage("ゆえに、作戦成功後に市民の支持を得るのも重要なのです。")
   ShowMessageFace("mefist_fc1",0,0,2,40)
   ShowMessage("【メフィスト】")
   ShowMessage("一般市民に決して被害は出さない……")
   ShowMessage("ヒューマニズム的観点のみならず、戦略上重要な事なのですよ。")
   0()
  EndIf()
  If(0,4,0)
   ShowMessageFace("alice_fc5",2,0,2,41)
   ShowMessage("【アリス】")
   ShowMessage("そして、市内が混乱に陥るのに乗じて、")
   ShowMessage("我々が城へと潜入……というわけだな。")
   0()
  EndIf()
  If(0,5,0)
   ShowMessageFace("iriasu_fc4",0,0,2,42)
   ShowMessage("【イリアス】")
   ShowMessage("そして、市内が混乱に陥るのに乗じて、")
   ShowMessage("我々が城へと潜入……というわけですね。")
   0()
  EndIf()
  PictureDisplay(5,"80_lazarus_st21",0,0,0,0,100,100,255,0)
  ShowMessageFace("lazarus3_fc1",0,0,2,43)
  ShowMessage("【ラザロ】")
  ShowMessage("町の水路から、城内に侵入できる……それも調査済みだ。")
  ShowMessage("もっとも、中には魔物がウヨウヨしてるがな。")
  If(12,"exist_party_persona_id?(391)")
   ShowMessageFace("mefist_fc2",0,0,2,44)
   ShowMessage("【メフィスト】")
   ShowMessage("そこを突っ切り、グランゴルド王を籠絡している")
   ShowMessage("クィーンアントを討つ……そういう手筈となっています。")
   0()
  Else()
   ShowMessageFace("mefist_fc1",0,0,2,45)
   ShowMessage("【メフィスト】")
   ShowMessage("そこを突っ切り、グランゴルド王を籠絡している")
   ShowMessage("クィーンアントを討つ……そういう手筈となっています。")
   0()
  EndIf()
  If(0,4,0)
   ShowMessageFace("alice_fc5",0,0,2,46)
   ShowMessage("【アリス】")
   ShowMessage("結局、事の成否は我らの手腕次第か……")
   0()
  EndIf()
  If(0,5,0)
   ShowMessageFace("iriasu_fc4",2,0,2,47)
   ShowMessage("【イリアス】")
   ShowMessage("結局、事の成否は私達の腕にかかってますね……")
   0()
  EndIf()
  If(12,"exist_party_persona_id?(391)")
   ShowMessageFace("mefist_fc2",0,0,2,48)
   ShowMessage("【メフィスト】")
   ShowMessage("もちろん、作戦に失敗し事が発覚すれば……")
   ShowMessage("グランドノア本国は、知らぬ存ぜぬで通します。")
   ShowMessageFace("mefist_fc2",0,0,2,49)
   ShowMessage("【メフィスト】")
   ShowMessage("捕まるのは、どこの馬の骨とも知れない勇者一行。")
   ShowMessage("それに闇社会のボスと、立場の微妙な魔導顧問……")
   0()
  Else()
   ShowMessageFace("mefist_fc1",0,0,2,50)
   ShowMessage("【メフィスト】")
   ShowMessage("もちろん、作戦に失敗し事が発覚すれば……")
   ShowMessage("グランドノア本国は、知らぬ存ぜぬで通します。")
   ShowMessageFace("mefist_fc1",0,0,2,51)
   ShowMessage("【メフィスト】")
   ShowMessage("捕まるのは、どこの馬の骨とも知れない勇者一行。")
   ShowMessage("それに闇社会のボスと、立場の微妙な魔導顧問……")
   0()
  EndIf()
  ShowMessageFace("lazarus3_fc1",0,0,2,52)
  ShowMessage("【ラザロ】")
  ShowMessage("ふん、トカゲの尻尾切りにゃ最適のメンツだよな。")
  PictureDisplay(5,"80_lazarus_st21",0,0,-150,0,100,100,255,0)
  PictureDisplay(6,"80_merlin_st01",0,0,150,0,100,100,255,0)
  ShowMessageFace("merlin_fc1",0,0,2,53)
  ShowMessage("【マーリン】")
  ShowMessage("しかし、事がなせば……")
  ShowMessage("私達はともかく、ルカさん達は国家の英雄となりますな。")
  If(0,6,0)
   ShowMessageFace("sonia_fc3",6,0,2,54)
   ShowMessage("【ソニア】")
   ShowMessage("すごい、ちょっとワクワクするかも……")
   0()
  Else()
   ShowMessageFace("ruka_fc1",0,0,2,55)
   ShowMessage("【ルカ】")
   ShowMessage("すごい、ちょっとワクワクするかも……")
   0()
  EndIf()
  ShowMessageFace("lazarus3_fc1",0,0,2,56)
  ShowMessage("【ラザロ】")
  ShowMessage("……ワクワクしてる場合か、大馬鹿。")
  ShowMessage("終わった後、お前達が関わった理由を聞かせてもらうからな。")
  If(0,6,0)
   ShowMessageFace("sonia_fc2",5,0,2,57)
   ShowMessage("【ソニア】")
   ShowMessage("後で話を聞くって、こっちのセリフよ！")
   ShowMessage("そっちの事、洗いざらい白状してもらうからね！")
   ShowMessageFace("lazarus3_fc1",2,0,2,58)
   ShowMessage("【ラザロ】")
   ShowMessage("まあ……お手柔らかにな……")
   0()
  EndIf()
  ShowMessageFace("ruka_fc1",0,0,2,59)
  ShowMessage("【ルカ】")
  ShowMessage("……………………")
  PictureClear(5)
  PictureClear(6)
  ShowMessageFace("",0,0,2,60)
  ShowMessage("ともかく、いよいよ作戦の最終段階だ。")
  ShowMessage("決行の前に、戦闘の準備を整えておかなければ――")
  241(bytes(0x04,0x08,0x6f,0x3a,0x0d,0x52,0x50,0x47,0x3a,0x3a,0x42,0x47,0x4d,0x08,0x3a,0x0a,0x40,0x6e,0x61,0x6d,0x65,0x49,0x22,0x0a,0x63,0x69,0x74,0x79,0x31,0x06,0x3a,0x06,0x45,0x54,0x3a,0x0c,0x40,0x76,0x6f,0x6c,0x75,0x6d,0x65,0x69,0x69,0x3a,0x0b,0x40,0x70,0x69,0x74,0x63,0x68,0x69,0x69))
  If(1,1024,0,6,2)
   ChangeVariable(1024,1024,0,0,7)
   ChangeSwitch(2321,2321,0)
   0()
  EndIf()
  ChangeVariable(1033,1033,0,0,2)
  ChangeSelfSwitch("A",0)
  0()
 PAGE   2
  // condition: self-switch A is ON
  0()



EVENT   29
 PAGE   1
  If(1,1001,0,26,0)
   PictureDisplay(5,"80_grangold_st11",0,0,0,0,100,100,0,0)
   PictureMove(5,null,0,0,0,0,100,100,255,0,30,true)
   ShowMessageFace("grangold_fc2",0,0,2,1)
   ShowMessage("【グランゴルド王】")
   ShowMessage("おお、勇者ルカ……我が城へようこそ！")
   If(0,6,0)
    ShowMessageFace("sonia_fc3",2,0,2,2)
    ShowMessage("【ソニア】")
    ShowMessage("倉庫！")
    0()
   Else()
    ShowMessageFace("ruka_fc1",0,0,2,3)
    ShowMessage("【ルカ】")
    ShowMessage("ここ、倉庫ですよね……？")
    0()
   EndIf()
   ShowMessageFace("grangold_fc2",0,0,2,4)
   ShowMessage("【グランゴルド王】")
   ShowMessage("城は無惨な有様で、再建の目処は立たないからね……")
   ShowMessage("しばらくは、この倉庫がグランゴルド城さ。")
   If(4,88,0)
    ShowMessageFace("jack_fc1",1,0,2,5)
    ShowMessage("【かぼちゃ】")
    ShowMessage("倉庫のお城……なんだか楽しそう……")
    0()
   EndIf()
   If(12,"exist_party_persona_id?(241)")
    ShowMessageFace("a_emp_fc1",1,0,2,6)
    ShowMessage("【プリエステス】")
    ShowMessage("ここ、いいですね。")
    ShowMessage("私も閉じ込もりたいです……")
    0()
   EndIf()
   ShowMessageFace("grangold_fc2",0,0,2,7)
   ShowMessage("【グランゴルド王】")
   ShowMessage("さて、君達にお願いしたい依頼があるんだ。")
   ShowMessage("ゴルド中央地域の村々で、奇妙な動きが起きている……")
   ShowMessageFace("grangold_fc2",0,0,2,8)
   ShowMessage("【グランゴルド王】")
   ShowMessage("……っと、その前にゴルド地域について簡単に説明しよう。")
   ShowMessage("君達は、この地域には詳しくないのだったね。")
   ShowMessageFace("grangold_fc2",0,0,2,9)
   ShowMessage("【グランゴルド王】")
   ShowMessage("ゴルド地方は、東部、中部、西部の三地域に分けられる。")
   ShowMessage("グランゴルド城のあるこの地域は、東部に位置するんだ。")
   If(0,6,0)
    ShowMessageFace("sonia_fc1",0,0,2,10)
    ShowMessage("【ソニア】")
    ShowMessage("ゴルド砦を抜けて、ゴッダールから進軍の丘、そしてこの王都……")
    ShowMessage("ゴルド東部だけでも、かなり広いんですね。")
    0()
   Else()
    ShowMessageFace("ruka_fc1",0,0,2,11)
    ShowMessage("【ルカ】")
    ShowMessage("ゴルド砦を抜けて、ゴッダールから進軍の丘、そしてこの王都……")
    ShowMessage("ゴルド東部だけでも、かなり広いんですね。")
    0()
   EndIf()
   ShowMessageFace("grangold_fc2",0,0,2,12)
   ShowMessage("【グランゴルド王】")
   ShowMessage("そして、この城の西にある関所を越えると……")
   ShowMessage("色々と問題が起きている、ゴルド中央部に辿り着くんだ。")
   ShowMessageFace("grangold_fc2",0,0,2,13)
   ShowMessage("【グランゴルド王】")
   ShowMessage("中央地域で、最も大きい町は港町のゴルドポート。")
   ShowMessage("そして、各領主の収める村がいくつか点在しているんだけど……")
   If(0,4,0)
    ShowMessageFace("alice_fc5",0,0,2,14)
    ShowMessage("【アリス】")
    ShowMessage("その村々で、何か起きたわけだな。")
    ShowMessage("話を聞く前に、ゴルド西部についても説明を頼む。")
    0()
   EndIf()
   If(0,5,0)
    ShowMessageFace("iriasu_fc4",2,0,2,15)
    ShowMessage("【イリアス】")
    ShowMessage("ああ……あの辺、問題のある村が多いですね。")
    ShowMessage("ですがその前に、ゴルド西部の説明もお願いします。")
    ShowMessageFace("iriasu_fc4",0,0,2,16)
    ShowMessage("【イリアス】")
    ShowMessage("私は、もちろん全知全能ですが……")
    ShowMessage("ルカ達は、ほとんど知識がないのでしょう？")
    0()
   EndIf()
   ShowMessageFace("grangold_fc2",0,0,2,17)
   ShowMessage("【グランゴルド王】")
   ShowMessage("ああ、確かに君達は知っておくべきだね。")
   ShowMessage("ゴルド西部は、ほとんど人が踏み込まない地さ。")
   ShowMessageFace("grangold_fc2",0,0,2,18)
   ShowMessage("【グランゴルド王】")
   ShowMessage("中央部と西部を分かつ「悪夢の荒野」を越えると……")
   ShowMessage("居住には適さない砂漠地帯が広がっている。")
   ShowMessageFace("grangold_fc2",0,0,2,19)
   ShowMessage("【グランゴルド王】")
   ShowMessage("そして、ゴルド地方のタルタロスはそこにある。")
   ShowMessage("ゴルド西部砂漠の最西に、ぽっかりと開いているのさ。")
   ShowMessageFace("grangold_fc2",0,0,2,20)
   ShowMessage("【グランゴルド王】")
   ShowMessage("あまりにも過酷な地形で、そこに行き着く事さえ困難。")
   ShowMessage("ゆえに、調査は全く行われていないんだよ。")
   If(0,4,0)
    ShowMessageFace("alice_fc5",2,0,2,21)
    ShowMessage("【アリス】")
    ShowMessage("我々も、そこに行かねばならんが……")
    ShowMessage("この地域での用事を全て終え、最後に回した方がよかろう。")
    0()
   EndIf()
   If(0,5,0)
    ShowMessageFace("iriasu_fc4",2,0,2,22)
    ShowMessage("【イリアス】")
    ShowMessage("そこを調べるのが、我々の最も重要な目的ですが……")
    ShowMessage("この地域での用事を全て終えてから挑むのが最良でしょうね。")
    0()
   EndIf()
   ShowMessageFace("grangold_fc2",0,0,2,23)
   ShowMessage("【グランゴルド王】")
   ShowMessage("ああ……できれば、こちらの依頼を先に手掛けてほしいんだ。")
   ShowMessage("事によっては、住民達に危険が及ぶかもしれないからね。")
   ShowMessageFace("grangold_fc2",0,0,2,24)
   ShowMessage("【グランゴルド王】")
   ShowMessage("解決してもらいたい事柄は、二件あるんだ。")
   ShowMessage("まず一つは、サキュバスの村について。")
   If(0,6,0)
    ShowMessageFace("sonia_fc4",0,0,2,25)
    ShowMessage("【ソニア】")
    ShowMessage("サキュバスの村なんて、行きたくないなぁ……")
    ShowMessage("ルカみたいな青少年には悪影響だしね。")
    0()
   Else()
    ShowMessageFace("ruka_fc1",0,0,2,26)
    ShowMessage("【ルカ】")
    ShowMessage("サキュバスの村……？")
    0()
   EndIf()
   ShowMessageFace("grangold_fc2",0,0,2,27)
   ShowMessage("【グランゴルド王】")
   ShowMessage("まあ、サキュバスの村って言っても……")
   ShowMessage("そういう伝承があるだけで、実際にサキュバスはいないよ。")
   If(0,4,0)
    ShowMessageFace("alice_fc5",6,0,2,28)
    ShowMessage("【アリス】")
    ShowMessage("いや……村長を始め、村の重役の多くがサキュバスだが……")
    ShowMessage("……あっ、言ってはならんかったか？")
    0()
   EndIf()
   If(0,5,0)
    ShowMessageFace("iriasu_fc4",0,0,2,29)
    ShowMessage("【イリアス】")
    ShowMessage("……いいえ。")
    ShowMessage("村長を始め、村の多くの重役はサキュバスです。")
    0()
   EndIf()
   ShowMessageFace("grangold_fc2",0,0,2,30)
   ShowMessage("【グランゴルド王】")
   ShowMessage("えっと……王として、聞かなかった事にしよう。")
   ShowMessage("彼女達にも、色々と事情があるのだろう。")
   ShowMessageFace("grangold_fc2",0,0,2,31)
   ShowMessage("【グランゴルド王】")
   ShowMessage("ともかく、その村で不審な妖魔が出没しているらしい。")
   ShowMessage("村長に対し、何度も不当な要求を突きつけているという噂なんだ。")
   If(4,203,0)
    ShowMessageFace("tatunoko_k_fc1",2,0,2,32)
    ShowMessage("【たつこ】")
    ShowMessage("不当な要求……犯罪の臭いがするのです。")
    0()
   EndIf()
   ShowMessageFace("grangold_fc2",0,0,2,33)
   ShowMessage("【グランゴルド王】")
   ShowMessage("これは、正式なルートで上がってきた話ではないから……")
   ShowMessage("村長から、中央政府に救援要請があった訳でもない。")
   ShowMessageFace("grangold_fc2",0,0,2,34)
   ShowMessage("【グランゴルド王】")
   ShowMessage("しかしこのご時世、無視はできない話だからね……")
   ShowMessage("この一件、君達に調査してもらいたいんだ。")
   If(0,4,0)
    ShowMessageFace("alice_fc5",0,0,2,35)
    ShowMessage("【アリス】")
    ShowMessage("サキュバスの村に、謎の妖魔が要求を……？")
    ShowMessage("何が起きているのか、確かめねばならんな。")
    0()
   EndIf()
   If(0,5,0)
    ShowMessageFace("iriasu_fc4",2,0,2,36)
    ShowMessage("【イリアス】")
    ShowMessage("サキュバスの村に、謎の妖魔が要求を……？")
    ShowMessage("行って確認せねばなりませんね。")
    0()
   EndIf()
   If(4,171,0)
    ShowMessageFace("lizardboss_fc1",0,0,2,37)
    ShowMessage("【ミランダ】")
    ShowMessage("その、謎の妖魔を叩きのめせば済みそうだね。")
    ShowMessage("楽そうな仕事じゃないか。")
    0()
   EndIf()
   ShowMessageFace("grangold_fc2",0,0,2,38)
   ShowMessage("【グランゴルド王】")
   ShowMessage("もう一つは、貴婦人の村に関して。")
   ShowMessage("そこの領主、カサンドラ・ネーレイドが屋敷に引きこもってしまった。")
   ShowMessageFace("grangold_fc2",0,0,2,39)
   ShowMessage("【グランゴルド王】")
   ShowMessage("こちらの使いが面会を試みたんだが……")
   ShowMessage("領主のメイドが、頑として主人との面会を拒んでくるという。")
   ShowMessageFace("grangold_fc2",0,0,2,40)
   ShowMessage("【グランゴルド王】")
   ShowMessage("なんとメイドは妖魔の姿を露わにし、")
   ShowMessage("「絶対に領主と会わせはしない」と脅迫したという報告だ。")
   If(0,4,0)
    ShowMessageFace("alice_fc5",0,0,2,41)
    ShowMessage("【アリス】")
    ShowMessage("カサンドラが絡んでいる以上、放置はできんな。")
    ShowMessage("しかし、屋敷に引きこもったとはいったい……")
    0()
   EndIf()
   If(0,5,0)
    ShowMessageFace("iriasu_fc4",2,0,2,42)
    ShowMessage("【イリアス】")
    ShowMessage("カサンドラは、妖魔の中でもタチの悪い存在。")
    ShowMessage("しかし、館に引きこもったというのはなぜなのでしょう……")
    0()
   EndIf()
   ShowMessageFace("grangold_fc2",0,0,2,43)
   ShowMessage("【グランゴルド王】")
   ShowMessage("以上、二つの事件の解決を依頼したい。")
   ShowMessage("引き替えといっては何だけど、領内における特権を認めるよ。")
   ShowMessageFace("grangold_fc2",0,0,2,44)
   ShowMessage("【グランゴルド王】")
   ShowMessage("西の関所にも、君達を通すよう通知してある。")
   ShowMessage("タルタロスの調査にも、可能な限り協力するよ。")
   If(0,4,0)
    ShowMessageFace("alice_fc5",0,0,2,45)
    ShowMessage("【アリス】")
    ShowMessage("うむ、妖魔が絡んだ二つの事件……")
    ShowMessage("こちらとしても、放置してはおけん。")
    ShowMessageFace("alice_fc5",0,0,2,46)
    ShowMessage("【アリス】")
    ShowMessage("まずその二つの事件を解決した後、サラマンダーと契約。")
    ShowMessage("しかる後、タルタロスに向かうという流れはどうだ？")
    ShowMessageFace("alice_fc5",0,0,2,47)
    ShowMessage("【アリス】")
    ShowMessage("もちろん、決めるのは貴様だ。")
    ShowMessage("その判断に任せるとしよう。")
    0()
   EndIf()
   If(0,5,0)
    ShowMessageFace("iriasu_fc4",0,0,2,48)
    ShowMessage("【イリアス】")
    ShowMessage("妖魔の絡んだ、二つの事件……")
    ShowMessage("女神イリアスの名において、解決せねばなりませんね。")
    ShowMessageFace("iriasu_fc4",0,0,2,49)
    ShowMessage("【イリアス】")
    ShowMessage("まずその二つの事件を片付けた後、サラマンダーと契約。")
    ShowMessage("それから、タルタロスに向かうという流れはどうでしょう？")
    ShowMessageFace("iriasu_fc4",0,0,2,50)
    ShowMessage("【イリアス】")
    ShowMessage("……とは言え、実際の道筋はあなたが決めるのです。")
    ShowMessage("私は、責任を丸投げするとしましょう。")
    0()
   EndIf()
   ShowMessageFace("grangold_fc2",0,0,2,51)
   ShowMessage("【グランゴルド王】")
   ShowMessage("他の詳しい事は、ここにいる大臣達に聞いてくれ。")
   ShowMessage("僕よりも適切なアドバイスを与えてくれるはずだ。")
   ShowMessageFace("grangold_fc2",0,0,2,52)
   ShowMessage("【グランゴルド王】")
   ShowMessage("それじゃあ、頼んだよ。")
   ShowMessage("僕は、王として魔王の侵攻に備えなければ……")
   ChangeVariable(1001,1001,0,0,27)
   ChangeVariable(1065,1065,0,0,1)
   ChangeVariable(1066,1066,0,0,1)
   PictureClear(5)
   EndEventProcessing()
   0()
  EndIf()
  If(1,1001,0,27,0)
   PictureDisplay(5,"80_grangold_st11",0,0,0,0,100,100,0,0)
   PictureMove(5,null,0,0,0,0,100,100,255,0,30,true)
   If(1,1065,0,3,1)
    If(1,1066,0,5,1)
     If(0,2277,1)
      ChangeSwitch(2277,2277,0)
      ShowMessageFace("grangold_fc2",0,0,2,53)
      ShowMessage("【グランゴルド王】")
      ShowMessage("サキュバスの村と貴婦人の村、両方とも解決してくれたね。")
      ShowMessage("礼として、グランゴルド王家に伝わる聖槍を君に送ろう。")
      250(bytes(0x04,0x08,0x6f,0x3a,0x0c,0x52,0x50,0x47,0x3a,0x3a,0x53,0x45,0x08,0x3a,0x0a,0x40,0x6e,0x61,0x6d,0x65,0x49,0x22,0x0a,0x49,0x74,0x65,0x6d,0x31,0x06,0x3a,0x06,0x45,0x54,0x3a,0x0b,0x40,0x70,0x69,0x74,0x63,0x68,0x69,0x69,0x3a,0x0c,0x40,0x76,0x6f,0x6c,0x75,0x6d,0x65,0x69,0x55))
      ChangeInventoryWeapon(227,0,0,1,false)
      ShowMessageFace("grangold_fc2",0,0,2,54)
      ShowMessage("【グランゴルド王】")
      ShowMessage("そしてこれは、二刀流が可能になるアクセサリだ。")
      ShowMessage("戦士タイプの者が装備すれば、修羅の如き力を発揮するだろう。")
      250(bytes(0x04,0x08,0x6f,0x3a,0x0c,0x52,0x50,0x47,0x3a,0x3a,0x53,0x45,0x08,0x3a,0x0a,0x40,0x6e,0x61,0x6d,0x65,0x49,0x22,0x0a,0x49,0x74,0x65,0x6d,0x31,0x06,0x3a,0x06,0x45,0x54,0x3a,0x0b,0x40,0x70,0x69,0x74,0x63,0x68,0x69,0x69,0x3a,0x0c,0x40,0x76,0x6f,0x6c,0x75,0x6d,0x65,0x69,0x55))
      ChangeInventoryArmor(1592,0,0,1,false)
      0()
     EndIf()
     ShowMessageFace("grangold_fc2",0,0,2,55)
     ShowMessage("【グランゴルド王】")
     ShowMessage("これから、火精サラマンダーと契約すると言っていたね。")
     ShowMessage("伝承によれば、サラマンダーはゴルド関所西の火山に棲んでいる。")
     ShowMessageFace("grangold_fc2",0,0,2,56)
     ShowMessage("【グランゴルド王】")
     ShowMessage("ただし、あそこは相当に過酷なダンジョンだよ。")
     ShowMessage("床に流れる溶岩対策も含め、十分に準備していくようにね。")
     ShowMessageFace("grangold_fc2",0,0,2,57)
     ShowMessage("【グランゴルド王】")
     ShowMessage("こちらは、各国の王と連携しつつ魔王軍の侵攻に警戒しておく。")
     ShowMessage("もし何かあれば、君の元にも連絡があるだろう。")
     PictureClear(5)
     EndEventProcessing()
     0()
    EndIf()
    0()
   EndIf()
   ShowMessageFace("grangold_fc2",0,0,2,58)
   ShowMessage("【グランゴルド王】")
   ShowMessage("詳しい事は、ここにいる大臣達に聞いてくれ。")
   ShowMessage("僕よりも適切なアドバイスを与えてくれるはずだ。")
   ShowMessageFace("grangold_fc2",0,0,2,59)
   ShowMessage("【グランゴルド王】")
   ShowMessage("それじゃあ、頼んだよ。")
   ShowMessage("僕は、王として魔王の侵攻に備えなければ……")
   PictureClear(5)
   EndEventProcessing()
   0()
  EndIf()
  If(1,1001,0,28,0)
   PictureDisplay(5,"80_grangold_st11",0,0,0,0,100,100,0,0)
   PictureMove(5,null,0,0,0,0,100,100,255,0,30,true)
   If(1,1065,0,3,1)
    If(1,1066,0,5,1)
     If(0,2277,1)
      ChangeSwitch(2277,2277,0)
      ShowMessageFace("grangold_fc2",0,0,2,60)
      ShowMessage("【グランゴルド王】")
      ShowMessage("サキュバスの村と貴婦人の村、両方とも解決してくれたね。")
      ShowMessage("礼として、グランゴルド王家に伝わる聖槍を君に送ろう。")
      250(bytes(0x04,0x08,0x6f,0x3a,0x0c,0x52,0x50,0x47,0x3a,0x3a,0x53,0x45,0x08,0x3a,0x0a,0x40,0x6e,0x61,0x6d,0x65,0x49,0x22,0x0a,0x49,0x74,0x65,0x6d,0x31,0x06,0x3a,0x06,0x45,0x54,0x3a,0x0b,0x40,0x70,0x69,0x74,0x63,0x68,0x69,0x69,0x3a,0x0c,0x40,0x76,0x6f,0x6c,0x75,0x6d,0x65,0x69,0x55))
      ChangeInventoryWeapon(227,0,0,1,false)
      ShowMessageFace("grangold_fc2",0,0,2,61)
      ShowMessage("【グランゴルド王】")
      ShowMessage("そしてこれは、二刀流が可能になるアクセサリだ。")
      ShowMessage("戦士タイプの者が装備すれば、修羅の如き力を発揮するだろう。")
      250(bytes(0x04,0x08,0x6f,0x3a,0x0c,0x52,0x50,0x47,0x3a,0x3a,0x53,0x45,0x08,0x3a,0x0a,0x40,0x6e,0x61,0x6d,0x65,0x49,0x22,0x0a,0x49,0x74,0x65,0x6d,0x31,0x06,0x3a,0x06,0x45,0x54,0x3a,0x0b,0x40,0x70,0x69,0x74,0x63,0x68,0x69,0x69,0x3a,0x0c,0x40,0x76,0x6f,0x6c,0x75,0x6d,0x65,0x69,0x55))
      ChangeInventoryArmor(1592,0,0,1,false)
      0()
     EndIf()
     0()
    EndIf()
    0()
   EndIf()
   ShowMessageFace("grangold_fc2",0,0,2,62)
   ShowMessage("【グランゴルド王】")
   ShowMessage("西のタルタロスを調査するらしいね。")
   ShowMessage("砂漠地帯は極めて危険だ、くれぐれも注意してくれ。")
   ShowMessageFace("grangold_fc2",0,0,2,63)
   ShowMessage("【グランゴルド王】")
   ShowMessage("こちらは、各国の王と連携しつつ魔王軍の侵攻に警戒しておく。")
   ShowMessage("もし何かあれば、君の元にも連絡があるだろう。")
   PictureClear(5)
   EndEventProcessing()
   0()
  EndIf()
  If(1,1001,0,29,0)
   PictureDisplay(5,"80_grangold_st11",0,0,0,0,100,100,0,0)
   PictureMove(5,null,0,0,0,0,100,100,255,0,30,true)
   If(2,"B",1)
    ChangeSelfSwitch("B",0)
    ShowMessageFace("grangold_fc2",0,0,2,64)
    ShowMessage("【グランゴルド王】")
    ShowMessage("やぁ、グランゴルド王宮にようこそ。")
    If(0,6,0)
     ShowMessageFace("sonia_fc3",2,0,2,65)
     ShowMessage("【ソニア】")
     ShowMessage("王様が仲間にいるのに、こっちにもいる！")
     0()
    Else()
     ShowMessageFace("ruka_fc1",0,0,2,66)
     ShowMessage("【ルカ】")
     ShowMessage("あれ？　仲間にいるはずなのに……")
     0()
    EndIf()
    ShowMessageFace("grangold_fc2",0,0,2,67)
    ShowMessage("【グランゴルド王】")
    ShowMessage("魔力を用いて、ちょっと肉体を増やしてみたんだ。")
    ShowMessage("意志は同一だし、片方の動きは鈍いから戦闘には応用できないね。")
    ShowMessageFace("grangold_fc2",0,0,2,68)
    ShowMessage("【グランゴルド王】")
    ShowMessage("まあ、それはともかく……")
    0()
   EndIf()
   ShowMessageFace("grangold_fc2",0,0,2,69)
   ShowMessage("【グランゴルド王】")
   ShowMessage("あの時は怒りに駆られ、つい飛び出してしまった……")
   ShowMessage("こんな私の姿を見てしまった国民も多いようだね。")
   ShowMessageFace("grangold_fc2",0,0,2,70)
   ShowMessage("【グランゴルド王】")
   ShowMessage("今のところは、あれが王の姿だと誰も思ってはいないが……")
   ShowMessage("それが明らかになるのも、時間の問題だろう。")
   ShowMessageFace("grangold_fc2",0,0,2,71)
   ShowMessage("【グランゴルド王】")
   ShowMessage("民は、今の私を受け入れるのだろうか……")
   ShowMessage("それとも……")
   PictureClear(5)
   EndEventProcessing()
   0()
  EndIf()
  If(1,1001,0,30,0)
   PictureDisplay(5,"80_grangold_st11",0,0,0,0,100,100,0,0)
   PictureMove(5,null,0,0,0,0,100,100,255,0,30,true)
   If(2,"B",1)
    ChangeSelfSwitch("B",0)
    ShowMessageFace("grangold_fc2",0,0,2,72)
    ShowMessage("【グランゴルド王】")
    ShowMessage("やぁ、グランゴルド王宮にようこそ。")
    If(0,6,0)
     ShowMessageFace("sonia_fc3",2,0,2,73)
     ShowMessage("【ソニア】")
     ShowMessage("王様が仲間にいるのに、こっちにもいる！")
     0()
    Else()
     ShowMessageFace("ruka_fc1",0,0,2,74)
     ShowMessage("【ルカ】")
     ShowMessage("あれ？　仲間にいるはずなのに……")
     0()
    EndIf()
    ShowMessageFace("grangold_fc2",0,0,2,75)
    ShowMessage("【グランゴルド王】")
    ShowMessage("魔力を用いて、ちょっと肉体を増やしてみたんだ。")
    ShowMessage("意志は同一だし、片方の動きは鈍いから戦闘には応用できないね。")
    0()
   EndIf()
   If(1,1072,0,1,0)
    ShowMessageFace("grangold_fc2",0,0,2,76)
    ShowMessage("【グランゴルド王】")
    ShowMessage("ともかく、我が国は蜘蛛の軍団の攻撃を受けているんだ。")
    ShowMessage("それを率いている蜘蛛之皇女は、「孤独の地」で指揮を執っている。")
    ShowMessageFace("grangold_fc2",0,0,2,77)
    ShowMessage("【グランゴルド王】")
    ShowMessage("どうか、君達の力で蜘蛛之皇女を倒してくれ。")
    ShowMessage("「孤独の地」は、内海中央の巨大タルタロスからまっすぐ北だ。")
    PictureClear(5)
    EndEventProcessing()
    0()
   EndIf()
   If(1,1072,0,2,0)
    ChangeVariable(1072,1072,0,0,3)
    ShowMessageFace("grangold_fc2",0,0,2,78)
    ShowMessage("【グランゴルド王】")
    ShowMessage("ともかく、蜘蛛之皇女を倒してくれたようだね。")
    ShowMessage("蜘蛛の軍団が引き上げていったと、前線から報告があったよ。")
    ShowMessageFace("grangold_fc2",0,0,2,79)
    ShowMessage("【グランゴルド王】")
    ShowMessage("我が国からの礼として、これを受け取ってくれ。")
    ShowMessage("初代魔導王が残したという秘宝、必ず役に立つはずだ。")
    250(bytes(0x04,0x08,0x6f,0x3a,0x0c,0x52,0x50,0x47,0x3a,0x3a,0x53,0x45,0x08,0x3a,0x0a,0x40,0x6e,0x61,0x6d,0x65,0x49,0x22,0x0a,0x49,0x74,0x65,0x6d,0x31,0x06,0x3a,0x06,0x45,0x54,0x3a,0x0b,0x40,0x70,0x69,0x74,0x63,0x68,0x69,0x69,0x3a,0x0c,0x40,0x76,0x6f,0x6c,0x75,0x6d,0x65,0x69,0x55))
    ChangeInventory_Item(626,0,0,1)
    ChangeSwitch(2311,2311,0)
    If(0,4,0)
     ShowMessageFace("alice_fc5",1,0,2,80)
     ShowMessage("【アリス】")
     ShowMessage("これは、王家に伝わる最上級職への転職アイテムのひとつ……")
     ShowMessage("これで魔導師系の最上級職に就けるな。")
     0()
    EndIf()
    If(0,5,0)
     ShowMessageFace("iriasu_fc4",1,0,2,81)
     ShowMessage("【イリアス】")
     ShowMessage("これは、王家に伝わる最上級職への転職アイテムのひとつ……")
     ShowMessage("これで魔導師系の最上級職に就けますね。")
     0()
    EndIf()
    ChangeVariable(1079,1079,0,0,3)
    RunCommonEvent(329)
    If(0,2274,0)
     EndEventProcessing()
     0()
    EndIf()
    ShowMessageFace("grangold_fc2",0,0,2,82)
    ShowMessage("【グランゴルド王】")
    ShowMessage("まだ他国は、妖魔の女王による攻撃にさらされている。")
    ShowMessage("彼女達を打ち倒し、この苦境から救い出してもらいたい。")
    PictureClear(5)
    EndEventProcessing()
    0()
   EndIf()
   If(1,1072,0,3,1)
    ShowMessageFace("grangold_fc2",0,0,2,83)
    ShowMessage("【グランゴルド王】")
    ShowMessage("まだ他国は、妖魔の女王による攻撃にさらされている。")
    ShowMessage("彼女達を打ち倒し、この苦境から救い出してもらいたい。")
    PictureClear(5)
    EndEventProcessing()
    0()
   EndIf()
   0()
  EndIf()
  If(1,1001,0,31,1)
   PictureDisplay(5,"80_grangold_st11",0,0,0,0,100,100,0,0)
   PictureMove(5,null,0,0,0,0,100,100,255,0,30,true)
   ShowMessageFace("grangold_fc2",0,0,2,84)
   ShowMessage("【グランゴルド王】")
   ShowMessage("魔王城への攻撃、君達に任せたよ。")
   ShowMessage("戦力が必要なら、僕をパーティに入れてくれ。")
   PictureClear(5)
   EndEventProcessing()
   0()
  EndIf()
  0()



EVENT   30
 PAGE   1
  281(1)
  250(bytes(0x04,0x08,0x6f,0x3a,0x0c,0x52,0x50,0x47,0x3a,0x3a,0x53,0x45,0x08,0x3a,0x0a,0x40,0x6e,0x61,0x6d,0x65,0x49,0x22,0x09,0x4d,0x6f,0x76,0x65,0x06,0x3a,0x06,0x45,0x54,0x3a,0x0b,0x40,0x70,0x69,0x74,0x63,0x68,0x69,0x69,0x3a,0x0c,0x40,0x76,0x6f,0x6c,0x75,0x6d,0x65,0x69,0x55))
  TeleportPlayer(0,37,63,14,0,0)
  0()



EVENT   31
 PAGE   1
  If(1,1001,0,26,0)
   ShowMessageFace("",1,0,2,1)
   ShowMessage("【タル大臣】")
   ShowMessage("先に、王にお話を……")
   EndEventProcessing()
   0()
  EndIf()
  If(1,1001,0,27,0)
   If(1,1065,0,3,1)
    If(1,1066,0,5,1)
     ShowMessageFace("",1,0,2,2)
     ShowMessage("【タル大臣】")
     ShowMessage("事件の解決、ありがとうございました。")
     ShowMessage("心より感謝致します。")
     EndEventProcessing()
     0()
    EndIf()
    0()
   EndIf()
   ShowMessageFace("",1,0,2,3)
   ShowMessage("【タル大臣】")
   ShowMessage("二つの依頼に関して、もう一度説明しましょうか？")
   ShowMessage("王のお話しした内容の再確認となりますが……")
   ShowChoices(strings("説明を聞く","もういい"),2)
   IfPlayerPicksChoice(0,null)
    If(1,1065,0,2,2)
     ShowMessageFace("",1,0,2,4)
     ShowMessage("【タル大臣】")
     ShowMessage("まずは、サキュバスの村の一件。")
     ShowMessage("かの村に不審な妖魔が出現し、なんらかの要求を突きつけているようです。")
     0()
    Else()
     ShowMessageFace("",1,0,2,5)
     ShowMessage("【タル大臣】")
     ShowMessage("サキュバスの村の一件は、すでに解決済みですね。")
     ShowMessage("まさか、サキュバスの襲撃事件が起きるとは……")
     0()
    EndIf()
    If(1,1066,0,4,2)
     ShowMessageFace("",1,0,2,6)
     ShowMessage("【タル大臣】")
     ShowMessage("もう一つは、貴婦人の村の一件。")
     ShowMessage("当方からの調査官が、領主に会えず追い返されました。")
     ShowMessageFace("",1,0,2,7)
     ShowMessage("【タル大臣】")
     ShowMessage("領主カサンドラは、屋敷に引きこもり姿を現しません。")
     ShowMessage("そして調査官を追い返したメイドは、妖魔の姿で威嚇したとのこと。")
     ShowMessageFace("",1,0,2,8)
     ShowMessage("【タル大臣】")
     ShowMessage("貴婦人の村は、前々から妖魔との関係が噂されていたのですが……")
     ShowMessage("やはり、何か裏があるような感じですね。")
     0()
    Else()
     ShowMessageFace("",1,0,2,9)
     ShowMessage("【タル大臣】")
     ShowMessage("貴婦人の村の一件は、すでに解決済みですね。")
     ShowMessage("妖魔間の勢力争いも、なかなか複雑なものです……")
     0()
    EndIf()
    ShowMessageFace("",1,0,2,10)
    ShowMessage("【タル大臣】")
    ShowMessage("以上の事件、解決をお願いします。")
    ShowMessage("魔王軍の侵攻に備え、軍も動かせない状況ですので……")
    ShowMessageFace("",1,0,2,11)
    ShowMessage("【タル大臣】")
    ShowMessage("それでは、よろしくお願いします。")
    EndEventProcessing()
    0()
   IfPlayerPicksChoice(1,null)
    EndEventProcessing()
    0()
   404()
   0()
  EndIf()
  If(1,1001,0,28,0)
   ShowMessageFace("",1,0,2,12)
   ShowMessage("【タル大臣】")
   ShowMessage("今のグランゴルド王のお姿を、国民は知りません。")
   ShowMessage("療養中という名目で、いまだ民の前には出ていないのです……")
   EndEventProcessing()
   0()
  EndIf()
  If(1,1001,0,29,1)
   ShowMessageFace("",1,0,2,13)
   ShowMessage("【タル大臣】")
   ShowMessage("魔王軍との戦いで、グランゴルド王の姿が国民に目撃されてしまいました。")
   ShowMessage("謎のゴーレムとして、噂が広がっているようです……")
   EndEventProcessing()
   0()
  EndIf()
  0()



EVENT   32
 PAGE   1
  If(1,1001,0,26,0)
   ShowMessageFace("",1,0,2,1)
   ShowMessage("【ツボ大臣】")
   ShowMessage("陛下より、頼みがあるのです。")
   ShowMessage("先に陛下のお話をどうぞ。")
   EndEventProcessing()
   0()
  EndIf()
  If(1,1001,0,27,0)
   ShowMessageFace("",1,0,2,2)
   ShowMessage("【ツボ大臣】")
   ShowMessage("ゴルド各地域の特色について、説明しましょうか？")
   ShowMessage("王のお話しした内容の再確認となりますが……")
   ShowChoices(strings("説明を聞く","もういい"),2)
   IfPlayerPicksChoice(0,null)
    ShowMessageFace("",1,0,2,3)
    ShowMessage("【ツボ大臣】")
    ShowMessage("ゴルドは、東部、中部、西部の三地域に分けられます。")
    ShowMessage("グランゴルド城のあるこの地域は、東部に位置するのです。")
    ShowMessageFace("",1,0,2,4)
    ShowMessage("【ツボ大臣】")
    ShowMessage("そして、この城の西にある関所を越えると……")
    ShowMessage("ゴルド中央部に辿り着きます。")
    ShowMessageFace("",1,0,2,5)
    ShowMessage("【ツボ大臣】")
    ShowMessage("この地域で、最も大きい町は港町のゴルドポート。")
    ShowMessage("そして、各領主の収める村がいくつかありますね。")
    ShowMessageFace("",1,0,2,6)
    ShowMessage("【ツボ大臣】")
    ShowMessage("さらに西に行くと、ゴルド西部。")
    ShowMessage("ここは、ほとんど人が踏み込まない地となっています。")
    ShowMessageFace("",1,0,2,7)
    ShowMessage("【ツボ大臣】")
    ShowMessage("中央部と西部を分かつ「悪夢の荒野」を越えると……")
    ShowMessage("居住には適さない砂漠地帯が広がっているのです。")
    ShowMessageFace("",1,0,2,8)
    ShowMessage("【ツボ大臣】")
    ShowMessage("そこにタルタロスがありますが、行き着く事さえ難しい有様。")
    ShowMessage("ゆえに、調査はまったく行われていないのです。")
    ShowMessageFace("",1,0,2,9)
    ShowMessage("【ツボ大臣】")
    ShowMessage("解説は以上となります。")
    ShowMessage("ゴルド西部に踏み込む前に、綿密な準備をお忘れなく。")
    EndEventProcessing()
    0()
   IfPlayerPicksChoice(1,null)
    EndEventProcessing()
    0()
   404()
   0()
  EndIf()
  If(1,1001,0,28,0)
   ShowMessageFace("",1,0,2,10)
   ShowMessage("【ツボ大臣】")
   ShowMessage("魔王軍に、大きな動きは見られません。")
   ShowMessage("だからこそ、どう出てくるかが全く読めないのですよ……")
   EndEventProcessing()
   0()
  EndIf()
  If(1,1001,0,29,1)
   ShowMessageFace("",1,0,2,11)
   ShowMessage("【ツボ大臣】")
   ShowMessage("国民の間で、魔物に対する憎悪が高まってきています。")
   ShowMessage("このまま、人と魔物との対立は決定的になるのでしょうか……")
   EndEventProcessing()
   0()
  EndIf()
  0()



EVENT   33
 PAGE   1
  If(1,1001,0,26,0)
   ShowMessageFace("",1,0,2,1)
   ShowMessage("【タナ大臣】")
   ShowMessage("私よりも先に、王とお話を。")
   EndEventProcessing()
   0()
  EndIf()
  If(1,1001,0,27,0)
   ShowMessageFace("",1,0,2,2)
   ShowMessage("【タナ大臣】")
   ShowMessage("ゴルド各所の行き方について、ご説明しましょうか？")
   ShowChoices(strings("説明を聞く","必要ない"),2)
   IfPlayerPicksChoice(0,null)
    ShowMessageFace("",1,0,2,3)
    ShowMessage("【タナ大臣】")
    ShowMessage("この城より西に進めば、関所があります。")
    ShowMessage("そこを抜けて北東に進めば、港町ゴルドポートに着くはずです。")
    ShowMessageFace("",1,0,2,4)
    ShowMessage("【タナ大臣】")
    ShowMessage("いったんゴルドポートで休息しておく事をお勧めしますよ。")
    ShowMessage("西への旅は、まだまだ長いですからね。")
    ShowMessageFace("",1,0,2,5)
    ShowMessage("【タナ大臣】")
    ShowMessage("そしてゴルドポートから、西へと進み……")
    ShowMessage("丘陵地帯を抜けてすぐの所に、サキュバスの村があります。")
    ShowMessageFace("",1,0,2,6)
    ShowMessage("【タナ大臣】")
    ShowMessage("さらにサキュバスの村の北西には、貴婦人の村。")
    ShowMessage("その付近には、ゴルド西部に抜ける「悪夢の荒野」もあります。")
    ShowMessageFace("",1,0,2,7)
    ShowMessage("【タナ大臣】")
    ShowMessage("「悪夢の荒野」を抜けた先は、ゴルド西部。")
    ShowMessage("砂漠が広がり、人の住めない地となっています。")
    ShowMessageFace("",1,0,2,8)
    ShowMessage("【タナ大臣】")
    ShowMessage("タルタロスも、その砂漠地帯西部にありますが……")
    ShowMessage("強力な魔物もうろついていますので、くれぐれもご注意を。")
    ShowMessageFace("",1,0,2,9)
    ShowMessage("【タナ大臣】")
    ShowMessage("解説は以上となります。")
    ShowMessage("くれぐれも、お気をつけを。")
    EndEventProcessing()
    0()
   IfPlayerPicksChoice(1,null)
    EndEventProcessing()
    0()
   404()
   0()
  EndIf()
  If(1,1001,0,28,0)
   ShowMessageFace("",1,0,2,10)
   ShowMessage("【タナ大臣】")
   ShowMessage("グランゴルド城の現在のお姿を、いつまでも隠し通せはしません。")
   ShowMessage("しかし、いつ公表すればよいのやら……")
   EndEventProcessing()
   0()
  EndIf()
  If(1,1001,0,29,1)
   ShowMessageFace("",1,0,2,11)
   ShowMessage("【タナ大臣】")
   ShowMessage("グランゴルド王のお姿が、民に見られてしまいました。")
   ShowMessage("今はまだ、誰も王ご自身だと気付いてはいませんが……")
   EndEventProcessing()
   0()
  EndIf()
  0()



EVENT   34
 PAGE   1
  If(1,1063,0,12,2)
   ShowMessageFace("",0,0,2,1)
   ShowMessage("【神父】")
   ShowMessage("あへぇ……おいのりぃぃ……")
   ShowChoices(strings("お祈りをする","用はない"),2)
   IfPlayerPicksChoice(0,null)
    ChangeVariable(1002,1002,0,0,31)
    ShowMessageFace("",0,0,2,2)
    ShowMessage("【神父】")
    ShowMessage("導きの縁……へへへっ、王妃様……")
    0()
   IfPlayerPicksChoice(1,null)
    ShowMessageFace("",0,0,2,3)
    ShowMessage("【神父】")
    ShowMessage("おへぇ……")
    0()
   404()
   EndEventProcessing()
   0()
  EndIf()
  If(1,1063,0,13,1)
   ShowMessageFace("",0,0,2,4)
   ShowMessage("【神父】")
   ShowMessage("どう見ても民家教会にようこそ。")
   ShowMessage("何のご用ですかな？")
   ShowChoices(strings("お祈りをする","用はない"),2)
   IfPlayerPicksChoice(0,null)
    ChangeVariable(1002,1002,0,0,31)
    ShowMessageFace("",0,0,2,5)
    ShowMessage("【神父】")
    ShowMessage("それでは、イリアス様に祈りましょう。")
    ShowMessage("……ああ、この場に導きの縁を感じます。")
    ShowMessageFace("",0,0,2,6)
    ShowMessage("【神父】")
    ShowMessage("もし旅先で何かあった場合、この場に導かれるでしょう。")
    ShowMessage("イリアス様のご加護があらん事を……")
    0()
   IfPlayerPicksChoice(1,null)
    ShowMessageFace("",0,0,2,7)
    ShowMessage("【神父】")
    ShowMessage("イリアス様のご加護があらん事を……")
    0()
   404()
   EndEventProcessing()
   0()
  EndIf()
  0()



EVENT   35
 PAGE   1
  If(1,1001,0,25,2)
   If(1,1063,0,12,2)
    ShowMessageFace("",0,0,2,1)
    ShowMessage("【若い女性】")
    ShowMessage("王妃様……うふ、うふふふっ……")
    EndEventProcessing()
    0()
   EndIf()
   If(1,1063,0,13,1)
    ShowMessageFace("",0,0,2,2)
    ShowMessage("【若い女性】")
    ShowMessage("勇者ルカ……どんな方なのでしょう。")
    ShowMessage("みな理性を失っていたせいで目撃者も少なく、そのお姿は謎に包まれています。")
    EndEventProcessing()
    0()
   EndIf()
   0()
  EndIf()
  If(1,1001,0,26,1)
   ShowMessageFace("",0,0,2,3)
   ShowMessage("【若い女性】")
   ShowMessage("なんと勇者ルカは、可愛い少年勇者なのだとか。")
   ShowMessage("ここでこうしている場合ではないかもしれませんね……！")
   355("actor_label_jump")
   EndEventProcessing()
   DefineLabel("525")
   ShowMessageFace("sonia_fc1",2,0,2,4)
   ShowMessage("【ソニア】")
   ShowMessage("ここで、こうしていなさい……")
   EndEventProcessing()
   0()
  EndIf()
  0()



EVENT   36
 PAGE   1
  If(1,1063,0,12,2)
   ShowMessageFace("",0,0,2,1)
   ShowMessage("【老人】")
   ShowMessage("おお、脳が桃色に染められておる……")
   ShowMessage("あぁぁぁ、王妃様……")
   EndEventProcessing()
   0()
  EndIf()
  If(1,1063,0,13,1)
   ShowMessageFace("",0,0,2,2)
   ShowMessage("【老人】")
   ShowMessage("あぁ、王妃様……わし、恋をしてしまったわい。")
   EndEventProcessing()
   0()
  EndIf()
  0()



EVENT   37
 PAGE   1
  If(1,1063,0,12,2)
   ShowMessageFace("",0,0,2,1)
   ShowMessage("【老婆】")
   ShowMessage("王妃様のため、もてなしの準備をしませんと……")
   ShowMessage("ああ、王妃様……")
   EndEventProcessing()
   0()
  EndIf()
  If(1,1063,0,13,1)
   ShowMessageFace("",0,0,2,2)
   ShowMessage("【老婆】")
   ShowMessage("勇者様に感謝だね。")
   ShowMessage("きっとこのまま、魔王も倒して下さるよ。")
   EndEventProcessing()
   0()
  EndIf()
  0()



EVENT   38
 PAGE   1
  If(1,1063,0,12,2)
   ShowMessageFace("",0,0,2,1)
   ShowMessage("【戦士】")
   ShowMessage("おぉぉぉぉ……")
   ShowMessage("むふ、むふふふふっ……")
   EndEventProcessing()
   0()
  EndIf()
  If(1,1063,0,13,1)
   ShowMessageFace("",0,0,2,2)
   ShowMessage("【戦士】")
   ShowMessage("ゴルド地方のはるか西部には、不毛の砂漠が広がるばかり……")
   ShowMessage("そんな中に、タルタロスがあるという。")
   ShowMessageFace("",0,0,2,3)
   ShowMessage("【戦士】")
   ShowMessage("しかし、調査隊さえ出せないほどの難所だ……")
   ShowMessage("あんな場所に行こうとする奴は、私の知る限りおらんな。")
   EndEventProcessing()
   0()
  EndIf()
  0()



EVENT   39
 PAGE   1
  If(1,1063,0,12,2)
   ShowMessageFace("",0,0,2,1)
   ShowMessage("【魔導師】")
   ShowMessage("精神を保てないわ……")
   ShowMessage("あぁぁ……王妃様、お助けを……")
   EndEventProcessing()
   0()
  EndIf()
  If(1,1063,0,13,1)
   If(1,1078,0,4,2)
    ShowMessageFace("",0,0,2,2)
    ShowMessage("【魔導師】")
    ShowMessage("ゴッダールの北東に、大毒沼があるのを知っているかしら？")
    ShowMessage("あそこで遠からず、魔女信仰に関わる儀式が行われるようよ。")
    ShowMessageFace("",0,0,2,3)
    ShowMessage("【魔導師】")
    ShowMessage("でも、先日行ってみたけど……まだ何も始まっていなかったわ。")
    ShowMessage("まだしばらく、時機を見る必要がありそうね。")
    EndEventProcessing()
    0()
   EndIf()
   If(1,1078,0,5,1)
    ShowMessageFace("",0,0,2,4)
    ShowMessage("【魔導師】")
    ShowMessage("ゴッダールの北東に、大毒沼があるのを知っているかしら？")
    ShowMessage("あそこで魔女信仰に関わる儀式が行われたのよ。")
    ShowMessageFace("",0,0,2,5)
    ShowMessage("【魔導師】")
    ShowMessage("私も参加したんだけど、あっけなく敗北したわ。")
    ShowMessage("やっぱり無茶だったみたいね……")
    355("actor_label_jump")
    EndEventProcessing()
    DefineLabel("294")
    ShowMessageFace("emily_fc1",0,0,2,6)
    ShowMessage("【エミリ】")
    ShowMessage("あんた、いたっけ……？")
    EndEventProcessing()
    0()
   EndIf()
   0()
  EndIf()
  0()



EVENT   40
 PAGE   1
  If(1,1063,0,12,2)
   ShowMessageFace("",0,0,2,1)
   ShowMessage("【神官】")
   ShowMessage("はひ……ふひひひひひ……")
   EndEventProcessing()
   0()
  EndIf()
  If(1,1063,0,13,1)
   ShowMessageFace("",0,0,2,2)
   ShowMessage("【神官】")
   ShowMessage("高位の神官たる私が、邪術に心を乱されるなど……")
   ShowMessage("一から修行をやり直そうと思っています。")
   355("actor_label_jump")
   EndEventProcessing()
   DefineLabel("123")
   ShowMessageFace("sisccubus_fc1",0,0,2,3)
   ShowMessage("【クリスティー】")
   ShowMessage("私と修行しますか……？")
   ShowMessageFace("",0,0,2,4)
   ShowMessage("【神官】")
   ShowMessage("ああ、心が乱される……！")
   EndEventProcessing()
   0()
  EndIf()
  0()



EVENT   41
 PAGE   1
  If(1,1001,0,25,2)
   If(1,1063,0,12,2)
    ShowMessageFace("",0,0,2,1)
    ShowMessage("【シーフ】")
    ShowMessage("はぅぅ……あは、あははぁ……")
    EndEventProcessing()
    0()
   EndIf()
   If(1,1063,0,13,1)
    If(1,1067,0,6,2)
     ShowMessageFace("",0,0,2,2)
     ShowMessage("【シーフ】")
     ShowMessage("ゴルドポートで、海賊を名乗る女性に勧誘された。")
     ShowMessage("なんともヤバそうな依頼なので、断ったのだがな。")
     ShowMessageFace("",0,0,2,3)
     ShowMessage("【シーフ】")
     ShowMessage("興味があるなら、行ってみるといい。")
     ShowMessage("君も相当に腕が立ちそうだから、声を掛けられるんじゃないか？")
     EndEventProcessing()
     0()
    EndIf()
    If(1,1067,0,7,1)
     ShowMessageFace("",0,0,2,4)
     ShowMessage("【シーフ】")
     ShowMessage("ゴルドポートで、海賊を名乗る女性に勧誘された。")
     ShowMessage("なんともヤバそうな依頼なので、断ったのだがな。")
     EndEventProcessing()
     0()
    EndIf()
    0()
   EndIf()
   0()
  EndIf()
  If(1,1001,0,26,1)
   ShowMessageFace("",0,0,2,5)
   ShowMessage("【シーフ】")
   ShowMessage("ゴルドポートの方じゃ、魔物排斥運動の動きがあるらしい。")
   ShowMessage("まあ、昨今の情勢を考えれば当然だな……")
   EndEventProcessing()
   0()
  EndIf()
  0()



EVENT   42
 PAGE   1
  If(1,1063,0,12,2)
   ShowMessageFace("",0,0,2,1)
   ShowMessage("【宿屋の女性】")
   ShowMessage("うふふっ……15G……")
   ShowMessage("泊まって、うふふふふっ……\\$")
   ShowChoices(strings("はい","いいえ"),2)
   IfPlayerPicksChoice(0,null)
    If(7,15,0)
     125(1,0,15)
     221()
     249(bytes(0x04,0x08,0x6f,0x3a,0x0c,0x52,0x50,0x47,0x3a,0x3a,0x4d,0x45,0x08,0x3a,0x0a,0x40,0x6e,0x61,0x6d,0x65,0x49,0x22,0x08,0x49,0x6e,0x6e,0x06,0x3a,0x06,0x45,0x54,0x3a,0x0b,0x40,0x70,0x69,0x74,0x63,0x68,0x69,0x69,0x3a,0x0c,0x40,0x76,0x6f,0x6c,0x75,0x6d,0x65,0x69,0x69))
     Wait(150)
     314(0,0)
     222()
     0()
    Else()
     ShowMessageFace("",0,0,2,2)
     ShowMessage("【宿屋の女性】")
     ShowMessage("お金、ないです……？")
     ShowMessage("うふ、うふふふ……")
     0()
    EndIf()
    0()
   IfPlayerPicksChoice(1,null)
    0()
   404()
   EndEventProcessing()
   0()
  EndIf()
  If(1,1063,0,13,1)
   ShowMessageFace("",0,0,2,3)
   ShowMessage("【宿屋の女性】")
   ShowMessage("いらっしゃいませ。")
   ShowMessage("一泊、15Gとなります。\\$")
   ShowChoices(strings("はい","いいえ"),2)
   IfPlayerPicksChoice(0,null)
    If(7,15,0)
     125(1,0,15)
     221()
     249(bytes(0x04,0x08,0x6f,0x3a,0x0c,0x52,0x50,0x47,0x3a,0x3a,0x4d,0x45,0x08,0x3a,0x0a,0x40,0x6e,0x61,0x6d,0x65,0x49,0x22,0x08,0x49,0x6e,0x6e,0x06,0x3a,0x06,0x45,0x54,0x3a,0x0b,0x40,0x70,0x69,0x74,0x63,0x68,0x69,0x69,0x3a,0x0c,0x40,0x76,0x6f,0x6c,0x75,0x6d,0x65,0x69,0x69))
     Wait(150)
     314(0,0)
     222()
     0()
    Else()
     ShowMessageFace("",0,0,2,4)
     ShowMessage("【宿屋の女性】")
     ShowMessage("失礼ながら、お金が足りないかと……")
     0()
    EndIf()
    0()
   IfPlayerPicksChoice(1,null)
    0()
   404()
   EndEventProcessing()
   0()
  EndIf()
  0()



EVENT   43
 PAGE   1
  If(1,1063,0,12,2)
   ShowMessageFace("",0,0,2,1)
   ShowMessage("【おばさん】")
   ShowMessage("ふへぇ……おおおおおううひぉぉぉ……")
   EndEventProcessing()
   0()
  EndIf()
  If(1,1063,0,13,1)
   ShowMessageFace("",0,0,2,2)
   ShowMessage("【おばさん】")
   ShowMessage("西の火山は、炎の精霊様が住む霊山とされているんだけど……")
   ShowMessage("それが言われ出したのも、実はここ数十年の話でね。")
   ShowMessageFace("",0,0,2,3)
   ShowMessage("【おばさん】")
   ShowMessage("古代の土地神様や精霊様を崇めるのが、最近のトレンドなんだよ。")
   ShowMessage("イリアス様を拝んだって、大して御利益もないしねぇ……")
   355("actor_label_jump")
   EndEventProcessing()
   DefineLabel("26")
   ShowMessageFace("iriasu_fc4",2,0,2,4)
   ShowMessage("【イリアス】")
   ShowMessage("私はもはや、求められていないというのですか……")
   EndEventProcessing()
   0()
  EndIf()
  0()



EVENT   44
 PAGE   1
  If(1,1063,0,12,2)
   ShowMessageFace("",0,0,2,1)
   ShowMessage("【若い女性】")
   ShowMessage("うへぇ！！")
   EndEventProcessing()
   0()
  EndIf()
  If(1,1063,0,13,1)
   ShowMessageFace("",0,0,2,2)
   ShowMessage("【若い女性】")
   ShowMessage("魔王の宣戦布告は、皆に不安をもたらしています。")
   ShowMessage("このまま世界は、魔王に支配されてしまうのでしょうか……")
   EndEventProcessing()
   0()
  EndIf()
  0()



EVENT   45
 PAGE   1
  If(1,1063,0,12,2)
   ShowMessageFace("",0,0,2,1)
   ShowMessage("【少女】")
   ShowMessage("あぇあぇあぁぁぁ……！")
   EndEventProcessing()
   0()
  EndIf()
  If(1,1063,0,13,1)
   ShowMessageFace("",0,0,2,2)
   ShowMessage("【少女】")
   ShowMessage("西の火山にはね、サラマンダー様が住んでるんだよ。")
   ShowMessage("だから、人間が入っちゃダメなんだって。")
   355("actor_label_jump")
   EndEventProcessing()
   DefineLabel("15")
   ShowMessageFace("salamander_fc1",2,0,2,3)
   ShowMessage("【サラマンダー】")
   ShowMessage("危ないから、やめておけ。")
   EndEventProcessing()
   0()
  EndIf()
  0()



EVENT   46
 PAGE   1
  If(1,1063,0,12,2)
   ShowMessageFace("",0,0,2,1)
   ShowMessage("【兵士】")
   ShowMessage("おうひさまままま。")
   EndEventProcessing()
   0()
  EndIf()
  If(1,1063,0,13,1)
   ShowMessageFace("",0,0,2,2)
   ShowMessage("【兵士】")
   ShowMessage("このネックレス、彼女が欲しがっていたけれど……")
   ShowMessage("今の私の給料じゃ、とてもとても無理だなぁ。")
   EndEventProcessing()
   0()
  EndIf()
  0()



EVENT   47
 PAGE   1
  If(1,1063,0,12,2)
   ShowMessageFace("",0,0,2,1)
   ShowMessage("【旅の戦士】")
   ShowMessage("あ、が、ぐ、が！")
   EndEventProcessing()
   0()
  EndIf()
  If(1,1063,0,13,1)
   ShowMessageFace("",0,0,2,2)
   ShowMessage("【旅の戦士】")
   ShowMessage("ゴルド地方の中央部は、グランゴルドの支配が届きにくい地域だ。")
   ShowMessage("各地の領主が強い力を持ち、時には中央政府の指示にさえ背くという。")
   ShowMessageFace("",0,0,2,3)
   ShowMessage("【旅の戦士】")
   ShowMessage("実際に行ってみると、のどかで良いところなんだがな……")
   ShowMessage("どうにも独立色が濃い土地柄のようだ。")
   EndEventProcessing()
   0()
  EndIf()
  0()



EVENT   48
 PAGE   1
  If(1,1063,0,12,2)
   ShowMessageFace("",0,0,2,1)
   ShowMessage("【若妻】")
   ShowMessage("あぁ、夫がおかしく……")
   ShowMessage("わたしも……わたしも……お、おうひさま……")
   EndEventProcessing()
   0()
  EndIf()
  If(1,1063,0,13,1)
   ShowMessageFace("",0,0,2,2)
   ShowMessage("【若妻】")
   ShowMessage("私の事を愛してるって言ってたのに、「王妃様ぁぁ」ってどういう事よ！")
   ShowMessageFace("",0,0,2,3)
   ShowMessage("【若い夫】")
   ShowMessage("洗脳されたんだから、仕方ないだろう！")
   ShowMessage("お前だって言ってたし！")
   355("actor_label_jump")
   EndEventProcessing()
   DefineLabel("163")
   ShowMessageFace("lily_fc1",3,0,2,4)
   ShowMessage("【リリィ】")
   ShowMessage("争いなさい……憎しみなさい……")
   ShowMessage("今夜のごはんは美味しいわ……")
   EndEventProcessing()
   0()
  EndIf()
  0()



EVENT   49
 PAGE   1
  If(1,1063,0,12,2)
   ShowMessageFace("",0,0,2,1)
   ShowMessage("【若い夫】")
   ShowMessage("おうひさま……お、おおおおおお……！！")
   EndEventProcessing()
   0()
  EndIf()
  If(1,1063,0,13,1)
   ShowMessageFace("",0,0,2,2)
   ShowMessage("【若い夫】")
   ShowMessage("まずい、離婚の危機だ……")
   EndEventProcessing()
   0()
  EndIf()
  0()



EVENT   50
 PAGE   1
  If(1,1065,0,3,1)
   If(1,1066,0,5,1)
    PictureDisplay(5,"80_queenant_st01",0,0,0,0,100,100,0,0)
    PictureMove(5,null,0,0,0,0,100,100,255,0,30,true)
    ShowMessageFace("queenant_fc1",0,0,2,1)
    ShowMessage("【クィーンアント】")
    ShowMessage("現在、この倉庫……いえいえ、王宮に招かれております。")
    ShowMessage("同盟により、アリ娘達を兵士として供出している形となりますね。")
    ShowMessageFace("queenant_fc1",0,0,2,2)
    ShowMessage("【クィーンアント】")
    ShowMessage("ところで、妾は究極の甘露というものを求めています。")
    ShowMessage("それを味わえるならば、この身を捧げても構いません……")
    ShowMessageFace("queenant_fc1",0,0,2,3)
    ShowMessage("【クィーンアント】")
    ShowMessage("噂によれば、ヤマタイの村長が少量を保持しているとか。")
    ShowMessage("ああ、なんとしても手に入れたいものです……")
    If(8,546)
     ShowMessageFace("queenant_fc1",0,0,2,4)
     ShowMessage("【クィーンアント】")
     ShowMessage("……なんと、持っているのですか？")
     ShowMessage("下さい！　ぜひ下さい！")
     ChangeInventory_Item(546,1,0,1)
     ShowMessageFace("",0,0,2,5)
     ShowMessage("半ば強引に仙境の甘露を奪い取られた……")
     ShowMessageFace("queenant_fc1",0,0,2,6)
     ShowMessage("【クィーンアント】")
     ShowMessage("あまい……♪")
     ShowMessageFace("queenant_fc1",0,0,2,7)
     ShowMessage("【クィーンアント】")
     ShowMessage("……お見苦しい姿を見せてしまいましたね。")
     ShowMessage("謝罪と感謝の証として、あなたの力になりましょう。")
     ShowMessageFace("queenant_fc1",0,0,2,8)
     ShowMessage("【クィーンアント】")
     ShowMessage("仲間として、あなたに付き従います。")
     ShowMessage("妾の力、好きにお使い下さい……")
     PictureClear(5)
     205(0,bytes(0x04,0x08,0x6f,0x3a,0x13,0x52,0x50,0x47,0x3a,0x3a,0x4d,0x6f,0x76,0x65,0x52,0x6f,0x75,0x74,0x65,0x09,0x3a,0x0c,0x40,0x72,0x65,0x70,0x65,0x61,0x74,0x46,0x3a,0x0f,0x40,0x73,0x6b,0x69,0x70,0x70,0x61,0x62,0x6c,0x65,0x46,0x3a,0x0a,0x40,0x77,0x61,0x69,0x74,0x54,0x3a,0x0a,0x40,0x6c,0x69,0x73,0x74,0x5b,0x09,0x6f,0x3a,0x15,0x52,0x50,0x47,0x3a,0x3a,0x4d,0x6f,0x76,0x65,0x43,0x6f,0x6d,0x6d,0x61,0x6e,0x64,0x07,0x3a,0x0a,0x40,0x63,0x6f,0x64,0x65,0x69,0x2a,0x3a,0x10,0x40,0x70,0x61,0x72,0x61,0x6d,0x65,0x74,0x65,0x72,0x73,0x5b,0x00,0x6f,0x3b,0x0a,0x07,0x3b,0x0b,0x69,0x0f,0x3b,0x0c,0x5b,0x00,0x6f,0x3b,0x0a,0x07,0x3b,0x0b,0x69,0x2c,0x3b,0x0c,0x5b,0x00,0x6f,0x3b,0x0a,0x07,0x3b,0x0b,0x69,0x00,0x3b,0x0c,0x5b,0x00))
     355("add_actor_ex(268)")
     ChangeSwitch(2282,2282,0)
     249(bytes(0x04,0x08,0x6f,0x3a,0x0c,0x52,0x50,0x47,0x3a,0x3a,0x4d,0x45,0x08,0x3a,0x0a,0x40,0x6e,0x61,0x6d,0x65,0x49,0x22,0x0c,0x66,0x61,0x6e,0x66,0x61,0x6c,0x65,0x06,0x3a,0x06,0x45,0x54,0x3a,0x0b,0x40,0x70,0x69,0x74,0x63,0x68,0x69,0x69,0x3a,0x0c,0x40,0x76,0x6f,0x6c,0x75,0x6d,0x65,0x69,0x69))
     ShowMessageFace("",0,0,2,9)
     ShowMessage("アンティーヌ・アンが仲間に加わった！")
     Wait(60)
     If(0,4,0)
      ShowMessageFace("alice_fc5",0,0,2,10)
      ShowMessage("【アリス】")
      ShowMessage("貴様の本名、始めて知ったぞ……")
      ShowMessage("ずいぶん派手な名なのだな。")
      0()
     EndIf()
     If(0,5,0)
      ShowMessageFace("iriasu_fc4",2,0,2,11)
      ShowMessage("【イリアス】")
      ShowMessage("それ、本名なんですか？")
      ShowMessage("魔物のくせに、大層で偉そうな名ですね……")
      0()
     EndIf()
     ShowMessageFace("queenant_fc1",0,0,2,12)
     ShowMessage("【アンティーヌ・アン】")
     ShowMessage("自分で言うのも恥ずかしいですが……")
     ShowMessage("アリ族の優良個体として、母から期待をかけられておりました。")
     ShowMessageFace("queenant_fc1",0,0,2,13)
     ShowMessage("【アンティーヌ・アン】")
     ShowMessage("本来、アリ族はハチ族の下位種なのですが……")
     ShowMessage("妾の代において、種族の優劣は逆転したのです。")
     If(4,41,0)
      ShowMessageFace("stein_fc2",1,0,2,14)
      ShowMessage("【プロメスティン】")
      ShowMessage("突然変異なんですかね……")
      ShowMessage("血と、よければ触覚の片方をサンプルに頂きたいです。")
      0()
     EndIf()
     EndEventProcessing()
     0()
    Else()
     PictureClear(5)
     EndEventProcessing()
     0()
    EndIf()
    0()
   EndIf()
   0()
  EndIf()
  PictureDisplay(5,"80_queenant_st01",0,0,0,0,100,100,0,0)
  PictureMove(5,null,0,0,0,0,100,100,255,0,30,true)
  ShowMessageFace("queenant_fc1",0,0,2,15)
  ShowMessage("【クィーンアント】")
  ShowMessage("現在、この倉庫……いえいえ、王宮に招かれております。")
  ShowMessage("同盟により、アリ娘達を兵士として供出している形となりますね。")
  ShowMessageFace("queenant_fc1",0,0,2,16)
  ShowMessage("【クィーンアント】")
  ShowMessage("恩返しも込めて、あなたに力を貸したいのですが……")
  ShowMessage("今は身辺が慌ただしいので、もう少しばかりお待ち下さい。")
  PictureClear(5)
  0()
 PAGE   2
  // condition: switch 2282 is ON
  0()



EVENT   51
 PAGE   1
  If(1,1005,0,17,0)
   If(4,66,0)
    If(0,2065,0)
     If(0,2264,0)
      ShowMessageFace("vgirl_fc1",0,0,2,1)
      ShowMessage("【ヴァニラ】")
      ShowMessage("はじめまして、商人のヴァニラです。")
      ShowMessage("魔導三属性の魔石を、我が店に仕入れてほしいのですけど……")
      ShowMessageFace("",0,0,2,2)
      ShowMessage("【宮廷魔導師】")
      ShowMessage("勇者ルカのパーティの子ですね。")
      ShowMessage("あなた方は我が国の恩人、無償で提供いたしましょう。")
      ShowMessageFace("vgirl_fc1",0,0,2,3)
      ShowMessage("【ヴァニラ】")
      ShowMessage("無償で受け取るなど、良い取引にはならないのだ……")
      ShowMessage("こちらも、相応の対価を支払いますので。")
      ShowMessageFace("",0,0,2,4)
      ShowMessage("【宮廷魔導師】")
      ShowMessage("なるほど、実直でまっすぐな商人ですね。")
      ShowMessage("それでは、月あたりの供給量から……")
      ShowMessageFace("",0,0,2,5)
      ShowMessage("商談が進んでいく……")
      ShowMessage("一流商人にも劣らない交渉振りだ！")
      ShowMessageFace("",0,0,2,6)
      ShowMessage("【宮廷魔導師】")
      ShowMessage("実に良い条件ですね、承諾致しましょう。")
      ShowMessage("研究所の方にも連絡を入れておきます。")
      ShowMessageFace("vgirl_fc1",0,0,2,7)
      ShowMessage("【ヴァニラ】")
      ShowMessage("ありがとうございます！")
      ShowMessage("今後ともよろしく……なのだ！")
      249(bytes(0x04,0x08,0x6f,0x3a,0x0c,0x52,0x50,0x47,0x3a,0x3a,0x4d,0x45,0x08,0x3a,0x0a,0x40,0x6e,0x61,0x6d,0x65,0x49,0x22,0x0c,0x66,0x61,0x6e,0x66,0x61,0x6c,0x65,0x06,0x3a,0x06,0x45,0x54,0x3a,0x0b,0x40,0x70,0x69,0x74,0x63,0x68,0x69,0x69,0x3a,0x0c,0x40,0x76,0x6f,0x6c,0x75,0x6d,0x65,0x69,0x69))
      ShowMessageFace("",0,0,2,8)
      ShowMessage("ヴァニラの店で炎、氷、雷の上級魔石を扱うようになった！")
      ChangeVariable(1005,1005,0,0,18)
      ChangeSwitch(2065,2065,1)
      Wait(60)
      EndEventProcessing()
      0()
     EndIf()
     0()
    EndIf()
    0()
   EndIf()
   0()
  EndIf()
  If(1,1001,0,26,1)
   If(1,1001,0,27,2)
    ShowMessageFace("",0,0,2,9)
    ShowMessage("【宮廷魔導師】")
    ShowMessage("王の依頼など、この地で為すべき事は多いと思いますが……")
    ShowMessage("まず最初に、オリハルコンの武具を手に入れる事をお勧めします。")
    ShowMessageFace("",0,0,2,10)
    ShowMessage("【宮廷魔導師】")
    ShowMessage("なにせ、ゴルド地方で最高クラスの装備品ですから……")
    ShowMessage("パーティの戦力がアップするのは間違いないでしょう。")
    ShowMessageFace("",0,0,2,11)
    ShowMessage("【宮廷魔導師】")
    ShowMessage("そのために必要なオリハルコンの鉱石は、北西の溶岩鉱窟で入手できます。")
    ShowMessage("詳しいお話は、鍛冶屋の方で聞けるかと……")
    If(1,1064,0,0,0)
     ChangeVariable(1064,1064,0,0,1)
     0()
    EndIf()
    If(8,156)
     ShowMessageFace("",0,0,2,12)
     ShowMessage("【宮廷魔導師】")
     ShowMessage("おや、失礼……すでに入手済みのようですね。")
     EndEventProcessing()
     0()
    Else()
     If(0,4,0)
      ShowMessageFace("alice_fc5",2,0,2,13)
      ShowMessage("【アリス】")
      ShowMessage("ゴルド地方で最高クラスの武具か……")
      ShowMessage("何よりもまず、オリハルコンの入手を優先すべきかもしれんな。")
      0()
     EndIf()
     If(0,5,0)
      ShowMessageFace("iriasu_fc4",0,0,2,14)
      ShowMessage("【イリアス】")
      ShowMessage("オリハルコンの武具は、実に魅力的ですね。")
      ShowMessage("現在、何よりも優先すべき目的とみました。")
      0()
     EndIf()
     0()
    EndIf()
    EndEventProcessing()
    0()
   EndIf()
   0()
  EndIf()
  If(1,1001,0,28,0)
   ShowMessageFace("",0,0,2,15)
   ShowMessage("【宮廷魔導師】")
   ShowMessage("新たなゴーレムを開発する余力は、もはや我が軍はありません。")
   ShowMessage("現状で稼働する機体さえ、もはや数体なのです……")
   EndEventProcessing()
   0()
  EndIf()
  If(1,1001,0,29,1)
   ShowMessageFace("",0,0,2,16)
   ShowMessage("【宮廷魔導師】")
   ShowMessage("蜘蛛の妖魔達との戦いで、魔導部門は壊滅状態……")
   ShowMessage("復旧には、かなりの期間が必要になりますね。")
   EndEventProcessing()
   0()
  EndIf()
  0()



EVENT   52
 PAGE   1
  // condition: variable 1063 >= 13
  ShowMessageFace("",0,0,2,1)
  ShowMessage("【トレジャーハンター】")
  ShowMessage("北の海底神殿には、秘宝シルバーオーブが安置されているという。")
  ShowMessage("それを狙っているのだが、海底神殿に行き着く事さえ出来ん……")
  ShowMessageFace("",0,0,2,2)
  ShowMessage("【トレジャーハンター】")
  ShowMessage("ゴッダールの北東にある海岸から、海底神殿に行けるという話だが……")
  ShowMessage("何かのアイテムが必要らしく、神殿に導いてもらえないのだ。")
  If(1,1068,0,2,2)
   If(8,514)
    ShowMessageFace("ruka_fc1",0,0,2,3)
    ShowMessage("【ルカ】")
    ShowMessage("それ、導きの玉じゃないかな……")
    ShowMessage("確かナタリアポートで、マーメイドからもらったよね。")
    If(0,4,0)
     ShowMessageFace("alice_fc5",0,0,2,4)
     ShowMessage("【アリス】")
     ShowMessage("それがあれば、ゴルド海岸から海底神殿に行けるな。")
     ShowMessage("余裕があるなら、行ってみてはどうだ？")
     0()
    EndIf()
    If(0,5,0)
     ShowMessageFace("iriasu_fc4",0,0,2,5)
     ShowMessage("【イリアス】")
     ShowMessage("それがあれば、ゴルド海岸から海底神殿に行けますよ。")
     ShowMessage("余裕があるなら、襲撃してみてはどうですか？")
     0()
    EndIf()
    0()
   EndIf()
   0()
  EndIf()
  0()



EVENT   53
 PAGE   1
  // condition: variable 1063 >= 13
  ShowMessageFace("",0,0,2,1)
  ShowMessage("【旅の戦士】")
  ShowMessage("西部には、サキュバスの村と呼ばれる村落がある。")
  ShowMessage("胸を躍らせ、そこに踏み込んだ我々が見たものは――")
  ShowMessageFace("",0,0,2,2)
  ShowMessage("【旅の戦士】")
  ShowMessage("確かに美女は多いものの、ごく普通の村だったよ。")
  ShowMessage("君も、あまり期待してはいけないぞ。")
  0()



EVENT   54
 PAGE   1
  // condition: variable 1063 >= 13
  ShowMessageFace("",0,0,2,1)
  ShowMessage("【旅の女戦士】")
  ShowMessage("何を期待してたのよ、まったく……")
  ShowMessage("あそこには淫魔伝承があるだけで、魔物の村ってわけじゃないの。")
  355("actor_label_jump")
  EndEventProcessing()
  DefineLabel("287")
  ShowMessageFace("succubus_fc1",0,0,2,2)
  ShowMessage("【サキュバス】")
  ShowMessage("そういう事にしておきましょう。")
  EndEventProcessing()
  0()



EVENT   55
 PAGE   1
  // condition: variable 1063 >= 13
  ShowMessageFace("",0,0,2,1)
  ShowMessage("【旅の魔導師】")
  ShowMessage("脳まで筋肉の戦士連中はいざ知らず、私は妙な雰囲気を感じたわ。")
  ShowMessage("サキュバスの村、普通の村落とは違うのかも……")
  0()



EVENT   56
 PAGE   1
  // condition: variable 1063 >= 13
  ShowMessageFace("",0,0,2,1)
  ShowMessage("【男】")
  ShowMessage("マスターは、裏社会とも繋がりがあってな……")
  ShowMessage("この酒場、例のゴルド城侵入作戦のアジトになったって話だぜ。")
  ShowMessageFace("",0,0,2,2)
  ShowMessage("【男】")
  ShowMessage("……すでにもう知ってる、って顔だな。")
  0()



EVENT   57
 PAGE   1
  // condition: variable 1063 >= 13
  ShowMessageFace("",0,0,2,1)
  ShowMessage("【あらくれ】")
  ShowMessage("裏社会に君臨する帝王か……")
  ShowMessage("俺も、ドン・ファーザーのようになってやるぜ！")
  355("actor_label_jump")
  EndEventProcessing()
  DefineLabel("520")
  ShowMessageFace("lazarus3_fc1",1,0,2,2)
  ShowMessage("【ラザロ】")
  ShowMessage("おうおう、頑張んなよ。")
  ShowMessage("無理そうだったら、とっとと諦めなよ。")
  EndEventProcessing()
  DefineLabel("522")
  ShowMessageFace("merlin_fc1",0,0,2,3)
  ShowMessage("【マーリン】")
  ShowMessage("あまり感心できないかと……")
  EndEventProcessing()
  0()



EVENT   58
 PAGE   1
  // condition: variable 1063 >= 13
  0()



EVENT   59
 PAGE   1
  // condition: variable 1063 >= 13
  0()



EVENT   60
 PAGE   1
  // condition: variable 1063 >= 13
  0()



EVENT   61
 PAGE   1
  // condition: variable 1063 >= 13
  0()



EVENT   62
 PAGE   1
  // condition: variable 1063 >= 13
  0()



EVENT   63
 PAGE   1
  // condition: variable 1063 >= 13
  0()



EVENT   64
 PAGE   1
  // condition: variable 1063 >= 13
  0()



EVENT   65
 PAGE   1
  250(bytes(0x04,0x08,0x6f,0x3a,0x0c,0x52,0x50,0x47,0x3a,0x3a,0x53,0x45,0x08,0x3a,0x0a,0x40,0x6e,0x61,0x6d,0x65,0x49,0x22,0x0a,0x49,0x74,0x65,0x6d,0x31,0x06,0x3a,0x06,0x45,0x54,0x3a,0x0b,0x40,0x70,0x69,0x74,0x63,0x68,0x69,0x69,0x3a,0x0c,0x40,0x76,0x6f,0x6c,0x75,0x6d,0x65,0x69,0x55))
  ChangeSelfSwitch("A",0)
  ChangeInventory_Item(32,0,0,1)
  0()
 PAGE   2
  // condition: self-switch A is ON
  0()



EVENT   66
 PAGE   1
  250(bytes(0x04,0x08,0x6f,0x3a,0x0c,0x52,0x50,0x47,0x3a,0x3a,0x53,0x45,0x08,0x3a,0x0a,0x40,0x6e,0x61,0x6d,0x65,0x49,0x22,0x0a,0x49,0x74,0x65,0x6d,0x31,0x06,0x3a,0x06,0x45,0x54,0x3a,0x0b,0x40,0x70,0x69,0x74,0x63,0x68,0x69,0x69,0x3a,0x0c,0x40,0x76,0x6f,0x6c,0x75,0x6d,0x65,0x69,0x55))
  ChangeSelfSwitch("A",0)
  ChangeInventory_Item(19,0,0,1)
  0()
 PAGE   2
  // condition: self-switch A is ON
  0()



EVENT   67
 PAGE   1
  250(bytes(0x04,0x08,0x6f,0x3a,0x0c,0x52,0x50,0x47,0x3a,0x3a,0x53,0x45,0x08,0x3a,0x0a,0x40,0x6e,0x61,0x6d,0x65,0x49,0x22,0x0a,0x49,0x74,0x65,0x6d,0x31,0x06,0x3a,0x06,0x45,0x54,0x3a,0x0b,0x40,0x70,0x69,0x74,0x63,0x68,0x69,0x69,0x3a,0x0c,0x40,0x76,0x6f,0x6c,0x75,0x6d,0x65,0x69,0x55))
  ChangeSelfSwitch("A",0)
  ChangeInventory_Item(105,0,0,1)
  0()
 PAGE   2
  // condition: self-switch A is ON
  0()



EVENT   68
 PAGE   1
  250(bytes(0x04,0x08,0x6f,0x3a,0x0c,0x52,0x50,0x47,0x3a,0x3a,0x53,0x45,0x08,0x3a,0x0a,0x40,0x6e,0x61,0x6d,0x65,0x49,0x22,0x0a,0x49,0x74,0x65,0x6d,0x31,0x06,0x3a,0x06,0x45,0x54,0x3a,0x0b,0x40,0x70,0x69,0x74,0x63,0x68,0x69,0x69,0x3a,0x0c,0x40,0x76,0x6f,0x6c,0x75,0x6d,0x65,0x69,0x55))
  ChangeSelfSwitch("A",0)
  ChangeInventory_Item(11,0,0,1)
  0()
 PAGE   2
  // condition: self-switch A is ON
  0()



EVENT   69
 PAGE   1
  250(bytes(0x04,0x08,0x6f,0x3a,0x0c,0x52,0x50,0x47,0x3a,0x3a,0x53,0x45,0x08,0x3a,0x0a,0x40,0x6e,0x61,0x6d,0x65,0x49,0x22,0x0a,0x49,0x74,0x65,0x6d,0x31,0x06,0x3a,0x06,0x45,0x54,0x3a,0x0b,0x40,0x70,0x69,0x74,0x63,0x68,0x69,0x69,0x3a,0x0c,0x40,0x76,0x6f,0x6c,0x75,0x6d,0x65,0x69,0x55))
  ChangeSelfSwitch("A",0)
  ChangeInventory_Item(430,0,0,1)
  0()
 PAGE   2
  // condition: self-switch A is ON
  0()



EVENT   70
 PAGE   1
  250(bytes(0x04,0x08,0x6f,0x3a,0x0c,0x52,0x50,0x47,0x3a,0x3a,0x53,0x45,0x08,0x3a,0x0a,0x40,0x6e,0x61,0x6d,0x65,0x49,0x22,0x0a,0x49,0x74,0x65,0x6d,0x31,0x06,0x3a,0x06,0x45,0x54,0x3a,0x0b,0x40,0x70,0x69,0x74,0x63,0x68,0x69,0x69,0x3a,0x0c,0x40,0x76,0x6f,0x6c,0x75,0x6d,0x65,0x69,0x55))
  ChangeSelfSwitch("A",0)
  ChangeInventory_Item(4,0,0,1)
  0()
 PAGE   2
  // condition: self-switch A is ON
  0()



EVENT   71
 PAGE   1
  250(bytes(0x04,0x08,0x6f,0x3a,0x0c,0x52,0x50,0x47,0x3a,0x3a,0x53,0x45,0x08,0x3a,0x0a,0x40,0x6e,0x61,0x6d,0x65,0x49,0x22,0x0a,0x49,0x74,0x65,0x6d,0x31,0x06,0x3a,0x06,0x45,0x54,0x3a,0x0b,0x40,0x70,0x69,0x74,0x63,0x68,0x69,0x69,0x3a,0x0c,0x40,0x76,0x6f,0x6c,0x75,0x6d,0x65,0x69,0x55))
  ChangeSelfSwitch("A",0)
  ChangeInventory_Item(105,0,0,1)
  0()
 PAGE   2
  // condition: self-switch A is ON
  0()



EVENT   72
 PAGE   1
  250(bytes(0x04,0x08,0x6f,0x3a,0x0c,0x52,0x50,0x47,0x3a,0x3a,0x53,0x45,0x08,0x3a,0x0a,0x40,0x6e,0x61,0x6d,0x65,0x49,0x22,0x0a,0x49,0x74,0x65,0x6d,0x31,0x06,0x3a,0x06,0x45,0x54,0x3a,0x0b,0x40,0x70,0x69,0x74,0x63,0x68,0x69,0x69,0x3a,0x0c,0x40,0x76,0x6f,0x6c,0x75,0x6d,0x65,0x69,0x55))
  ChangeSelfSwitch("A",0)
  ChangeInventory_Item(29,0,0,1)
  0()
 PAGE   2
  // condition: self-switch A is ON
  0()



EVENT   73
 PAGE   1
  250(bytes(0x04,0x08,0x6f,0x3a,0x0c,0x52,0x50,0x47,0x3a,0x3a,0x53,0x45,0x08,0x3a,0x0a,0x40,0x6e,0x61,0x6d,0x65,0x49,0x22,0x0a,0x49,0x74,0x65,0x6d,0x31,0x06,0x3a,0x06,0x45,0x54,0x3a,0x0b,0x40,0x70,0x69,0x74,0x63,0x68,0x69,0x69,0x3a,0x0c,0x40,0x76,0x6f,0x6c,0x75,0x6d,0x65,0x69,0x55))
  ChangeSelfSwitch("A",0)
  ChangeInventory_Item(19,0,0,1)
  0()
 PAGE   2
  // condition: self-switch A is ON
  0()



EVENT   74
 PAGE   1
  241(bytes(0x04,0x08,0x6f,0x3a,0x0d,0x52,0x50,0x47,0x3a,0x3a,0x42,0x47,0x4d,0x08,0x3a,0x0a,0x40,0x6e,0x61,0x6d,0x65,0x49,0x22,0x0a,0x6d,0x75,0x72,0x61,0x33,0x06,0x3a,0x06,0x45,0x54,0x3a,0x0c,0x40,0x76,0x6f,0x6c,0x75,0x6d,0x65,0x69,0x69,0x3a,0x0b,0x40,0x70,0x69,0x74,0x63,0x68,0x69,0x69))
  TemporaryRemoveEvent()
  0()
 PAGE   2
  // condition: variable 1063 >= 13
  0()
