﻿


EVENT   1
 PAGE   1
  281(1)
  250(bytes(0x04,0x08,0x6f,0x3a,0x0c,0x52,0x50,0x47,0x3a,0x3a,0x53,0x45,0x08,0x3a,0x0a,0x40,0x6e,0x61,0x6d,0x65,0x49,0x22,0x09,0x4d,0x6f,0x76,0x65,0x06,0x3a,0x06,0x45,0x54,0x3a,0x0b,0x40,0x70,0x69,0x74,0x63,0x68,0x69,0x69,0x3a,0x0c,0x40,0x76,0x6f,0x6c,0x75,0x6d,0x65,0x69,0x55))
  TeleportPlayer(0,231,20,15,0,0)
  0()



EVENT   2
 PAGE   1
  281(1)
  250(bytes(0x04,0x08,0x6f,0x3a,0x0c,0x52,0x50,0x47,0x3a,0x3a,0x53,0x45,0x08,0x3a,0x0a,0x40,0x6e,0x61,0x6d,0x65,0x49,0x22,0x09,0x4d,0x6f,0x76,0x65,0x06,0x3a,0x06,0x45,0x54,0x3a,0x0b,0x40,0x70,0x69,0x74,0x63,0x68,0x69,0x69,0x3a,0x0c,0x40,0x76,0x6f,0x6c,0x75,0x6d,0x65,0x69,0x55))
  TeleportPlayer(0,232,28,31,0,0)
  0()



EVENT   3
 PAGE   1
  281(1)
  250(bytes(0x04,0x08,0x6f,0x3a,0x0c,0x52,0x50,0x47,0x3a,0x3a,0x53,0x45,0x08,0x3a,0x0a,0x40,0x6e,0x61,0x6d,0x65,0x49,0x22,0x09,0x4d,0x6f,0x76,0x65,0x06,0x3a,0x06,0x45,0x54,0x3a,0x0b,0x40,0x70,0x69,0x74,0x63,0x68,0x69,0x69,0x3a,0x0c,0x40,0x76,0x6f,0x6c,0x75,0x6d,0x65,0x69,0x55))
  TeleportPlayer(0,232,2,29,0,0)
  0()



EVENT   4
 PAGE   1
  281(1)
  250(bytes(0x04,0x08,0x6f,0x3a,0x0c,0x52,0x50,0x47,0x3a,0x3a,0x53,0x45,0x08,0x3a,0x0a,0x40,0x6e,0x61,0x6d,0x65,0x49,0x22,0x09,0x4d,0x6f,0x76,0x65,0x06,0x3a,0x06,0x45,0x54,0x3a,0x0b,0x40,0x70,0x69,0x74,0x63,0x68,0x69,0x69,0x3a,0x0c,0x40,0x76,0x6f,0x6c,0x75,0x6d,0x65,0x69,0x55))
  TeleportPlayer(0,232,5,23,0,0)
  0()



EVENT   5
 PAGE   1
  281(1)
  250(bytes(0x04,0x08,0x6f,0x3a,0x0c,0x52,0x50,0x47,0x3a,0x3a,0x53,0x45,0x08,0x3a,0x0a,0x40,0x6e,0x61,0x6d,0x65,0x49,0x22,0x09,0x4d,0x6f,0x76,0x65,0x06,0x3a,0x06,0x45,0x54,0x3a,0x0b,0x40,0x70,0x69,0x74,0x63,0x68,0x69,0x69,0x3a,0x0c,0x40,0x76,0x6f,0x6c,0x75,0x6d,0x65,0x69,0x55))
  TeleportPlayer(0,232,12,3,0,0)
  0()



EVENT   6
 PAGE   1
  0()



EVENT   7
 PAGE   1
  250(bytes(0x04,0x08,0x6f,0x3a,0x0c,0x52,0x50,0x47,0x3a,0x3a,0x53,0x45,0x08,0x3a,0x0a,0x40,0x6e,0x61,0x6d,0x65,0x49,0x22,0x0a,0x43,0x68,0x65,0x73,0x74,0x06,0x3a,0x06,0x45,0x54,0x3a,0x0b,0x40,0x70,0x69,0x74,0x63,0x68,0x69,0x69,0x3a,0x0c,0x40,0x76,0x6f,0x6c,0x75,0x6d,0x65,0x69,0x55))
  205(0,bytes(0x04,0x08,0x6f,0x3a,0x13,0x52,0x50,0x47,0x3a,0x3a,0x4d,0x6f,0x76,0x65,0x52,0x6f,0x75,0x74,0x65,0x09,0x3a,0x0c,0x40,0x72,0x65,0x70,0x65,0x61,0x74,0x46,0x3a,0x0f,0x40,0x73,0x6b,0x69,0x70,0x70,0x61,0x62,0x6c,0x65,0x46,0x3a,0x0a,0x40,0x77,0x61,0x69,0x74,0x54,0x3a,0x0a,0x40,0x6c,0x69,0x73,0x74,0x5b,0x0b,0x6f,0x3a,0x15,0x52,0x50,0x47,0x3a,0x3a,0x4d,0x6f,0x76,0x65,0x43,0x6f,0x6d,0x6d,0x61,0x6e,0x64,0x07,0x3a,0x0a,0x40,0x63,0x6f,0x64,0x65,0x69,0x29,0x3a,0x10,0x40,0x70,0x61,0x72,0x61,0x6d,0x65,0x74,0x65,0x72,0x73,0x5b,0x00,0x6f,0x3b,0x0a,0x07,0x3b,0x0b,0x69,0x16,0x3b,0x0c,0x5b,0x00,0x6f,0x3b,0x0a,0x07,0x3b,0x0b,0x69,0x14,0x3b,0x0c,0x5b,0x06,0x69,0x08,0x6f,0x3b,0x0a,0x07,0x3b,0x0b,0x69,0x17,0x3b,0x0c,0x5b,0x00,0x6f,0x3b,0x0a,0x07,0x3b,0x0b,0x69,0x14,0x3b,0x0c,0x5b,0x06,0x69,0x08,0x6f,0x3b,0x0a,0x07,0x3b,0x0b,0x69,0x00,0x3b,0x0c,0x5b,0x00))
  ChangeSelfSwitch("A",0)
  ChangeInventory_Item(29,0,0,1)
  0()
 PAGE   2
  // condition: self-switch A is ON
  0()



EVENT   8
 PAGE   1
  250(bytes(0x04,0x08,0x6f,0x3a,0x0c,0x52,0x50,0x47,0x3a,0x3a,0x53,0x45,0x08,0x3a,0x0a,0x40,0x6e,0x61,0x6d,0x65,0x49,0x22,0x0a,0x43,0x68,0x65,0x73,0x74,0x06,0x3a,0x06,0x45,0x54,0x3a,0x0b,0x40,0x70,0x69,0x74,0x63,0x68,0x69,0x69,0x3a,0x0c,0x40,0x76,0x6f,0x6c,0x75,0x6d,0x65,0x69,0x55))
  205(0,bytes(0x04,0x08,0x6f,0x3a,0x13,0x52,0x50,0x47,0x3a,0x3a,0x4d,0x6f,0x76,0x65,0x52,0x6f,0x75,0x74,0x65,0x09,0x3a,0x0c,0x40,0x72,0x65,0x70,0x65,0x61,0x74,0x46,0x3a,0x0f,0x40,0x73,0x6b,0x69,0x70,0x70,0x61,0x62,0x6c,0x65,0x46,0x3a,0x0a,0x40,0x77,0x61,0x69,0x74,0x54,0x3a,0x0a,0x40,0x6c,0x69,0x73,0x74,0x5b,0x0b,0x6f,0x3a,0x15,0x52,0x50,0x47,0x3a,0x3a,0x4d,0x6f,0x76,0x65,0x43,0x6f,0x6d,0x6d,0x61,0x6e,0x64,0x07,0x3a,0x0a,0x40,0x63,0x6f,0x64,0x65,0x69,0x29,0x3a,0x10,0x40,0x70,0x61,0x72,0x61,0x6d,0x65,0x74,0x65,0x72,0x73,0x5b,0x00,0x6f,0x3b,0x0a,0x07,0x3b,0x0b,0x69,0x16,0x3b,0x0c,0x5b,0x00,0x6f,0x3b,0x0a,0x07,0x3b,0x0b,0x69,0x14,0x3b,0x0c,0x5b,0x06,0x69,0x08,0x6f,0x3b,0x0a,0x07,0x3b,0x0b,0x69,0x17,0x3b,0x0c,0x5b,0x00,0x6f,0x3b,0x0a,0x07,0x3b,0x0b,0x69,0x14,0x3b,0x0c,0x5b,0x06,0x69,0x08,0x6f,0x3b,0x0a,0x07,0x3b,0x0b,0x69,0x00,0x3b,0x0c,0x5b,0x00))
  ChangeSelfSwitch("A",0)
  125(0,0,6600)
  ShowMessageFace("",0,0,2,1)
  ShowMessage("6600\\G acquired!")
  0()
 PAGE   2
  // condition: self-switch A is ON
  0()



EVENT   9
 PAGE   1
  250(bytes(0x04,0x08,0x6f,0x3a,0x0c,0x52,0x50,0x47,0x3a,0x3a,0x53,0x45,0x08,0x3a,0x0a,0x40,0x6e,0x61,0x6d,0x65,0x49,0x22,0x0a,0x43,0x68,0x65,0x73,0x74,0x06,0x3a,0x06,0x45,0x54,0x3a,0x0b,0x40,0x70,0x69,0x74,0x63,0x68,0x69,0x69,0x3a,0x0c,0x40,0x76,0x6f,0x6c,0x75,0x6d,0x65,0x69,0x55))
  205(0,bytes(0x04,0x08,0x6f,0x3a,0x13,0x52,0x50,0x47,0x3a,0x3a,0x4d,0x6f,0x76,0x65,0x52,0x6f,0x75,0x74,0x65,0x09,0x3a,0x0c,0x40,0x72,0x65,0x70,0x65,0x61,0x74,0x46,0x3a,0x0f,0x40,0x73,0x6b,0x69,0x70,0x70,0x61,0x62,0x6c,0x65,0x46,0x3a,0x0a,0x40,0x77,0x61,0x69,0x74,0x54,0x3a,0x0a,0x40,0x6c,0x69,0x73,0x74,0x5b,0x0b,0x6f,0x3a,0x15,0x52,0x50,0x47,0x3a,0x3a,0x4d,0x6f,0x76,0x65,0x43,0x6f,0x6d,0x6d,0x61,0x6e,0x64,0x07,0x3a,0x0a,0x40,0x63,0x6f,0x64,0x65,0x69,0x29,0x3a,0x10,0x40,0x70,0x61,0x72,0x61,0x6d,0x65,0x74,0x65,0x72,0x73,0x5b,0x00,0x6f,0x3b,0x0a,0x07,0x3b,0x0b,0x69,0x16,0x3b,0x0c,0x5b,0x00,0x6f,0x3b,0x0a,0x07,0x3b,0x0b,0x69,0x14,0x3b,0x0c,0x5b,0x06,0x69,0x08,0x6f,0x3b,0x0a,0x07,0x3b,0x0b,0x69,0x17,0x3b,0x0c,0x5b,0x00,0x6f,0x3b,0x0a,0x07,0x3b,0x0b,0x69,0x14,0x3b,0x0c,0x5b,0x06,0x69,0x08,0x6f,0x3b,0x0a,0x07,0x3b,0x0b,0x69,0x00,0x3b,0x0c,0x5b,0x00))
  ChangeSelfSwitch("A",0)
  ChangeInventoryArmor(134,0,0,1)
  0()
 PAGE   2
  // condition: self-switch A is ON
  0()



EVENT   10
 PAGE   1
  250(bytes(0x04,0x08,0x6f,0x3a,0x0c,0x52,0x50,0x47,0x3a,0x3a,0x53,0x45,0x08,0x3a,0x0a,0x40,0x6e,0x61,0x6d,0x65,0x49,0x22,0x0a,0x43,0x68,0x65,0x73,0x74,0x06,0x3a,0x06,0x45,0x54,0x3a,0x0b,0x40,0x70,0x69,0x74,0x63,0x68,0x69,0x69,0x3a,0x0c,0x40,0x76,0x6f,0x6c,0x75,0x6d,0x65,0x69,0x55))
  205(0,bytes(0x04,0x08,0x6f,0x3a,0x13,0x52,0x50,0x47,0x3a,0x3a,0x4d,0x6f,0x76,0x65,0x52,0x6f,0x75,0x74,0x65,0x09,0x3a,0x0c,0x40,0x72,0x65,0x70,0x65,0x61,0x74,0x46,0x3a,0x0f,0x40,0x73,0x6b,0x69,0x70,0x70,0x61,0x62,0x6c,0x65,0x46,0x3a,0x0a,0x40,0x77,0x61,0x69,0x74,0x54,0x3a,0x0a,0x40,0x6c,0x69,0x73,0x74,0x5b,0x0b,0x6f,0x3a,0x15,0x52,0x50,0x47,0x3a,0x3a,0x4d,0x6f,0x76,0x65,0x43,0x6f,0x6d,0x6d,0x61,0x6e,0x64,0x07,0x3a,0x0a,0x40,0x63,0x6f,0x64,0x65,0x69,0x29,0x3a,0x10,0x40,0x70,0x61,0x72,0x61,0x6d,0x65,0x74,0x65,0x72,0x73,0x5b,0x00,0x6f,0x3b,0x0a,0x07,0x3b,0x0b,0x69,0x16,0x3b,0x0c,0x5b,0x00,0x6f,0x3b,0x0a,0x07,0x3b,0x0b,0x69,0x14,0x3b,0x0c,0x5b,0x06,0x69,0x08,0x6f,0x3b,0x0a,0x07,0x3b,0x0b,0x69,0x17,0x3b,0x0c,0x5b,0x00,0x6f,0x3b,0x0a,0x07,0x3b,0x0b,0x69,0x14,0x3b,0x0c,0x5b,0x06,0x69,0x08,0x6f,0x3b,0x0a,0x07,0x3b,0x0b,0x69,0x00,0x3b,0x0c,0x5b,0x00))
  ChangeSelfSwitch("A",0)
  ChangeInventoryWeapon(219,0,0,1)
  0()
 PAGE   2
  // condition: self-switch A is ON
  0()



EVENT   11
 PAGE   1
  If(12,"unlock_level < 1")
   ShowMessageFace("",0,0,2,1)
   ShowMessage("The chest is locked.")
   EndEventProcessing()
   0()
  EndIf()
  250(bytes(0x04,0x08,0x6f,0x3a,0x0c,0x52,0x50,0x47,0x3a,0x3a,0x53,0x45,0x08,0x3a,0x0a,0x40,0x6e,0x61,0x6d,0x65,0x49,0x22,0x0a,0x43,0x68,0x65,0x73,0x74,0x06,0x3a,0x06,0x45,0x54,0x3a,0x0b,0x40,0x70,0x69,0x74,0x63,0x68,0x69,0x69,0x3a,0x0c,0x40,0x76,0x6f,0x6c,0x75,0x6d,0x65,0x69,0x55))
  205(0,bytes(0x04,0x08,0x6f,0x3a,0x13,0x52,0x50,0x47,0x3a,0x3a,0x4d,0x6f,0x76,0x65,0x52,0x6f,0x75,0x74,0x65,0x09,0x3a,0x0c,0x40,0x72,0x65,0x70,0x65,0x61,0x74,0x46,0x3a,0x0f,0x40,0x73,0x6b,0x69,0x70,0x70,0x61,0x62,0x6c,0x65,0x46,0x3a,0x0a,0x40,0x77,0x61,0x69,0x74,0x54,0x3a,0x0a,0x40,0x6c,0x69,0x73,0x74,0x5b,0x0b,0x6f,0x3a,0x15,0x52,0x50,0x47,0x3a,0x3a,0x4d,0x6f,0x76,0x65,0x43,0x6f,0x6d,0x6d,0x61,0x6e,0x64,0x07,0x3a,0x0a,0x40,0x63,0x6f,0x64,0x65,0x69,0x29,0x3a,0x10,0x40,0x70,0x61,0x72,0x61,0x6d,0x65,0x74,0x65,0x72,0x73,0x5b,0x00,0x6f,0x3b,0x0a,0x07,0x3b,0x0b,0x69,0x16,0x3b,0x0c,0x5b,0x00,0x6f,0x3b,0x0a,0x07,0x3b,0x0b,0x69,0x14,0x3b,0x0c,0x5b,0x06,0x69,0x08,0x6f,0x3b,0x0a,0x07,0x3b,0x0b,0x69,0x17,0x3b,0x0c,0x5b,0x00,0x6f,0x3b,0x0a,0x07,0x3b,0x0b,0x69,0x14,0x3b,0x0c,0x5b,0x06,0x69,0x08,0x6f,0x3b,0x0a,0x07,0x3b,0x0b,0x69,0x00,0x3b,0x0c,0x5b,0x00))
  ChangeSelfSwitch("A",0)
  ChangeInventoryWeapon(97,0,0,1)
  0()
 PAGE   2
  // condition: self-switch A is ON
  0()



EVENT   12
 PAGE   1
  250(bytes(0x04,0x08,0x6f,0x3a,0x0c,0x52,0x50,0x47,0x3a,0x3a,0x53,0x45,0x08,0x3a,0x0a,0x40,0x6e,0x61,0x6d,0x65,0x49,0x22,0x0a,0x43,0x68,0x65,0x73,0x74,0x06,0x3a,0x06,0x45,0x54,0x3a,0x0b,0x40,0x70,0x69,0x74,0x63,0x68,0x69,0x69,0x3a,0x0c,0x40,0x76,0x6f,0x6c,0x75,0x6d,0x65,0x69,0x55))
  205(0,bytes(0x04,0x08,0x6f,0x3a,0x13,0x52,0x50,0x47,0x3a,0x3a,0x4d,0x6f,0x76,0x65,0x52,0x6f,0x75,0x74,0x65,0x09,0x3a,0x0c,0x40,0x72,0x65,0x70,0x65,0x61,0x74,0x46,0x3a,0x0f,0x40,0x73,0x6b,0x69,0x70,0x70,0x61,0x62,0x6c,0x65,0x46,0x3a,0x0a,0x40,0x77,0x61,0x69,0x74,0x54,0x3a,0x0a,0x40,0x6c,0x69,0x73,0x74,0x5b,0x0b,0x6f,0x3a,0x15,0x52,0x50,0x47,0x3a,0x3a,0x4d,0x6f,0x76,0x65,0x43,0x6f,0x6d,0x6d,0x61,0x6e,0x64,0x07,0x3a,0x0a,0x40,0x63,0x6f,0x64,0x65,0x69,0x29,0x3a,0x10,0x40,0x70,0x61,0x72,0x61,0x6d,0x65,0x74,0x65,0x72,0x73,0x5b,0x00,0x6f,0x3b,0x0a,0x07,0x3b,0x0b,0x69,0x16,0x3b,0x0c,0x5b,0x00,0x6f,0x3b,0x0a,0x07,0x3b,0x0b,0x69,0x14,0x3b,0x0c,0x5b,0x06,0x69,0x08,0x6f,0x3b,0x0a,0x07,0x3b,0x0b,0x69,0x17,0x3b,0x0c,0x5b,0x00,0x6f,0x3b,0x0a,0x07,0x3b,0x0b,0x69,0x14,0x3b,0x0c,0x5b,0x06,0x69,0x08,0x6f,0x3b,0x0a,0x07,0x3b,0x0b,0x69,0x00,0x3b,0x0c,0x5b,0x00))
  ChangeSelfSwitch("A",0)
  ChangeInventory_Item(204,0,0,1)
  0()
 PAGE   2
  // condition: self-switch A is ON
  0()



EVENT   13
 PAGE   1
  250(bytes(0x04,0x08,0x6f,0x3a,0x0c,0x52,0x50,0x47,0x3a,0x3a,0x53,0x45,0x08,0x3a,0x0a,0x40,0x6e,0x61,0x6d,0x65,0x49,0x22,0x0a,0x43,0x68,0x65,0x73,0x74,0x06,0x3a,0x06,0x45,0x54,0x3a,0x0b,0x40,0x70,0x69,0x74,0x63,0x68,0x69,0x69,0x3a,0x0c,0x40,0x76,0x6f,0x6c,0x75,0x6d,0x65,0x69,0x55))
  205(0,bytes(0x04,0x08,0x6f,0x3a,0x13,0x52,0x50,0x47,0x3a,0x3a,0x4d,0x6f,0x76,0x65,0x52,0x6f,0x75,0x74,0x65,0x09,0x3a,0x0c,0x40,0x72,0x65,0x70,0x65,0x61,0x74,0x46,0x3a,0x0f,0x40,0x73,0x6b,0x69,0x70,0x70,0x61,0x62,0x6c,0x65,0x46,0x3a,0x0a,0x40,0x77,0x61,0x69,0x74,0x54,0x3a,0x0a,0x40,0x6c,0x69,0x73,0x74,0x5b,0x0b,0x6f,0x3a,0x15,0x52,0x50,0x47,0x3a,0x3a,0x4d,0x6f,0x76,0x65,0x43,0x6f,0x6d,0x6d,0x61,0x6e,0x64,0x07,0x3a,0x0a,0x40,0x63,0x6f,0x64,0x65,0x69,0x29,0x3a,0x10,0x40,0x70,0x61,0x72,0x61,0x6d,0x65,0x74,0x65,0x72,0x73,0x5b,0x00,0x6f,0x3b,0x0a,0x07,0x3b,0x0b,0x69,0x16,0x3b,0x0c,0x5b,0x00,0x6f,0x3b,0x0a,0x07,0x3b,0x0b,0x69,0x14,0x3b,0x0c,0x5b,0x06,0x69,0x08,0x6f,0x3b,0x0a,0x07,0x3b,0x0b,0x69,0x17,0x3b,0x0c,0x5b,0x00,0x6f,0x3b,0x0a,0x07,0x3b,0x0b,0x69,0x14,0x3b,0x0c,0x5b,0x06,0x69,0x08,0x6f,0x3b,0x0a,0x07,0x3b,0x0b,0x69,0x00,0x3b,0x0c,0x5b,0x00))
  ChangeSelfSwitch("A",0)
  ChangeInventory_Item(202,0,0,1)
  0()
 PAGE   2
  // condition: self-switch A is ON
  0()



EVENT   14
 PAGE   1
  241(bytes(0x04,0x08,0x6f,0x3a,0x0d,0x52,0x50,0x47,0x3a,0x3a,0x42,0x47,0x4d,0x08,0x3a,0x0a,0x40,0x6e,0x61,0x6d,0x65,0x49,0x22,0x0a,0x62,0x6f,0x73,0x73,0x30,0x06,0x3a,0x06,0x45,0x54,0x3a,0x0c,0x40,0x76,0x6f,0x6c,0x75,0x6d,0x65,0x69,0x69,0x3a,0x0b,0x40,0x70,0x69,0x74,0x63,0x68,0x69,0x69))
  PictureDisplay(5,"80_bonny_st01",0,0,-150,0,100,100,0,0)
  PictureDisplay(6,"80_ashel_st01",0,0,150,0,100,100,0,0)
  PictureMove(5,null,0,0,-150,0,100,100,255,0,30,false)
  PictureMove(6,null,0,0,150,0,100,100,255,0,30,true)
  ShowMessageFace("tatunoko_k_fc1",1,0,2,1)
  ShowMessage("【たつこ】")
  ShowMessage("おさかな海賊団、船長ボニー並びに副船長アシェルですね！")
  ShowMessage("神妙にするのです！")
  ShowMessageFace("umiusi_k_fc1",0,0,2,2)
  ShowMessage("【ステイシー】")
  ShowMessage("抵抗は無駄ですよ！")
  ShowMessage("おさかな号は接収、団員もほとんど逮捕しました！")
  ShowMessageFace("bonny_fc1",0,0,2,3)
  ShowMessage("【ボニー】")
  ShowMessage("むむむ、ここまで来てしまったか……")
  ShowMessage("お前達とは、仲良くできそうだと思ったのだがな。")
  If(0,4,0)
   ShowMessageFace("alice_fc5",0,0,2,4)
   ShowMessage("【アリス】")
   ShowMessage("敵味方の別など、その場の流れで移ろう世の中……")
   ShowMessage("こういう因果もあろう。")
   0()
  EndIf()
  If(0,5,0)
   ShowMessageFace("iriasu_fc5",0,0,2,5)
   ShowMessage("【イリアス】")
   ShowMessage("海賊は悪！　悪は滅するのみです！")
   0()
  EndIf()
  If(4,202,0)
   ShowMessageFace("bonny_fc1",0,0,2,6)
   ShowMessage("【ボニー’】")
   ShowMessage("おさかな海賊団の団長は二人もいらないぞ！")
   ShowMessage("さあ、勝負なのだ！")
   ShowMessageFace("bonny_fc1",1,0,2,7)
   ShowMessage("【ボニー】")
   ShowMessage("おおっ、あたしのニセモノがいる！？")
   ShowMessage("あたしもそこまで有名になったか！")
   ShowMessageFace("bonny_fc1",0,0,2,8)
   ShowMessage("【ボニー’】")
   ShowMessage("ニセモノじゃないけど……まあいいや。")
   0()
  EndIf()
  ShowMessageFace("bonny_fc1",0,0,2,9)
  ShowMessage("【ボニー】")
  ShowMessage("おさかな海賊団の皆のためにも、捕まるわけにいかん！")
  ShowMessage("さあ、勝負だ！")
  ShowMessageFace("ashel_fc1",0,0,2,10)
  ShowMessage("【アシェル】")
  ShowMessage("しゃーない、やるしかないか……")
  ShowMessage("ここでお嬢が捕まったら、先代に申し訳が立たないからな！")
  If(4,129,0)
   ShowMessageFace("brunhild_fc1",0,0,2,11)
   ShowMessage("【ヒルデ】")
   ShowMessage("対象、おさかな海賊団長および副団長……")
   ShowMessage("戦闘行動、開始だよ！")
   0()
  EndIf()
  PictureClear(5)
  PictureClear(6)
  SetBattleBGM(bytes(0x04,0x08,0x6f,0x3a,0x0d,0x52,0x50,0x47,0x3a,0x3a,0x42,0x47,0x4d,0x08,0x3a,0x0a,0x40,0x6e,0x61,0x6d,0x65,0x49,0x22,0x0a,0x62,0x6f,0x73,0x73,0x31,0x06,0x3a,0x06,0x45,0x54,0x3a,0x0c,0x40,0x76,0x6f,0x6c,0x75,0x6d,0x65,0x69,0x69,0x3a,0x0b,0x40,0x70,0x69,0x74,0x63,0x68,0x69,0x69))
  ChangeSwitch(22,22,0)
  Battle(0,588,false,false)
  ChangeSwitch(22,22,1)
  SetBattleBGM(bytes(0x04,0x08,0x6f,0x3a,0x0d,0x52,0x50,0x47,0x3a,0x3a,0x42,0x47,0x4d,0x08,0x3a,0x0a,0x40,0x6e,0x61,0x6d,0x65,0x49,0x22,0x0b,0x62,0x61,0x74,0x74,0x6c,0x65,0x06,0x3a,0x06,0x45,0x54,0x3a,0x0c,0x40,0x76,0x6f,0x6c,0x75,0x6d,0x65,0x69,0x69,0x3a,0x0b,0x40,0x70,0x69,0x74,0x63,0x68,0x69,0x69))
  ChangeSwitch(1901,1901,0)
  PictureDisplay(5,"80_bonny_st03",0,0,-150,0,100,100,0,0)
  PictureDisplay(6,"80_ashel_st03",0,0,150,0,100,100,0,0)
  PictureMove(5,null,0,0,-150,0,100,100,255,0,30,false)
  PictureMove(6,null,0,0,150,0,100,100,255,0,30,true)
  ShowMessageFace("bonny_fc1",2,0,2,12)
  ShowMessage("【ボニー】")
  ShowMessage("うう～！")
  ShowMessageFace("ashel_fc1",2,0,2,13)
  ShowMessage("【アシェル】")
  ShowMessage("やられちまったか……")
  ShowMessage("先代、すみません……")
  PictureClear(5)
  PictureClear(6)
  If(4,129,0)
   ShowMessageFace("brunhild_fc1",0,0,2,14)
   ShowMessage("【ヒルデ】")
   ShowMessage("対象、沈黙……戦闘行動、終了だよ。")
   0()
  EndIf()
  ShowMessageFace("tatunoko_k_fc1",1,0,2,15)
  ShowMessage("【たつこ】")
  ShowMessage("船長ボニー、確保なのです～！")
  If(0,4,0)
   ShowMessageFace("alice_fc5",0,0,2,16)
   ShowMessage("【アリス】")
   ShowMessage("やれやれ、これで捕り物劇も終わったか……")
   0()
  EndIf()
  If(0,5,0)
   ShowMessageFace("iriasu_fc4",0,0,2,17)
   ShowMessage("【イリアス】")
   ShowMessage("こうして悪党は捕縛されました。")
   ShowMessage("私のささやかな胸にも満足感が広がります。")
   0()
  EndIf()
  ShowMessageFace("umiusi_k_fc1",0,0,2,18)
  ShowMessage("【ステイシー】")
  ShowMessage("それでは、すぐに海軍本部に戻りましょう！")
  ShowMessage("今回の戦勝、大将も大喜びしてくれますよ！")
  ShowMessageFace("tatunoko_k_fc1",1,0,2,19)
  ShowMessage("【たつこ】")
  ShowMessage("おてがら♪　おてがら♪")
  ShowMessageFace("",0,0,2,20)
  ShowMessage("こうして僕達は、おさかな海賊団を壊滅させた。")
  ShowMessage("手柄を携え、海軍本部へと戻ったのである――")
  221()
  250(bytes(0x04,0x08,0x6f,0x3a,0x0c,0x52,0x50,0x47,0x3a,0x3a,0x53,0x45,0x08,0x3a,0x0a,0x40,0x6e,0x61,0x6d,0x65,0x49,0x22,0x0b,0x57,0x61,0x74,0x65,0x72,0x31,0x06,0x3a,0x06,0x45,0x54,0x3a,0x0b,0x40,0x70,0x69,0x74,0x63,0x68,0x69,0x69,0x3a,0x0c,0x40,0x76,0x6f,0x6c,0x75,0x6d,0x65,0x69,0x55))
  Wait(60)
  TeleportPlayer(0,280,23,17,8,2)
  241(bytes(0x04,0x08,0x6f,0x3a,0x0d,0x52,0x50,0x47,0x3a,0x3a,0x42,0x47,0x4d,0x08,0x3a,0x0a,0x40,0x6e,0x61,0x6d,0x65,0x49,0x22,0x14,0x73,0x63,0x65,0x6e,0x65,0x5f,0x65,0x70,0x69,0x6c,0x6f,0x67,0x75,0x65,0x32,0x06,0x3a,0x06,0x45,0x54,0x3a,0x0c,0x40,0x76,0x6f,0x6c,0x75,0x6d,0x65,0x69,0x69,0x3a,0x0b,0x40,0x70,0x69,0x74,0x63,0x68,0x69,0x69))
  222()
  355("gain_medal(32)")
  PictureDisplay(5,"80_levia_st02",0,0,0,0,100,100,0,0)
  PictureMove(5,null,0,0,0,0,100,100,255,0,30,true)
  ShowMessageFace("levia_fc1",1,0,2,21)
  ShowMessage("【リヴァイアサン】")
  ShowMessage("勇者ルカよ、実に見事な働きだった。")
  ShowMessage("お前を特務将校に任じても、不服に思う者はおらんだろう。")
  ShowMessageFace("levia_fc1",1,0,2,22)
  ShowMessage("【リヴァイアサン】")
  ShowMessage("約束通り、海軍特務将校の地位を保証する。")
  ShowMessage("接収したおさかな号の指揮権も、お前に与えよう。")
  If(0,4,0)
   ShowMessageFace("alice_fc5",1,0,2,23)
   ShowMessage("【アリス】")
   ShowMessage("あの船を自由に扱って良いと言うのか……")
   ShowMessage("ずいぶん太っ腹だな、感謝するぞ。")
   0()
  EndIf()
  If(0,5,0)
   ShowMessageFace("iriasu_fc4",0,0,2,24)
   ShowMessage("【イリアス】")
   ShowMessage("あの船を丸ごとくれるとは、なかなかの太っ腹。")
   ShowMessage("あなたが人間なら、天国に行けたでしょうに……")
   0()
  EndIf()
  ShowMessageFace("levia_fc1",1,0,2,25)
  ShowMessage("【リヴァイアサン】")
  ShowMessage("たつこ、ステイシー、お前達も勇者ルカに同行せよ。")
  ShowMessage("彼らの冒険を補助するのが、新たな任務だ。")
  ShowMessageFace("tatunoko_k_fc1",1,0,2,26)
  ShowMessage("【たつこ】")
  ShowMessage("了解なのです！")
  ShowMessageFace("umiusi_k_fc1",0,0,2,27)
  ShowMessage("【ステイシー】")
  ShowMessage("確かに承りました……！")
  ShowMessageFace("levia_fc1",1,0,2,28)
  ShowMessage("【リヴァイアサン】")
  ShowMessage("後で、1階の保管庫で補給物資を受け取るといい。")
  ShowMessage("きっと旅の助けになるはずだ。")
  ShowMessageFace("levia_fc1",1,0,2,29)
  ShowMessage("【リヴァイアサン】")
  ShowMessage("その際、「特定海洋事業許可証」も支給しよう。")
  ShowMessage("それがあれば、海兵などの職業に転職できるようになる。")
  If(4,12,0)
   ShowMessageFace("sylph_fc1",0,0,2,30)
   ShowMessage("【シルフ】")
   ShowMessage("すごく太っ腹！")
   0()
  EndIf()
  If(4,13,0)
   ShowMessageFace("gnome_fc1",0,0,2,31)
   ShowMessage("【ノーム】")
   ShowMessage("……………………")
   0()
  EndIf()
  If(0,6,0)
   ShowMessageFace("sonia_fc2",2,0,2,32)
   ShowMessage("【ソニア】")
   ShowMessage("あの……なんで、そこまで親切にしてくれるんですか？")
   0()
  Else()
   ShowMessageFace("ruka_fc1",0,0,2,33)
   ShowMessage("【ルカ】")
   ShowMessage("なんで、そこまで支援してくれるんですか？")
   0()
  EndIf()
  PictureDisplay(5,"80_levia_st01",0,0,0,0,100,100,255,0)
  ShowMessageFace("levia_fc1",0,0,2,34)
  ShowMessage("【リヴァイアサン】")
  ShowMessage("この世界に、何か未曾有の危機が迫っている……")
  ShowMessage("各地から得た報告から、私はそう確信しているのだ。")
  ShowMessageFace("levia_fc1",0,0,2,35)
  ShowMessage("【リヴァイアサン】")
  ShowMessage("お前達は、その危機に立ち向かっているという。")
  ShowMessage("ならば、それを支援するのは秩序を重んじる海軍の務め。")
  ShowMessageFace("levia_fc1",0,0,2,36)
  ShowMessage("【リヴァイアサン】")
  ShowMessage("世界の危機に対処する……それが、お前達の特務。")
  ShowMessage("その任あっての、特務将校であることを忘れるな。")
  If(0,4,0)
   ShowMessageFace("alice_fc5",1,0,2,37)
   ShowMessage("【アリス】")
   ShowMessage("……うむ、その期待に応えると約束しよう。")
   0()
  EndIf()
  If(4,75,0)
   ShowMessageFace("hituzi_fc1",3,0,2,38)
   ShowMessage("【メリー】")
   ShowMessage("任せとけ～！　任せとけ～！")
   0()
  EndIf()
  If(0,5,0)
   ShowMessageFace("iriasu_fc4",1,0,2,39)
   ShowMessage("【イリアス】")
   ShowMessage("そう、私に従いなさい……")
   ShowMessage("それこそ、下界の者が生き残る唯一の道なのです。")
   0()
  EndIf()
  ShowMessageFace("levia_fc1",0,0,2,40)
  ShowMessage("【リヴァイアサン】")
  ShowMessage("さて、これからグランドノアに行くと言ったな。")
  ShowMessage("気をつけろ、この大戦の裏には……")
  ShowMessageFace("levia_fc1",0,0,2,41)
  ShowMessage("【リヴァイアサン】")
  ShowMessage("……いや、私の立場では滅多な事は口にできまい。")
  ShowMessage("お前達自身の目で、その真実を見る事になろう。")
  If(0,4,0)
   ShowMessageFace("alice_fc5",2,0,2,42)
   ShowMessage("【アリス】")
   ShowMessage("ふん……この戦争、色々と裏があるのは察している。")
   ShowMessage("渦中に向かう事など覚悟の上だ！")
   0()
  EndIf()
  If(0,5,0)
   ShowMessageFace("iriasu_fc5",0,0,2,43)
   ShowMessage("【イリアス】")
   ShowMessage("ほーらほーら！　そうやって、知った風な口を叩いて！")
   ShowMessage("そういうのは、もううんざりですよ！")
   0()
  EndIf()
  PictureClear(5)
  ShowMessageFace("",0,0,2,44)
  ShowMessage("ともかく、こうして僕達は海賊団討伐の任務を終えた。")
  ShowMessage("その甲斐あって、船を入手したのである！")
  ChangeSwitch(100,100,1)
  ChangeSwitch(1918,1918,0)
  ChangeVariable(1001,1001,0,0,22)
  ChangeVariable(1002,1002,0,0,20)
  221()
  ChangeVariable(1050,1050,0,0,9)
  314(0,0)
  TeleportVehicle(1,0,2,334,240)
  Wait(60)
  TeleportPlayer(0,2,335,240,4,2)
  222()
  250(bytes(0x04,0x08,0x6f,0x3a,0x0c,0x52,0x50,0x47,0x3a,0x3a,0x53,0x45,0x08,0x3a,0x0a,0x40,0x6e,0x61,0x6d,0x65,0x49,0x22,0x11,0x6d,0x6f,0x6e,0x5f,0x66,0x61,0x6e,0x66,0x61,0x6c,0x65,0x33,0x06,0x3a,0x06,0x45,0x54,0x3a,0x0b,0x40,0x70,0x69,0x74,0x63,0x68,0x69,0x69,0x3a,0x0c,0x40,0x76,0x6f,0x6c,0x75,0x6d,0x65,0x69,0x55))
  ShowMessageFace("",0,0,2,45)
  ShowMessage("おさかな号を手に入れた！")
  If(1,56,0,0,0)
   ChangeVariable(56,56,0,0,2)
   ShowMessageFace("",0,0,2,46)
   ShowMessage("パーティメンバー枠が2つ増加した！")
   ShowMessage("総勢10名で行動可能になった！")
   0()
  EndIf()
  If(0,6,0)
   ShowMessageFace("sonia_fc3",6,0,2,47)
   ShowMessage("【ソニア】")
   ShowMessage("おさかな号、本当にもらっちゃった！")
   ShowMessage("これ、自由に使っていいんだね……♪")
   0()
  Else()
   ShowMessageFace("ruka_fc1",0,0,2,48)
   ShowMessage("【ルカ】")
   ShowMessage("おさかな号を自由に使っていいなんて……")
   ShowMessage("海軍に感謝だね！")
   0()
  EndIf()
  If(0,4,0)
   ShowMessageFace("alice_fc5",2,0,2,49)
   ShowMessage("【アリス】")
   ShowMessage("海軍とて、善意や親切で提供したわけではない。")
   ShowMessage("大将の期待通り、世界の危機に立ち向かわなければな！")
   0()
  EndIf()
  If(0,5,0)
   ShowMessageFace("iriasu_fc4",1,0,2,50)
   ShowMessage("【イリアス】")
   ShowMessage("これも全て、私の威光によるものです。")
   ShowMessage("感謝の祈りを忘れないように……")
   0()
  EndIf()
  ShowMessageFace("tatunoko_k_fc1",0,0,2,51)
  ShowMessage("【たつこ】")
  ShowMessage("海兵心得、その１！")
  ShowMessage("海でもボタン７か８を押せば地図が開けるのです！")
  ShowMessageFace("tatunoko_k_fc1",0,0,2,52)
  ShowMessage("【たつこ】")
  ShowMessage("自分の位置は、黄色い丸印で表示されるのです！")
  ShowMessage("どこにいるのか常に把握し、迷子にならないようにするのです！")
  ShowMessageFace("tatunoko_k_fc1",0,0,2,53)
  ShowMessage("【たつこ】")
  ShowMessage("海兵心得、その２！")
  ShowMessage("自分の船を見失った場合は、ハーピーの羽かワープの魔法！")
  ShowMessageFace("tatunoko_k_fc1",0,0,2,54)
  ShowMessage("【たつこ】")
  ShowMessage("どこかの町にワープすれば、近くの海に船がついてくるのです。")
  ShowMessage("海のそばの港町や、この海軍本部などがおすすめなのです。")
  ShowMessageFace("tatunoko_k_fc1",0,0,2,55)
  ShowMessage("【たつこ】")
  ShowMessage("海兵心得は以上なのです。")
  ShowMessage("頭に叩き込んで、快適な海の旅を！")
  ShowMessageFace("ruka_fc1",0,0,2,56)
  ShowMessage("【ルカ】")
  ShowMessage("それじゃあ、グランドノアに向かおう！")
  ShowMessage("航路は、えっと……")
  If(0,4,0)
   ShowMessageFace("alice_fc5",0,0,2,57)
   ShowMessage("【アリス】")
   ShowMessage("ここからすぐ北が、ノア地方だ。")
   ShowMessage("いったん砂浜に上陸し、陸路でグランドノアまで行く形だな。")
   0()
  EndIf()
  If(0,5,0)
   ShowMessageFace("iriasu_fc4",0,0,2,58)
   ShowMessage("【イリアス】")
   ShowMessage("ここからすぐ北が、ノア地方です。")
   ShowMessage("砂浜から上陸し、陸路でグランドノアへと向かいましょう。")
   0()
  EndIf()
  ShowMessageFace("ruka_fc1",0,0,2,59)
  ShowMessage("【ルカ】")
  ShowMessage("地図を見ると、上陸地点のすぐ近くに村があるね。")
  ShowMessage("まずは、このフィノア村って所に行ってみようか。")
  ShowMessageFace("ruka_fc1",0,0,2,60)
  ShowMessage("【ルカ】")
  ShowMessage("おっと……海軍本部で、支援物資と転職アイテムを受け取らないと。")
  ShowMessage("確か、一階の物資保管庫って言ってたっけ。")
  If(0,6,0)
   ShowMessageFace("sonia_fc3",6,0,2,61)
   ShowMessage("【ソニア】")
   ShowMessage("それじゃあ、しゅっぱ～つ♪")
   0()
  EndIf()
  ShowMessageFace("",0,0,2,62)
  ShowMessage("タルタロスの一つと、そしてウンディーネのいるノア地方――")
  ShowMessage("僕達は船に乗り、自然豊かな地に向かうのだった。")
  EndEventProcessing()
  0()
 PAGE   2
  // condition: variable 1050 >= 9
  0()



EVENT   15
 PAGE   1
  PictureDisplay(5,"80_ashel_st01",0,0,0,0,100,100,0,0)
  PictureMove(5,null,0,0,0,0,100,100,255,0,30,true)
  ShowMessageFace("ashel_fc1",0,0,2,1)
  ShowMessage("【アシェル】")
  ShowMessage("あんた達は、敵にしたくなかったけど……")
  ShowMessage("こうなった以上、ケリをつけるしかないね。")
  If(0,4,0)
   ShowMessageFace("alice_fc5",0,0,2,2)
   ShowMessage("【アリス】")
   ShowMessage("悪いが、我々は海軍の一員としてここに来ている。")
   ShowMessage("根っからの悪党ではないようだが、容赦はせんぞ。")
   0()
  EndIf()
  If(0,5,0)
   ShowMessageFace("iriasu_fc5",0,0,2,3)
   ShowMessage("【イリアス】")
   ShowMessage("この私が、海賊などに与すると思ったのですか！")
   ShowMessage("恥を知りなさい！")
   0()
  EndIf()
  PictureClear(5)
  0()
 PAGE   2
  // condition: variable 1050 >= 9
  0()



EVENT   16
 PAGE   1
  ShowMessageFace("tatunoko_k_fc1",1,0,2,1)
  ShowMessage("\\n<Sea Horse Marine>補給に駆けつけたのです！")
  ShowMessage("薬草と霊薬なのです！")
  250(bytes(0x04,0x08,0x6f,0x3a,0x0c,0x52,0x50,0x47,0x3a,0x3a,0x53,0x45,0x08,0x3a,0x0a,0x40,0x6e,0x61,0x6d,0x65,0x49,0x22,0x0a,0x48,0x65,0x61,0x6c,0x37,0x06,0x3a,0x06,0x45,0x54,0x3a,0x0b,0x40,0x70,0x69,0x74,0x63,0x68,0x69,0x69,0x3a,0x0c,0x40,0x76,0x6f,0x6c,0x75,0x6d,0x65,0x69,0x55))
  224(bytes(0x04,0x08,0x75,0x3a,0x0a,0x43,0x6f,0x6c,0x6f,0x72,0x25,0x00,0x00,0x00,0x00,0x00,0xe0,0x6f,0x40,0x00,0x00,0x00,0x00,0x00,0xe0,0x6f,0x40,0x00,0x00,0x00,0x00,0x00,0xe0,0x6f,0x40,0x00,0x00,0x00,0x00,0x00,0xe0,0x6f,0x40),30,true)
  314(0,0)
  ShowMessageFace("",0,0,2,2)
  ShowMessage("The party's HP and MP have been fully restored!")
  0()
 PAGE   2
  // condition: variable 1050 >= 9
  0()
