﻿
DisplayName "ウンディーネの泉 B1F"



EVENT   1
 PAGE   1
  0()



EVENT   2
 PAGE   1
  0()



EVENT   3
 PAGE   1
  0()



EVENT   4
 PAGE   1
  0()



EVENT   5
 PAGE   1
  0()



EVENT   6
 PAGE   1
  0()



EVENT   7
 PAGE   1
  0()



EVENT   8
 PAGE   1
  0()



EVENT   9
 PAGE   1
  0()



EVENT   10
 PAGE   1
  0()



EVENT   11
 PAGE   1
  0()



EVENT   12
 PAGE   1
  0()



EVENT   13
 PAGE   1
  0()



EVENT   14
 PAGE   1
  0()



EVENT   15
 PAGE   1
  0()



EVENT   16
 PAGE   1
  0()



EVENT   17
 PAGE   1
  0()



EVENT   18
 PAGE   1
  0()



EVENT   19
 PAGE   1
  0()



EVENT   20
 PAGE   1
  0()



EVENT   21
 PAGE   1
  0()



EVENT   22
 PAGE   1
  0()



EVENT   23
 PAGE   1
  0()



EVENT   24
 PAGE   1
  0()



EVENT   25
 PAGE   1
  0()



EVENT   26
 PAGE   1
  0()



EVENT   27
 PAGE   1
  0()



EVENT   28
 PAGE   1
  0()



EVENT   29
 PAGE   1
  0()



EVENT   30
 PAGE   1
  0()



EVENT   31
 PAGE   1
  0()



EVENT   32
 PAGE   1
  0()



EVENT   33
 PAGE   1
  0()



EVENT   34
 PAGE   1
  0()



EVENT   35
 PAGE   1
  0()



EVENT   36
 PAGE   1
  0()



EVENT   37
 PAGE   1
  0()



EVENT   38
 PAGE   1
  0()



EVENT   39
 PAGE   1
  0()



EVENT   40
 PAGE   1
  0()



EVENT   41
 PAGE   1
  0()



EVENT   42
 PAGE   1
  0()



EVENT   43
 PAGE   1
  0()



EVENT   44
 PAGE   1
  0()



EVENT   45
 PAGE   1
  0()



EVENT   46
 PAGE   1
  0()



EVENT   47
 PAGE   1
  0()



EVENT   48
 PAGE   1
  0()



EVENT   49
 PAGE   1
  0()



EVENT   50
 PAGE   1
  0()



EVENT   51
 PAGE   1
  0()



EVENT   52
 PAGE   1
  0()



EVENT   53
 PAGE   1
  0()



EVENT   54
 PAGE   1
  0()



EVENT   55
 PAGE   1
  0()



EVENT   56
 PAGE   1
  0()



EVENT   57
 PAGE   1
  ChangeSwitch(100,100,1)
  250(bytes(0x04,0x08,0x6f,0x3a,0x0c,0x52,0x50,0x47,0x3a,0x3a,0x53,0x45,0x08,0x3a,0x0a,0x40,0x6e,0x61,0x6d,0x65,0x49,0x22,0x09,0x4d,0x6f,0x76,0x65,0x06,0x3a,0x06,0x45,0x54,0x3a,0x0b,0x40,0x70,0x69,0x74,0x63,0x68,0x69,0x69,0x3a,0x0c,0x40,0x76,0x6f,0x6c,0x75,0x6d,0x65,0x69,0x55))
  TeleportPlayer(0,329,13,18,0,0)
  0()



EVENT   58
 PAGE   1
  ChangeSwitch(100,100,1)
  250(bytes(0x04,0x08,0x6f,0x3a,0x0c,0x52,0x50,0x47,0x3a,0x3a,0x53,0x45,0x08,0x3a,0x0a,0x40,0x6e,0x61,0x6d,0x65,0x49,0x22,0x09,0x4d,0x6f,0x76,0x65,0x06,0x3a,0x06,0x45,0x54,0x3a,0x0b,0x40,0x70,0x69,0x74,0x63,0x68,0x69,0x69,0x3a,0x0c,0x40,0x76,0x6f,0x6c,0x75,0x6d,0x65,0x69,0x55))
  TeleportPlayer(0,329,13,18,0,0)
  0()



EVENT   59
 PAGE   1
  If(12,"unlock_level < 1")
   ShowMessageFace("",0,0,2,1)
   ShowMessage("The chest is locked.")
   EndEventProcessing()
   0()
  EndIf()
  250(bytes(0x04,0x08,0x6f,0x3a,0x0c,0x52,0x50,0x47,0x3a,0x3a,0x53,0x45,0x08,0x3a,0x0a,0x40,0x6e,0x61,0x6d,0x65,0x49,0x22,0x0a,0x43,0x68,0x65,0x73,0x74,0x06,0x3a,0x06,0x45,0x54,0x3a,0x0b,0x40,0x70,0x69,0x74,0x63,0x68,0x69,0x69,0x3a,0x0c,0x40,0x76,0x6f,0x6c,0x75,0x6d,0x65,0x69,0x55))
  205(0,bytes(0x04,0x08,0x6f,0x3a,0x13,0x52,0x50,0x47,0x3a,0x3a,0x4d,0x6f,0x76,0x65,0x52,0x6f,0x75,0x74,0x65,0x09,0x3a,0x0c,0x40,0x72,0x65,0x70,0x65,0x61,0x74,0x46,0x3a,0x0f,0x40,0x73,0x6b,0x69,0x70,0x70,0x61,0x62,0x6c,0x65,0x46,0x3a,0x0a,0x40,0x77,0x61,0x69,0x74,0x54,0x3a,0x0a,0x40,0x6c,0x69,0x73,0x74,0x5b,0x0b,0x6f,0x3a,0x15,0x52,0x50,0x47,0x3a,0x3a,0x4d,0x6f,0x76,0x65,0x43,0x6f,0x6d,0x6d,0x61,0x6e,0x64,0x07,0x3a,0x0a,0x40,0x63,0x6f,0x64,0x65,0x69,0x29,0x3a,0x10,0x40,0x70,0x61,0x72,0x61,0x6d,0x65,0x74,0x65,0x72,0x73,0x5b,0x00,0x6f,0x3b,0x0a,0x07,0x3b,0x0b,0x69,0x16,0x3b,0x0c,0x5b,0x00,0x6f,0x3b,0x0a,0x07,0x3b,0x0b,0x69,0x14,0x3b,0x0c,0x5b,0x06,0x69,0x08,0x6f,0x3b,0x0a,0x07,0x3b,0x0b,0x69,0x17,0x3b,0x0c,0x5b,0x00,0x6f,0x3b,0x0a,0x07,0x3b,0x0b,0x69,0x14,0x3b,0x0c,0x5b,0x06,0x69,0x08,0x6f,0x3b,0x0a,0x07,0x3b,0x0b,0x69,0x00,0x3b,0x0c,0x5b,0x00))
  ChangeSelfSwitch("A",0)
  ChangeInventoryArmor(291,0,0,1)
  0()
 PAGE   2
  // condition: self-switch A is ON
  0()



EVENT   60
 PAGE   1
  250(bytes(0x04,0x08,0x6f,0x3a,0x0c,0x52,0x50,0x47,0x3a,0x3a,0x53,0x45,0x08,0x3a,0x0a,0x40,0x6e,0x61,0x6d,0x65,0x49,0x22,0x0a,0x43,0x68,0x65,0x73,0x74,0x06,0x3a,0x06,0x45,0x54,0x3a,0x0b,0x40,0x70,0x69,0x74,0x63,0x68,0x69,0x69,0x3a,0x0c,0x40,0x76,0x6f,0x6c,0x75,0x6d,0x65,0x69,0x55))
  205(0,bytes(0x04,0x08,0x6f,0x3a,0x13,0x52,0x50,0x47,0x3a,0x3a,0x4d,0x6f,0x76,0x65,0x52,0x6f,0x75,0x74,0x65,0x09,0x3a,0x0c,0x40,0x72,0x65,0x70,0x65,0x61,0x74,0x46,0x3a,0x0f,0x40,0x73,0x6b,0x69,0x70,0x70,0x61,0x62,0x6c,0x65,0x46,0x3a,0x0a,0x40,0x77,0x61,0x69,0x74,0x54,0x3a,0x0a,0x40,0x6c,0x69,0x73,0x74,0x5b,0x0b,0x6f,0x3a,0x15,0x52,0x50,0x47,0x3a,0x3a,0x4d,0x6f,0x76,0x65,0x43,0x6f,0x6d,0x6d,0x61,0x6e,0x64,0x07,0x3a,0x0a,0x40,0x63,0x6f,0x64,0x65,0x69,0x29,0x3a,0x10,0x40,0x70,0x61,0x72,0x61,0x6d,0x65,0x74,0x65,0x72,0x73,0x5b,0x00,0x6f,0x3b,0x0a,0x07,0x3b,0x0b,0x69,0x16,0x3b,0x0c,0x5b,0x00,0x6f,0x3b,0x0a,0x07,0x3b,0x0b,0x69,0x14,0x3b,0x0c,0x5b,0x06,0x69,0x08,0x6f,0x3b,0x0a,0x07,0x3b,0x0b,0x69,0x17,0x3b,0x0c,0x5b,0x00,0x6f,0x3b,0x0a,0x07,0x3b,0x0b,0x69,0x14,0x3b,0x0c,0x5b,0x06,0x69,0x08,0x6f,0x3b,0x0a,0x07,0x3b,0x0b,0x69,0x00,0x3b,0x0c,0x5b,0x00))
  ChangeSelfSwitch("A",0)
  ChangeInventoryWeapon(832,0,0,1)
  0()
 PAGE   2
  // condition: self-switch A is ON
  0()



EVENT   61
 PAGE   1
  250(bytes(0x04,0x08,0x6f,0x3a,0x0c,0x52,0x50,0x47,0x3a,0x3a,0x53,0x45,0x08,0x3a,0x0a,0x40,0x6e,0x61,0x6d,0x65,0x49,0x22,0x0a,0x43,0x68,0x65,0x73,0x74,0x06,0x3a,0x06,0x45,0x54,0x3a,0x0b,0x40,0x70,0x69,0x74,0x63,0x68,0x69,0x69,0x3a,0x0c,0x40,0x76,0x6f,0x6c,0x75,0x6d,0x65,0x69,0x55))
  205(0,bytes(0x04,0x08,0x6f,0x3a,0x13,0x52,0x50,0x47,0x3a,0x3a,0x4d,0x6f,0x76,0x65,0x52,0x6f,0x75,0x74,0x65,0x09,0x3a,0x0c,0x40,0x72,0x65,0x70,0x65,0x61,0x74,0x46,0x3a,0x0f,0x40,0x73,0x6b,0x69,0x70,0x70,0x61,0x62,0x6c,0x65,0x46,0x3a,0x0a,0x40,0x77,0x61,0x69,0x74,0x54,0x3a,0x0a,0x40,0x6c,0x69,0x73,0x74,0x5b,0x0b,0x6f,0x3a,0x15,0x52,0x50,0x47,0x3a,0x3a,0x4d,0x6f,0x76,0x65,0x43,0x6f,0x6d,0x6d,0x61,0x6e,0x64,0x07,0x3a,0x0a,0x40,0x63,0x6f,0x64,0x65,0x69,0x29,0x3a,0x10,0x40,0x70,0x61,0x72,0x61,0x6d,0x65,0x74,0x65,0x72,0x73,0x5b,0x00,0x6f,0x3b,0x0a,0x07,0x3b,0x0b,0x69,0x16,0x3b,0x0c,0x5b,0x00,0x6f,0x3b,0x0a,0x07,0x3b,0x0b,0x69,0x14,0x3b,0x0c,0x5b,0x06,0x69,0x08,0x6f,0x3b,0x0a,0x07,0x3b,0x0b,0x69,0x17,0x3b,0x0c,0x5b,0x00,0x6f,0x3b,0x0a,0x07,0x3b,0x0b,0x69,0x14,0x3b,0x0c,0x5b,0x06,0x69,0x08,0x6f,0x3b,0x0a,0x07,0x3b,0x0b,0x69,0x00,0x3b,0x0c,0x5b,0x00))
  ChangeSelfSwitch("A",0)
  ChangeInventory_Item(76,0,0,1)
  0()
 PAGE   2
  // condition: self-switch A is ON
  0()



EVENT   62
 PAGE   1
  250(bytes(0x04,0x08,0x6f,0x3a,0x0c,0x52,0x50,0x47,0x3a,0x3a,0x53,0x45,0x08,0x3a,0x0a,0x40,0x6e,0x61,0x6d,0x65,0x49,0x22,0x0a,0x43,0x68,0x65,0x73,0x74,0x06,0x3a,0x06,0x45,0x54,0x3a,0x0b,0x40,0x70,0x69,0x74,0x63,0x68,0x69,0x69,0x3a,0x0c,0x40,0x76,0x6f,0x6c,0x75,0x6d,0x65,0x69,0x55))
  205(0,bytes(0x04,0x08,0x6f,0x3a,0x13,0x52,0x50,0x47,0x3a,0x3a,0x4d,0x6f,0x76,0x65,0x52,0x6f,0x75,0x74,0x65,0x09,0x3a,0x0c,0x40,0x72,0x65,0x70,0x65,0x61,0x74,0x46,0x3a,0x0f,0x40,0x73,0x6b,0x69,0x70,0x70,0x61,0x62,0x6c,0x65,0x46,0x3a,0x0a,0x40,0x77,0x61,0x69,0x74,0x54,0x3a,0x0a,0x40,0x6c,0x69,0x73,0x74,0x5b,0x0b,0x6f,0x3a,0x15,0x52,0x50,0x47,0x3a,0x3a,0x4d,0x6f,0x76,0x65,0x43,0x6f,0x6d,0x6d,0x61,0x6e,0x64,0x07,0x3a,0x0a,0x40,0x63,0x6f,0x64,0x65,0x69,0x29,0x3a,0x10,0x40,0x70,0x61,0x72,0x61,0x6d,0x65,0x74,0x65,0x72,0x73,0x5b,0x00,0x6f,0x3b,0x0a,0x07,0x3b,0x0b,0x69,0x16,0x3b,0x0c,0x5b,0x00,0x6f,0x3b,0x0a,0x07,0x3b,0x0b,0x69,0x14,0x3b,0x0c,0x5b,0x06,0x69,0x08,0x6f,0x3b,0x0a,0x07,0x3b,0x0b,0x69,0x17,0x3b,0x0c,0x5b,0x00,0x6f,0x3b,0x0a,0x07,0x3b,0x0b,0x69,0x14,0x3b,0x0c,0x5b,0x06,0x69,0x08,0x6f,0x3b,0x0a,0x07,0x3b,0x0b,0x69,0x00,0x3b,0x0c,0x5b,0x00))
  ChangeSelfSwitch("A",0)
  ChangeInventory_Item(32,0,0,1)
  0()
 PAGE   2
  // condition: self-switch A is ON
  0()



EVENT   63
 PAGE   1
  250(bytes(0x04,0x08,0x6f,0x3a,0x0c,0x52,0x50,0x47,0x3a,0x3a,0x53,0x45,0x08,0x3a,0x0a,0x40,0x6e,0x61,0x6d,0x65,0x49,0x22,0x0a,0x43,0x68,0x65,0x73,0x74,0x06,0x3a,0x06,0x45,0x54,0x3a,0x0b,0x40,0x70,0x69,0x74,0x63,0x68,0x69,0x69,0x3a,0x0c,0x40,0x76,0x6f,0x6c,0x75,0x6d,0x65,0x69,0x55))
  205(0,bytes(0x04,0x08,0x6f,0x3a,0x13,0x52,0x50,0x47,0x3a,0x3a,0x4d,0x6f,0x76,0x65,0x52,0x6f,0x75,0x74,0x65,0x09,0x3a,0x0c,0x40,0x72,0x65,0x70,0x65,0x61,0x74,0x46,0x3a,0x0f,0x40,0x73,0x6b,0x69,0x70,0x70,0x61,0x62,0x6c,0x65,0x46,0x3a,0x0a,0x40,0x77,0x61,0x69,0x74,0x54,0x3a,0x0a,0x40,0x6c,0x69,0x73,0x74,0x5b,0x0b,0x6f,0x3a,0x15,0x52,0x50,0x47,0x3a,0x3a,0x4d,0x6f,0x76,0x65,0x43,0x6f,0x6d,0x6d,0x61,0x6e,0x64,0x07,0x3a,0x0a,0x40,0x63,0x6f,0x64,0x65,0x69,0x29,0x3a,0x10,0x40,0x70,0x61,0x72,0x61,0x6d,0x65,0x74,0x65,0x72,0x73,0x5b,0x00,0x6f,0x3b,0x0a,0x07,0x3b,0x0b,0x69,0x16,0x3b,0x0c,0x5b,0x00,0x6f,0x3b,0x0a,0x07,0x3b,0x0b,0x69,0x14,0x3b,0x0c,0x5b,0x06,0x69,0x08,0x6f,0x3b,0x0a,0x07,0x3b,0x0b,0x69,0x17,0x3b,0x0c,0x5b,0x00,0x6f,0x3b,0x0a,0x07,0x3b,0x0b,0x69,0x14,0x3b,0x0c,0x5b,0x06,0x69,0x08,0x6f,0x3b,0x0a,0x07,0x3b,0x0b,0x69,0x00,0x3b,0x0c,0x5b,0x00))
  ChangeSelfSwitch("A",0)
  ChangeInventory_Item(72,0,0,1)
  0()
 PAGE   2
  // condition: self-switch A is ON
  0()



EVENT   64
 PAGE   1
  If(12,"unlock_level < 1")
   ShowMessageFace("",0,0,2,1)
   ShowMessage("The chest is locked.")
   EndEventProcessing()
   0()
  EndIf()
  250(bytes(0x04,0x08,0x6f,0x3a,0x0c,0x52,0x50,0x47,0x3a,0x3a,0x53,0x45,0x08,0x3a,0x0a,0x40,0x6e,0x61,0x6d,0x65,0x49,0x22,0x0a,0x43,0x68,0x65,0x73,0x74,0x06,0x3a,0x06,0x45,0x54,0x3a,0x0b,0x40,0x70,0x69,0x74,0x63,0x68,0x69,0x69,0x3a,0x0c,0x40,0x76,0x6f,0x6c,0x75,0x6d,0x65,0x69,0x55))
  205(0,bytes(0x04,0x08,0x6f,0x3a,0x13,0x52,0x50,0x47,0x3a,0x3a,0x4d,0x6f,0x76,0x65,0x52,0x6f,0x75,0x74,0x65,0x09,0x3a,0x0c,0x40,0x72,0x65,0x70,0x65,0x61,0x74,0x46,0x3a,0x0f,0x40,0x73,0x6b,0x69,0x70,0x70,0x61,0x62,0x6c,0x65,0x46,0x3a,0x0a,0x40,0x77,0x61,0x69,0x74,0x54,0x3a,0x0a,0x40,0x6c,0x69,0x73,0x74,0x5b,0x0b,0x6f,0x3a,0x15,0x52,0x50,0x47,0x3a,0x3a,0x4d,0x6f,0x76,0x65,0x43,0x6f,0x6d,0x6d,0x61,0x6e,0x64,0x07,0x3a,0x0a,0x40,0x63,0x6f,0x64,0x65,0x69,0x29,0x3a,0x10,0x40,0x70,0x61,0x72,0x61,0x6d,0x65,0x74,0x65,0x72,0x73,0x5b,0x00,0x6f,0x3b,0x0a,0x07,0x3b,0x0b,0x69,0x16,0x3b,0x0c,0x5b,0x00,0x6f,0x3b,0x0a,0x07,0x3b,0x0b,0x69,0x14,0x3b,0x0c,0x5b,0x06,0x69,0x08,0x6f,0x3b,0x0a,0x07,0x3b,0x0b,0x69,0x17,0x3b,0x0c,0x5b,0x00,0x6f,0x3b,0x0a,0x07,0x3b,0x0b,0x69,0x14,0x3b,0x0c,0x5b,0x06,0x69,0x08,0x6f,0x3b,0x0a,0x07,0x3b,0x0b,0x69,0x00,0x3b,0x0c,0x5b,0x00))
  ChangeSelfSwitch("A",0)
  ChangeInventoryArmor(154,0,0,1)
  0()
 PAGE   2
  // condition: self-switch A is ON
  0()



EVENT   65
 PAGE   1
  250(bytes(0x04,0x08,0x6f,0x3a,0x0c,0x52,0x50,0x47,0x3a,0x3a,0x53,0x45,0x08,0x3a,0x0a,0x40,0x6e,0x61,0x6d,0x65,0x49,0x22,0x0a,0x43,0x68,0x65,0x73,0x74,0x06,0x3a,0x06,0x45,0x54,0x3a,0x0b,0x40,0x70,0x69,0x74,0x63,0x68,0x69,0x69,0x3a,0x0c,0x40,0x76,0x6f,0x6c,0x75,0x6d,0x65,0x69,0x55))
  205(0,bytes(0x04,0x08,0x6f,0x3a,0x13,0x52,0x50,0x47,0x3a,0x3a,0x4d,0x6f,0x76,0x65,0x52,0x6f,0x75,0x74,0x65,0x09,0x3a,0x0c,0x40,0x72,0x65,0x70,0x65,0x61,0x74,0x46,0x3a,0x0f,0x40,0x73,0x6b,0x69,0x70,0x70,0x61,0x62,0x6c,0x65,0x46,0x3a,0x0a,0x40,0x77,0x61,0x69,0x74,0x54,0x3a,0x0a,0x40,0x6c,0x69,0x73,0x74,0x5b,0x0b,0x6f,0x3a,0x15,0x52,0x50,0x47,0x3a,0x3a,0x4d,0x6f,0x76,0x65,0x43,0x6f,0x6d,0x6d,0x61,0x6e,0x64,0x07,0x3a,0x0a,0x40,0x63,0x6f,0x64,0x65,0x69,0x29,0x3a,0x10,0x40,0x70,0x61,0x72,0x61,0x6d,0x65,0x74,0x65,0x72,0x73,0x5b,0x00,0x6f,0x3b,0x0a,0x07,0x3b,0x0b,0x69,0x16,0x3b,0x0c,0x5b,0x00,0x6f,0x3b,0x0a,0x07,0x3b,0x0b,0x69,0x14,0x3b,0x0c,0x5b,0x06,0x69,0x08,0x6f,0x3b,0x0a,0x07,0x3b,0x0b,0x69,0x17,0x3b,0x0c,0x5b,0x00,0x6f,0x3b,0x0a,0x07,0x3b,0x0b,0x69,0x14,0x3b,0x0c,0x5b,0x06,0x69,0x08,0x6f,0x3b,0x0a,0x07,0x3b,0x0b,0x69,0x00,0x3b,0x0c,0x5b,0x00))
  ChangeSelfSwitch("A",0)
  ChangeInventory_Item(9,0,0,1)
  0()
 PAGE   2
  // condition: self-switch A is ON
  0()



EVENT   66
 PAGE   1
  250(bytes(0x04,0x08,0x6f,0x3a,0x0c,0x52,0x50,0x47,0x3a,0x3a,0x53,0x45,0x08,0x3a,0x0a,0x40,0x6e,0x61,0x6d,0x65,0x49,0x22,0x0a,0x43,0x68,0x65,0x73,0x74,0x06,0x3a,0x06,0x45,0x54,0x3a,0x0b,0x40,0x70,0x69,0x74,0x63,0x68,0x69,0x69,0x3a,0x0c,0x40,0x76,0x6f,0x6c,0x75,0x6d,0x65,0x69,0x55))
  205(0,bytes(0x04,0x08,0x6f,0x3a,0x13,0x52,0x50,0x47,0x3a,0x3a,0x4d,0x6f,0x76,0x65,0x52,0x6f,0x75,0x74,0x65,0x09,0x3a,0x0c,0x40,0x72,0x65,0x70,0x65,0x61,0x74,0x46,0x3a,0x0f,0x40,0x73,0x6b,0x69,0x70,0x70,0x61,0x62,0x6c,0x65,0x46,0x3a,0x0a,0x40,0x77,0x61,0x69,0x74,0x54,0x3a,0x0a,0x40,0x6c,0x69,0x73,0x74,0x5b,0x0b,0x6f,0x3a,0x15,0x52,0x50,0x47,0x3a,0x3a,0x4d,0x6f,0x76,0x65,0x43,0x6f,0x6d,0x6d,0x61,0x6e,0x64,0x07,0x3a,0x0a,0x40,0x63,0x6f,0x64,0x65,0x69,0x29,0x3a,0x10,0x40,0x70,0x61,0x72,0x61,0x6d,0x65,0x74,0x65,0x72,0x73,0x5b,0x00,0x6f,0x3b,0x0a,0x07,0x3b,0x0b,0x69,0x16,0x3b,0x0c,0x5b,0x00,0x6f,0x3b,0x0a,0x07,0x3b,0x0b,0x69,0x14,0x3b,0x0c,0x5b,0x06,0x69,0x08,0x6f,0x3b,0x0a,0x07,0x3b,0x0b,0x69,0x17,0x3b,0x0c,0x5b,0x00,0x6f,0x3b,0x0a,0x07,0x3b,0x0b,0x69,0x14,0x3b,0x0c,0x5b,0x06,0x69,0x08,0x6f,0x3b,0x0a,0x07,0x3b,0x0b,0x69,0x00,0x3b,0x0c,0x5b,0x00))
  ChangeSelfSwitch("A",0)
  ChangeInventory_Item(218,0,0,1)
  0()
 PAGE   2
  // condition: self-switch A is ON
  0()



EVENT   67
 PAGE   1
  If(12,"unlock_level < 2")
   ShowMessageFace("",0,0,2,1)
   ShowMessage("The chest is locked.")
   EndEventProcessing()
   0()
  EndIf()
  250(bytes(0x04,0x08,0x6f,0x3a,0x0c,0x52,0x50,0x47,0x3a,0x3a,0x53,0x45,0x08,0x3a,0x0a,0x40,0x6e,0x61,0x6d,0x65,0x49,0x22,0x0a,0x43,0x68,0x65,0x73,0x74,0x06,0x3a,0x06,0x45,0x54,0x3a,0x0b,0x40,0x70,0x69,0x74,0x63,0x68,0x69,0x69,0x3a,0x0c,0x40,0x76,0x6f,0x6c,0x75,0x6d,0x65,0x69,0x55))
  205(0,bytes(0x04,0x08,0x6f,0x3a,0x13,0x52,0x50,0x47,0x3a,0x3a,0x4d,0x6f,0x76,0x65,0x52,0x6f,0x75,0x74,0x65,0x09,0x3a,0x0c,0x40,0x72,0x65,0x70,0x65,0x61,0x74,0x46,0x3a,0x0f,0x40,0x73,0x6b,0x69,0x70,0x70,0x61,0x62,0x6c,0x65,0x46,0x3a,0x0a,0x40,0x77,0x61,0x69,0x74,0x54,0x3a,0x0a,0x40,0x6c,0x69,0x73,0x74,0x5b,0x0b,0x6f,0x3a,0x15,0x52,0x50,0x47,0x3a,0x3a,0x4d,0x6f,0x76,0x65,0x43,0x6f,0x6d,0x6d,0x61,0x6e,0x64,0x07,0x3a,0x0a,0x40,0x63,0x6f,0x64,0x65,0x69,0x29,0x3a,0x10,0x40,0x70,0x61,0x72,0x61,0x6d,0x65,0x74,0x65,0x72,0x73,0x5b,0x00,0x6f,0x3b,0x0a,0x07,0x3b,0x0b,0x69,0x16,0x3b,0x0c,0x5b,0x00,0x6f,0x3b,0x0a,0x07,0x3b,0x0b,0x69,0x14,0x3b,0x0c,0x5b,0x06,0x69,0x08,0x6f,0x3b,0x0a,0x07,0x3b,0x0b,0x69,0x17,0x3b,0x0c,0x5b,0x00,0x6f,0x3b,0x0a,0x07,0x3b,0x0b,0x69,0x14,0x3b,0x0c,0x5b,0x06,0x69,0x08,0x6f,0x3b,0x0a,0x07,0x3b,0x0b,0x69,0x00,0x3b,0x0c,0x5b,0x00))
  ChangeSelfSwitch("A",0)
  ChangeInventoryWeapon(69,0,0,1)
  0()
 PAGE   2
  // condition: self-switch A is ON
  0()



EVENT   68
 PAGE   1
  ShowMessageFace("ruka_fc1",0,0,2,1)
  ShowMessage("【ルカ】")
  ShowMessage("……ぶはっ！")
  ShowMessage("本当だ、洞窟になってる！")
  If(1,1062,0,5,1)
   ChangeSelfSwitch("A",0)
   If(0,4,0)
    ShowMessageFace("alice_fc5",0,0,2,2)
    ShowMessage("【アリス】")
    ShowMessage("最奥に、ウンディーネがいるはずだ。")
    ShowMessage("ただし、ここに棲むスライム族は外敵の侵入を嫌うから注意しろ。")
    0()
   EndIf()
   If(0,5,0)
    ShowMessageFace("iriasu_fc4",2,0,2,3)
    ShowMessage("【イリアス】")
    ShowMessage("ウンディーネがいるのは、おおかた一番奥でしょう。")
    ShowMessage("汚らわしきスライム共には気をつけるように……")
    0()
   EndIf()
   If(4,53,0)
    ShowMessageFace("slime_fc1",0,0,2,4)
    ShowMessage("【ライム】")
    ShowMessage("わーい♪　仲間がいっぱーい♪")
    0()
   EndIf()
   If(4,54,0)
    ShowMessageFace("bunnyslime_fc1",0,0,2,5)
    ShowMessage("【うさ】")
    ShowMessage("うさうさー♪")
    0()
   EndIf()
   0()
  Else()
   If(0,4,0)
    ShowMessageFace("alice_fc5",0,0,2,6)
    ShowMessage("【アリス】")
    ShowMessage("最奥に、ウンディーネがいるはずだが……")
    ShowMessage("妙だな、どこにも気配が感じられん。")
    ShowMessageFace("alice_fc5",0,0,2,7)
    ShowMessage("【アリス】")
    ShowMessage("どうやら、今は不在であるらしい。")
    ShowMessage("時を置いて出直した方が良いのではないか？")
    0()
   EndIf()
   If(0,5,0)
    ShowMessageFace("iriasu_fc4",2,0,2,8)
    ShowMessage("【イリアス】")
    ShowMessage("ウンディーネがいるのは、おおかた一番奥のはず……")
    ShowMessage("しかし、気配が全く感じられませんね。")
    ShowMessageFace("iriasu_fc4",2,0,2,9)
    ShowMessage("【イリアス】")
    ShowMessage("腹立たしい事に、無駄足だったようです。")
    ShowMessage("また時を置いて出直しましょう。")
    0()
   EndIf()
   TemporaryRemoveEvent()
   0()
  EndIf()
  EndEventProcessing()
  0()
 PAGE   2
  // condition: self-switch A is ON
  0()



EVENT   69
 PAGE   1
  // condition: variable 1062 >= 5
  217()
  PictureDisplay(5,"80_undine_st03",0,0,0,0,100,100,0,0)
  PictureMove(5,null,0,0,0,0,100,100,255,0,60,true)
  ShowMessageFace("undine_fc1",2,0,2,1)
  ShowMessage("【ウンディーネ】")
  ShowMessage("……………………")
  ShowMessageFace("ruka_fc1",0,0,2,2)
  ShowMessage("【ルカ】")
  ShowMessage("君がウンディーネ？")
  ShowMessage("僕に力を貸してくれないか……？")
  ShowMessageFace("sylph_fc1",0,0,2,3)
  ShowMessage("【シルフ】")
  ShowMessage("ウンディーネちゃん！　一緒に遊ぼうよ～♪")
  ShowMessageFace("gnome_fc1",0,0,2,4)
  ShowMessage("【ノーム】")
  ShowMessage("……………………")
  PictureDisplay(5,"80_undine_st01",0,0,0,0,100,100,255,0)
  ShowMessageFace("undine_fc1",0,0,2,5)
  ShowMessage("【ウンディーネ】")
  ShowMessage("なるほど……シルフとノームも従っているのね。")
  ShowMessage("でも、水の力は心の正しい者にしか使いこなせないわ……")
  ShowMessageFace("sylph_fc1",2,0,2,6)
  ShowMessage("【シルフ】")
  ShowMessage("よし来た、フルボッコタイム！")
  ShowMessage("今度は、ウンディーネちゃんを数の力でぶちのめしちゃえ！")
  ShowMessageFace("gnome_fc1",0,0,2,7)
  ShowMessage("【ノーム】")
  ShowMessage("……………………")
  ShowMessageFace("undine_fc1",0,0,2,8)
  ShowMessage("【ウンディーネ】")
  ShowMessage("シルフもノームも、やけに暴力的になってない……？")
  If(0,6,0)
   ShowMessageFace("sonia_fc4",0,0,2,9)
   ShowMessage("【ソニア】")
   ShowMessage("契約の時、多人数でボコったのを根に持ってるみたい……")
   0()
  Else()
   ShowMessageFace("ruka_fc1",0,0,2,10)
   ShowMessage("【ルカ】")
   ShowMessage("契約の時、多人数で攻撃したのを根に持ってるみたい……")
   0()
  EndIf()
  ShowMessageFace("undine_fc1",0,0,2,11)
  ShowMessage("【ウンディーネ】")
  ShowMessage("私に対して、遠慮はいらないわ……")
  ShowMessage("手を抜いたら、死ぬわよ……")
  If(0,4,0)
   ShowMessageFace("alice_fc5",2,0,2,12)
   ShowMessage("【アリス】")
   ShowMessage("挑まれた以上、力が能わなければ容赦なしか……")
   ShowMessage("流石は、穏やかさと冷酷さを併せ持った水の精霊よ。")
   0()
  EndIf()
  If(0,5,0)
   ShowMessageFace("iriasu_fc4",7,0,2,13)
   ShowMessage("【イリアス】")
   ShowMessage("挑まれた以上、弱き相手には容赦なしですか……")
   ShowMessage("その無慈悲と冷酷さは、濁った水に相応しいですね。")
   0()
  EndIf()
  ShowMessageFace("ruka_fc1",0,0,2,14)
  ShowMessage("【ルカ】")
  ShowMessage("覚悟は出来てる、行くぞ！")
  If(0,6,0)
   ShowMessageFace("sonia_fc2",5,0,2,15)
   ShowMessage("【ソニア】")
   ShowMessage("私だって、容赦はしないからね！")
   0()
  EndIf()
  If(4,79,0)
   ShowMessageFace("nuruko_fc1",0,0,2,16)
   ShowMessage("【ヌルコ】")
   ShowMessage("きゅーっ！　きゅーっ！")
   0()
  EndIf()
  If(4,41,0)
   ShowMessageFace("stein_fc2",1,0,2,17)
   ShowMessage("【プロメスティン】")
   ShowMessage("水質を分析するのが楽しみです……")
   0()
  EndIf()
  If(4,129,0)
   ShowMessageFace("brunhild_fc2",0,0,2,18)
   ShowMessage("【ヒルデ】")
   ShowMessage("ヒルデ、がぶ飲み……")
   0()
  EndIf()
  If(4,14,0)
   ShowMessageFace("undine_fc1",0,0,2,19)
   ShowMessage("【ウンディーネ’】")
   ShowMessage("こうして、自分と相対するのも不思議なものね……")
   ShowMessageFace("undine_fc1",0,0,2,20)
   ShowMessage("【ウンディーネ】")
   ShowMessage("私がもう一人？")
   ShowMessage("偽物か、それとも……")
   ShowMessageFace("undine_fc1",0,0,2,21)
   ShowMessage("【ウンディーネ’】")
   ShowMessage("水の共振で分かるでしょう……")
   ShowMessage("私は紛れもなく、水の精霊よ。")
   ShowMessageFace("undine_fc1",0,0,2,22)
   ShowMessage("【ウンディーネ】")
   ShowMessage("そのようね……")
   ShowMessage("でも、水の精霊が二人いれば混乱を生むだけよ。")
   0()
  EndIf()
  PictureClear(5)
  SetBattleBGM(bytes(0x04,0x08,0x6f,0x3a,0x0d,0x52,0x50,0x47,0x3a,0x3a,0x42,0x47,0x4d,0x08,0x3a,0x0a,0x40,0x6e,0x61,0x6d,0x65,0x49,0x22,0x13,0x62,0x6f,0x73,0x73,0x5f,0x79,0x6f,0x6e,0x73,0x65,0x69,0x72,0x65,0x69,0x06,0x3a,0x06,0x45,0x54,0x3a,0x0c,0x40,0x76,0x6f,0x6c,0x75,0x6d,0x65,0x69,0x69,0x3a,0x0b,0x40,0x70,0x69,0x74,0x63,0x68,0x69,0x69))
  ChangeSwitch(22,22,0)
  Battle(0,678,false,false)
  ChangeSwitch(22,22,1)
  SetBattleBGM(bytes(0x04,0x08,0x6f,0x3a,0x0d,0x52,0x50,0x47,0x3a,0x3a,0x42,0x47,0x4d,0x08,0x3a,0x0a,0x40,0x6e,0x61,0x6d,0x65,0x49,0x22,0x0b,0x62,0x61,0x74,0x74,0x6c,0x65,0x06,0x3a,0x06,0x45,0x54,0x3a,0x0c,0x40,0x76,0x6f,0x6c,0x75,0x6d,0x65,0x69,0x69,0x3a,0x0b,0x40,0x70,0x69,0x74,0x63,0x68,0x69,0x69))
  PictureDisplay(5,"80_undine_st02",0,0,0,0,100,100,0,0)
  PictureMove(5,null,0,0,0,0,100,100,255,0,30,true)
  ShowMessageFace("undine_fc1",1,0,2,23)
  ShowMessage("【ウンディーネ】")
  ShowMessage("あなたの技と心、見せてもらったわ。")
  ShowMessage("水の力を用いるに能う勇者……そう認めても良さそうね。")
  ShowMessageFace("sylph_fc1",7,0,2,24)
  ShowMessage("【シルフ】")
  ShowMessage("わ～い！　おまけにもう一発！")
  250(bytes(0x04,0x08,0x6f,0x3a,0x0c,0x52,0x50,0x47,0x3a,0x3a,0x53,0x45,0x08,0x3a,0x0a,0x40,0x6e,0x61,0x6d,0x65,0x49,0x22,0x0b,0x4d,0x61,0x67,0x69,0x63,0x32,0x06,0x3a,0x06,0x45,0x54,0x3a,0x0b,0x40,0x70,0x69,0x74,0x63,0x68,0x69,0x69,0x3a,0x0c,0x40,0x76,0x6f,0x6c,0x75,0x6d,0x65,0x69,0x55))
  ShowMessageFace("undine_fc1",3,0,2,25)
  ShowMessage("【ウンディーネ】")
  ShowMessage("……………………")
  250(bytes(0x04,0x08,0x6f,0x3a,0x0c,0x52,0x50,0x47,0x3a,0x3a,0x53,0x45,0x08,0x3a,0x0a,0x40,0x6e,0x61,0x6d,0x65,0x49,0x22,0x0b,0x57,0x61,0x74,0x65,0x72,0x36,0x06,0x3a,0x06,0x45,0x54,0x3a,0x0b,0x40,0x70,0x69,0x74,0x63,0x68,0x69,0x69,0x3a,0x0c,0x40,0x76,0x6f,0x6c,0x75,0x6d,0x65,0x69,0x55))
  ShowMessageFace("sylph_fc2",2,0,2,26)
  ShowMessage("【シルフ】")
  ShowMessage("ごぼごぼ、ごぼごぼ……")
  ShowMessageFace("gnome_fc1",0,0,2,27)
  ShowMessage("【ノーム】")
  ShowMessage("……………………")
  If(0,4,0)
   ShowMessageFace("alice_fc5",0,0,2,28)
   ShowMessage("【アリス】")
   ShowMessage("アホはともかく、これでルカの勝利だな。")
   ShowMessage("さあ、水の力を授けてやるがいい。")
   0()
  EndIf()
  If(0,5,0)
   ShowMessageFace("iriasu_fc4",0,0,2,29)
   ShowMessage("【イリアス】")
   ShowMessage("水没したアホはともかく、これでルカの勝利ですね。")
   ShowMessage("グダグダ言わず、さっさと水の力を授けるのです。")
   0()
  EndIf()
  PictureDisplay(5,"80_undine_st01",0,0,0,0,100,100,255,0)
  ShowMessageFace("undine_fc1",0,0,2,30)
  ShowMessage("【ウンディーネ】")
  ShowMessage("水の力は心に映す鏡。")
  ShowMessage("明鏡止水の心に投影する、澄み渡った一筋の刃――")
  ShowMessageFace("ruka_fc1",0,0,2,31)
  ShowMessage("【ルカ】")
  ShowMessage("……………………")
  PictureClear(5)
  ShowMessageFace("",0,0,2,32)
  ShowMessage("ウンディーネは、掌をルカに掲げた――")
  241(bytes(0x04,0x08,0x6f,0x3a,0x0d,0x52,0x50,0x47,0x3a,0x3a,0x42,0x47,0x4d,0x08,0x3a,0x0a,0x40,0x6e,0x61,0x6d,0x65,0x49,0x22,0x0a,0x6b,0x69,0x6b,0x69,0x32,0x06,0x3a,0x06,0x45,0x54,0x3a,0x0c,0x40,0x76,0x6f,0x6c,0x75,0x6d,0x65,0x69,0x69,0x3a,0x0b,0x40,0x70,0x69,0x74,0x63,0x68,0x69,0x69))
  ShowMessageFace("",0,0,2,33)
  ShowMessage("【？？？】")
  ShowMessage("待ちなさい……")
  If(0,4,0)
   ShowMessageFace("alice_fc6",0,0,2,34)
   ShowMessage("【アリス】")
   ShowMessage("……何者だ！？")
   0()
  EndIf()
  If(0,5,0)
   ShowMessageFace("iriasu_fc4",7,0,2,35)
   ShowMessage("【イリアス】")
   ShowMessage("……何者です！？")
   0()
  EndIf()
  205(0,bytes(0x04,0x08,0x6f,0x3a,0x13,0x52,0x50,0x47,0x3a,0x3a,0x4d,0x6f,0x76,0x65,0x52,0x6f,0x75,0x74,0x65,0x09,0x3a,0x0c,0x40,0x72,0x65,0x70,0x65,0x61,0x74,0x46,0x3a,0x0f,0x40,0x73,0x6b,0x69,0x70,0x70,0x61,0x62,0x6c,0x65,0x46,0x3a,0x0a,0x40,0x77,0x61,0x69,0x74,0x54,0x3a,0x0a,0x40,0x6c,0x69,0x73,0x74,0x5b,0x07,0x6f,0x3a,0x15,0x52,0x50,0x47,0x3a,0x3a,0x4d,0x6f,0x76,0x65,0x43,0x6f,0x6d,0x6d,0x61,0x6e,0x64,0x07,0x3a,0x0a,0x40,0x63,0x6f,0x64,0x65,0x69,0x17,0x3a,0x10,0x40,0x70,0x61,0x72,0x61,0x6d,0x65,0x74,0x65,0x72,0x73,0x5b,0x00,0x6f,0x3b,0x0a,0x07,0x3b,0x0b,0x69,0x00,0x3b,0x0c,0x5b,0x00))
  205(-1,bytes(0x04,0x08,0x6f,0x3a,0x13,0x52,0x50,0x47,0x3a,0x3a,0x4d,0x6f,0x76,0x65,0x52,0x6f,0x75,0x74,0x65,0x09,0x3a,0x0c,0x40,0x72,0x65,0x70,0x65,0x61,0x74,0x46,0x3a,0x0f,0x40,0x73,0x6b,0x69,0x70,0x70,0x61,0x62,0x6c,0x65,0x46,0x3a,0x0a,0x40,0x77,0x61,0x69,0x74,0x54,0x3a,0x0a,0x40,0x6c,0x69,0x73,0x74,0x5b,0x07,0x6f,0x3a,0x15,0x52,0x50,0x47,0x3a,0x3a,0x4d,0x6f,0x76,0x65,0x43,0x6f,0x6d,0x6d,0x61,0x6e,0x64,0x07,0x3a,0x0a,0x40,0x63,0x6f,0x64,0x65,0x69,0x17,0x3a,0x10,0x40,0x70,0x61,0x72,0x61,0x6d,0x65,0x74,0x65,0x72,0x73,0x5b,0x00,0x6f,0x3b,0x0a,0x07,0x3b,0x0b,0x69,0x00,0x3b,0x0c,0x5b,0x00))
  250(bytes(0x04,0x08,0x6f,0x3a,0x0c,0x52,0x50,0x47,0x3a,0x3a,0x53,0x45,0x08,0x3a,0x0a,0x40,0x6e,0x61,0x6d,0x65,0x49,0x22,0x13,0x6d,0x6f,0x6e,0x5f,0x65,0x72,0x6f,0x5f,0x73,0x6c,0x69,0x6d,0x65,0x33,0x06,0x3a,0x06,0x45,0x54,0x3a,0x0b,0x40,0x70,0x69,0x74,0x63,0x68,0x69,0x69,0x3a,0x0c,0x40,0x76,0x6f,0x6c,0x75,0x6d,0x65,0x69,0x55))
  ChangeSwitch(31,31,0)
  241(bytes(0x04,0x08,0x6f,0x3a,0x0d,0x52,0x50,0x47,0x3a,0x3a,0x42,0x47,0x4d,0x08,0x3a,0x0a,0x40,0x6e,0x61,0x6d,0x65,0x49,0x22,0x0a,0x62,0x6f,0x73,0x73,0x30,0x06,0x3a,0x06,0x45,0x54,0x3a,0x0c,0x40,0x76,0x6f,0x6c,0x75,0x6d,0x65,0x69,0x69,0x3a,0x0b,0x40,0x70,0x69,0x74,0x63,0x68,0x69,0x69))
  Wait(60)
  205(70,bytes(0x04,0x08,0x6f,0x3a,0x13,0x52,0x50,0x47,0x3a,0x3a,0x4d,0x6f,0x76,0x65,0x52,0x6f,0x75,0x74,0x65,0x09,0x3a,0x0c,0x40,0x72,0x65,0x70,0x65,0x61,0x74,0x46,0x3a,0x0f,0x40,0x73,0x6b,0x69,0x70,0x70,0x61,0x62,0x6c,0x65,0x46,0x3a,0x0a,0x40,0x77,0x61,0x69,0x74,0x54,0x3a,0x0a,0x40,0x6c,0x69,0x73,0x74,0x5b,0x08,0x6f,0x3a,0x15,0x52,0x50,0x47,0x3a,0x3a,0x4d,0x6f,0x76,0x65,0x43,0x6f,0x6d,0x6d,0x61,0x6e,0x64,0x07,0x3a,0x0a,0x40,0x63,0x6f,0x64,0x65,0x69,0x07,0x3a,0x10,0x40,0x70,0x61,0x72,0x61,0x6d,0x65,0x74,0x65,0x72,0x73,0x5b,0x00,0x6f,0x3b,0x0a,0x07,0x3b,0x0b,0x69,0x07,0x3b,0x0c,0x5b,0x00,0x6f,0x3b,0x0a,0x07,0x3b,0x0b,0x69,0x00,0x3b,0x0c,0x5b,0x00))
  PictureDisplay(5,"80_erbetie_st01",0,0,0,0,100,100,0,0)
  PictureMove(5,null,0,0,0,0,100,100,255,0,30,true)
  ShowMessageFace("erbetie_fc1",0,0,2,36)
  ShowMessage("【エルベティエ】")
  ShowMessage("水の力、契約させる訳にはいかないわ……")
  If(0,4,0)
   ShowMessageFace("alice_fc6",0,0,2,37)
   ShowMessage("【アリス】")
   ShowMessage("貴様は……エルベティエ！")
   0()
  EndIf()
  If(0,5,0)
   ShowMessageFace("iriasu_fc4",7,0,2,38)
   ShowMessage("【イリアス】")
   ShowMessage("あなたは……エルベティエ！")
   0()
  EndIf()
  If(4,53,0)
   ShowMessageFace("slime_fc1",2,0,2,39)
   ShowMessage("【ライム】")
   ShowMessage("スライムの女王様だ……！")
   0()
  EndIf()
  ShowMessageFace("erbetie_fc1",0,0,2,40)
  ShowMessage("【エルベティエ】")
  ShowMessage("魔王様の命令により、勇者ルカを討つ……")
  ShowMessageFace("ruka_fc1",0,0,2,41)
  ShowMessage("【ルカ】")
  ShowMessage("魔王が、僕を討つ命令を……！？")
  If(0,4,0)
   ShowMessageFace("alice_fc6",1,0,2,42)
   ShowMessage("【アリス】")
   ShowMessage("貴様も、母上に荷担するというのか！")
   ShowMessage("あのような魔王に従うなど、何を考えている！")
   ShowMessageFace("erbetie_fc1",0,0,2,43)
   ShowMessage("【エルベティエ】")
   ShowMessage("私は四天王であり、魔王様の配下よ……")
   ShowMessage("その命令には、従うのみ……")
   0()
  EndIf()
  If(0,5,0)
   ShowMessageFace("iriasu_fc4",7,0,2,44)
   ShowMessage("【イリアス】")
   ShowMessage("ルカを倒すため、四天王を派遣してきましたか……")
   ShowMessage("あなたはアルマエルマと違い、魔王に盲従しているのですね。")
   ShowMessageFace("erbetie_fc1",0,0,2,45)
   ShowMessage("【エルベティエ】")
   ShowMessage("私は魔王様と、そして同胞達のために尽くすのみ……")
   0()
  EndIf()
  ShowMessageFace("ruka_fc1",0,0,2,46)
  ShowMessage("【ルカ】")
  ShowMessage("相手は四天王……戦うしかないのか……")
  PictureDisplay(5,"80_undine_st01",0,0,0,0,100,100,255,0)
  ShowMessageFace("undine_fc1",0,0,2,47)
  ShowMessage("【ウンディーネ】")
  ShowMessage("ルカ、私も加勢するわ……")
  ShowMessage("エルベティエ相手に、どれほど役立てるかは分からないけれど。")
  PictureClear(5)
  205(-1,bytes(0x04,0x08,0x6f,0x3a,0x13,0x52,0x50,0x47,0x3a,0x3a,0x4d,0x6f,0x76,0x65,0x52,0x6f,0x75,0x74,0x65,0x09,0x3a,0x0c,0x40,0x72,0x65,0x70,0x65,0x61,0x74,0x46,0x3a,0x0f,0x40,0x73,0x6b,0x69,0x70,0x70,0x61,0x62,0x6c,0x65,0x46,0x3a,0x0a,0x40,0x77,0x61,0x69,0x74,0x54,0x3a,0x0a,0x40,0x6c,0x69,0x73,0x74,0x5b,0x07,0x6f,0x3a,0x15,0x52,0x50,0x47,0x3a,0x3a,0x4d,0x6f,0x76,0x65,0x43,0x6f,0x6d,0x6d,0x61,0x6e,0x64,0x07,0x3a,0x0a,0x40,0x63,0x6f,0x64,0x65,0x69,0x15,0x3a,0x10,0x40,0x70,0x61,0x72,0x61,0x6d,0x65,0x74,0x65,0x72,0x73,0x5b,0x00,0x6f,0x3b,0x0a,0x07,0x3b,0x0b,0x69,0x00,0x3b,0x0c,0x5b,0x00))
  205(0,bytes(0x04,0x08,0x6f,0x3a,0x13,0x52,0x50,0x47,0x3a,0x3a,0x4d,0x6f,0x76,0x65,0x52,0x6f,0x75,0x74,0x65,0x09,0x3a,0x0c,0x40,0x72,0x65,0x70,0x65,0x61,0x74,0x46,0x3a,0x0f,0x40,0x73,0x6b,0x69,0x70,0x70,0x61,0x62,0x6c,0x65,0x46,0x3a,0x0a,0x40,0x77,0x61,0x69,0x74,0x54,0x3a,0x0a,0x40,0x6c,0x69,0x73,0x74,0x5b,0x09,0x6f,0x3a,0x15,0x52,0x50,0x47,0x3a,0x3a,0x4d,0x6f,0x76,0x65,0x43,0x6f,0x6d,0x6d,0x61,0x6e,0x64,0x07,0x3a,0x0a,0x40,0x63,0x6f,0x64,0x65,0x69,0x2a,0x3a,0x10,0x40,0x70,0x61,0x72,0x61,0x6d,0x65,0x74,0x65,0x72,0x73,0x5b,0x00,0x6f,0x3b,0x0a,0x07,0x3b,0x0b,0x69,0x0f,0x3b,0x0c,0x5b,0x00,0x6f,0x3b,0x0a,0x07,0x3b,0x0b,0x69,0x2c,0x3b,0x0c,0x5b,0x00,0x6f,0x3b,0x0a,0x07,0x3b,0x0b,0x69,0x00,0x3b,0x0c,0x5b,0x00))
  355("add_actor_ex(14)")
  249(bytes(0x04,0x08,0x6f,0x3a,0x0c,0x52,0x50,0x47,0x3a,0x3a,0x4d,0x45,0x08,0x3a,0x0a,0x40,0x6e,0x61,0x6d,0x65,0x49,0x22,0x0c,0x66,0x61,0x6e,0x66,0x61,0x6c,0x65,0x06,0x3a,0x06,0x45,0x54,0x3a,0x0b,0x40,0x70,0x69,0x74,0x63,0x68,0x69,0x69,0x3a,0x0c,0x40,0x76,0x6f,0x6c,0x75,0x6d,0x65,0x69,0x69))
  ShowMessageFace("",0,0,2,48)
  ShowMessage("ウンディーネが仲間に加わった！")
  205(-1,bytes(0x04,0x08,0x6f,0x3a,0x13,0x52,0x50,0x47,0x3a,0x3a,0x4d,0x6f,0x76,0x65,0x52,0x6f,0x75,0x74,0x65,0x09,0x3a,0x0c,0x40,0x72,0x65,0x70,0x65,0x61,0x74,0x46,0x3a,0x0f,0x40,0x73,0x6b,0x69,0x70,0x70,0x61,0x62,0x6c,0x65,0x46,0x3a,0x0a,0x40,0x77,0x61,0x69,0x74,0x54,0x3a,0x0a,0x40,0x6c,0x69,0x73,0x74,0x5b,0x07,0x6f,0x3a,0x15,0x52,0x50,0x47,0x3a,0x3a,0x4d,0x6f,0x76,0x65,0x43,0x6f,0x6d,0x6d,0x61,0x6e,0x64,0x07,0x3a,0x0a,0x40,0x63,0x6f,0x64,0x65,0x69,0x17,0x3a,0x10,0x40,0x70,0x61,0x72,0x61,0x6d,0x65,0x74,0x65,0x72,0x73,0x5b,0x00,0x6f,0x3b,0x0a,0x07,0x3b,0x0b,0x69,0x00,0x3b,0x0c,0x5b,0x00))
  Wait(60)
  PictureDisplay(5,"80_erbetie_st01",0,0,0,0,100,100,0,0)
  PictureMove(5,null,0,0,0,0,100,100,255,0,30,true)
  ShowMessageFace("erbetie_fc1",0,0,2,49)
  ShowMessage("【エルベティエ】")
  ShowMessage("ウンディーネ……")
  ShowMessage("同胞で親友のあなたまで、ルカに味方するのね……")
  ShowMessageFace("erbetie_fc1",0,0,2,50)
  ShowMessage("【エルベティエ】")
  ShowMessage("……誰が相手であろうとも、関係ないわ。")
  ShowMessage("私はただ、任務をこなすのみ……")
  ShowMessageFace("ruka_fc1",0,0,2,51)
  ShowMessage("【ルカ】")
  ShowMessage("四天王が相手でも……そう簡単に、やられるものか！")
  If(4,129,0)
   ShowMessageFace("brunhild_fc1",0,0,2,52)
   ShowMessage("【ヒルデ】")
   ShowMessage("敵、粘状妖魔……戦闘開始だよ。")
   0()
  EndIf()
  If(4,79,0)
   ShowMessageFace("nuruko_fc1",0,0,2,53)
   ShowMessage("【ヌルコ】")
   ShowMessage("きゅきゅー！")
   0()
  EndIf()
  PictureClear(5)
  SetBattleBGM(bytes(0x04,0x08,0x6f,0x3a,0x0d,0x52,0x50,0x47,0x3a,0x3a,0x42,0x47,0x4d,0x08,0x3a,0x0a,0x40,0x6e,0x61,0x6d,0x65,0x49,0x22,0x11,0x62,0x6f,0x73,0x73,0x5f,0x73,0x69,0x74,0x65,0x6e,0x6e,0x6f,0x06,0x3a,0x06,0x45,0x54,0x3a,0x0c,0x40,0x76,0x6f,0x6c,0x75,0x6d,0x65,0x69,0x69,0x3a,0x0b,0x40,0x70,0x69,0x74,0x63,0x68,0x69,0x69))
  ChangeSwitch(22,22,0)
  Battle(0,679,false,false)
  ChangeSwitch(22,22,1)
  SetBattleBGM(bytes(0x04,0x08,0x6f,0x3a,0x0d,0x52,0x50,0x47,0x3a,0x3a,0x42,0x47,0x4d,0x08,0x3a,0x0a,0x40,0x6e,0x61,0x6d,0x65,0x49,0x22,0x0b,0x62,0x61,0x74,0x74,0x6c,0x65,0x06,0x3a,0x06,0x45,0x54,0x3a,0x0c,0x40,0x76,0x6f,0x6c,0x75,0x6d,0x65,0x69,0x69,0x3a,0x0b,0x40,0x70,0x69,0x74,0x63,0x68,0x69,0x69))
  241(bytes(0x04,0x08,0x6f,0x3a,0x0d,0x52,0x50,0x47,0x3a,0x3a,0x42,0x47,0x4d,0x08,0x3a,0x0a,0x40,0x6e,0x61,0x6d,0x65,0x49,0x22,0x13,0x73,0x63,0x65,0x6e,0x65,0x5f,0x6f,0x64,0x61,0x79,0x61,0x6b,0x61,0x32,0x06,0x3a,0x06,0x45,0x54,0x3a,0x0c,0x40,0x76,0x6f,0x6c,0x75,0x6d,0x65,0x69,0x69,0x3a,0x0b,0x40,0x70,0x69,0x74,0x63,0x68,0x69,0x69))
  PictureDisplay(5,"80_erbetie_st01",0,0,0,0,100,100,0,0)
  PictureMove(5,null,0,0,0,0,100,100,255,0,30,true)
  ShowMessageFace("erbetie_fc1",0,0,2,54)
  ShowMessage("【エルベティエ】")
  ShowMessage("意外に手こずるわね……")
  ShowMessage("予想外の強さだわ……")
  ShowMessageFace("undine_fc1",0,0,2,55)
  ShowMessage("【ウンディーネ】")
  ShowMessage("いいえ……あなたの力量ならば、私達を一気に叩き潰せるはず。")
  ShowMessage("それが出来ないならば、全力を出せていないのよ……")
  ShowMessageFace("erbetie_fc1",0,0,2,56)
  ShowMessage("【エルベティエ】")
  ShowMessage("そんな事はないわ、私は……！")
  ShowMessageFace("ruka_fc1",0,0,2,57)
  ShowMessage("【ルカ】")
  ShowMessage("……その心からは、迷いが感じられるよ。")
  ShowMessage("水の妖魔なのに、明鏡止水の心が乱れているんだ。")
  ShowMessageFace("erbetie_fc1",0,0,2,58)
  ShowMessage("【エルベティエ】")
  ShowMessage("……まだ水の力に触れただけなのに、そこまで分かるのね。")
  ShowMessage("勇者ルカ、あなたは魔王様の脅威となるまで成長するわ……")
  ShowMessageFace("erbetie_fc1",0,0,2,59)
  ShowMessage("【エルベティエ】")
  ShowMessage("……………………")
  ShowMessageFace("erbetie_fc1",0,0,2,60)
  ShowMessage("【エルベティエ】")
  ShowMessage("……今日は退くべきね。")
  ShowMessage("自分でも、私の中の無数の意志が統一できていないのが分かるわ。")
  If(0,4,0)
   ShowMessageFace("alice_fc5",2,0,2,61)
   ShowMessage("【アリス】")
   ShowMessage("たまもとアルマエルマは、母上の元を離れた。")
   ShowMessage("残っているのは、貴様とグランベリアだけだ。")
   ShowMessageFace("alice_fc5",2,0,2,62)
   ShowMessage("【アリス】")
   ShowMessage("貴様とて、母上の行動に納得できていないのだろう？")
   ShowMessage("今後の身の振り方について、よく考えてみるがいい……")
   0()
  EndIf()
  If(0,5,0)
   ShowMessageFace("iriasu_fc4",7,0,2,63)
   ShowMessage("【イリアス】")
   ShowMessage("たまもとアルマエルマは、すでに魔王の元を離れたのでしょう？")
   ShowMessage("残っている四天王は、あなたとグランベリアのみという有様……")
   ShowMessageFace("iriasu_fc4",7,0,2,64)
   ShowMessage("【イリアス】")
   ShowMessage("あなた自身、魔王の命令に納得できていないように見えます。")
   ShowMessage("まず、自分を見つめ直すべきなのでは……？")
   0()
  EndIf()
  ShowMessageFace("erbetie_fc1",0,0,2,65)
  ShowMessage("【エルベティエ】")
  ShowMessage("……………………")
  PictureClear(5)
  Wait(60)
  250(bytes(0x04,0x08,0x6f,0x3a,0x0c,0x52,0x50,0x47,0x3a,0x3a,0x53,0x45,0x08,0x3a,0x0a,0x40,0x6e,0x61,0x6d,0x65,0x49,0x22,0x0d,0x6d,0x6f,0x6e,0x5f,0x77,0x61,0x72,0x70,0x06,0x3a,0x06,0x45,0x54,0x3a,0x0b,0x40,0x70,0x69,0x74,0x63,0x68,0x69,0x69,0x3a,0x0c,0x40,0x76,0x6f,0x6c,0x75,0x6d,0x65,0x69,0x55))
  ChangeSwitch(31,31,1)
  ShowMessageFace("",0,0,2,66)
  ShowMessage("何も答えないまま、エルベティエは立ち去っていった――")
  241(bytes(0x04,0x08,0x6f,0x3a,0x0d,0x52,0x50,0x47,0x3a,0x3a,0x42,0x47,0x4d,0x08,0x3a,0x0a,0x40,0x6e,0x61,0x6d,0x65,0x49,0x22,0x14,0x73,0x63,0x65,0x6e,0x65,0x5f,0x65,0x70,0x69,0x6c,0x6f,0x67,0x75,0x65,0x32,0x06,0x3a,0x06,0x45,0x54,0x3a,0x0c,0x40,0x76,0x6f,0x6c,0x75,0x6d,0x65,0x69,0x69,0x3a,0x0b,0x40,0x70,0x69,0x74,0x63,0x68,0x69,0x69))
  ShowMessageFace("ruka_fc1",0,0,2,67)
  ShowMessage("【ルカ】")
  ShowMessage("な、なんとか乗り切れたね……")
  If(4,53,0)
   ShowMessageFace("slime_fc1",2,0,2,68)
   ShowMessage("【ライム】")
   ShowMessage("エルベティエ様……")
   0()
  EndIf()
  If(4,54,0)
   ShowMessageFace("bunnyslime_fc1",2,0,2,69)
   ShowMessage("【うさ】")
   ShowMessage("うさ……")
   0()
  EndIf()
  PictureDisplay(5,"80_undine_st01",0,0,0,0,100,100,0,0)
  PictureMove(5,null,0,0,0,0,100,100,255,0,30,true)
  ShowMessageFace("undine_fc1",0,0,2,70)
  ShowMessage("【ウンディーネ】")
  ShowMessage("エルベティエの心の乱れ、よく感じ取れたわね。")
  ShowMessage("あなたを選んだ事に、間違いはないわ……")
  ShowMessageFace("",0,0,2,71)
  ShowMessage("ウンディーネは、掌をルカに掲げた――")
  ShowMessageFace("undine_fc1",1,0,2,72)
  ShowMessage("【ウンディーネ】")
  ShowMessage("さあ、水の力を受け取りなさい――")
  250(bytes(0x04,0x08,0x6f,0x3a,0x0c,0x52,0x50,0x47,0x3a,0x3a,0x53,0x45,0x08,0x3a,0x0a,0x40,0x6e,0x61,0x6d,0x65,0x49,0x22,0x0d,0x6d,0x6f,0x6e,0x5f,0x77,0x61,0x72,0x6d,0x06,0x3a,0x06,0x45,0x54,0x3a,0x0b,0x40,0x70,0x69,0x74,0x63,0x68,0x69,0x69,0x3a,0x0c,0x40,0x76,0x6f,0x6c,0x75,0x6d,0x65,0x69,0x69))
  PictureDisplay(6,"sys_white",0,0,0,0,100,100,0,0)
  PictureMove(6,null,0,0,0,0,100,100,255,0,30,true)
  PictureMove(6,null,0,0,0,0,100,100,0,0,30,true)
  PictureClear(6)
  ShowMessageFace("",0,0,2,73)
  ShowMessage("ルカの体に、力が流れ込んでくる！")
  ShowMessage("まるで、大きな潮流が溢れるかのようだ！")
  318(0,1,0,3108)
  250(bytes(0x04,0x08,0x6f,0x3a,0x0c,0x52,0x50,0x47,0x3a,0x3a,0x53,0x45,0x08,0x3a,0x0a,0x40,0x6e,0x61,0x6d,0x65,0x49,0x22,0x0a,0x49,0x74,0x65,0x6d,0x31,0x06,0x3a,0x06,0x45,0x54,0x3a,0x0b,0x40,0x70,0x69,0x74,0x63,0x68,0x69,0x69,0x3a,0x0c,0x40,0x76,0x6f,0x6c,0x75,0x6d,0x65,0x69,0x55))
  ShowMessageFace("",0,0,2,74)
  ShowMessage("ルカは\\I[300]\\C[1]ウンディーネ\\C[0]を修得した！")
  355("gain_medal(40)")
  ShowMessageFace("undine_fc1",0,0,2,75)
  ShowMessage("【ウンディーネ】")
  ShowMessage("これで、用は済んだわね……")
  ShowMessageFace("undine_fc1",2,0,2,76)
  ShowMessage("【ウンディーネ】")
  ShowMessage("……………………")
  ShowMessageFace("sylph_fc1",1,0,2,77)
  ShowMessage("【シルフ】")
  ShowMessage("大丈夫だよ、ウンディーネちゃん！")
  ShowMessageFace("undine_fc1",0,0,2,78)
  ShowMessage("【ウンディーネ】")
  ShowMessage("…………？")
  ShowMessageFace("sylph_fc1",0,0,2,79)
  ShowMessage("【シルフ】")
  ShowMessage("あたしもよくノームちゃんとケンカするけど、すぐ仲直りするもんね。")
  ShowMessageFace("gnome_fc1",0,0,2,80)
  ShowMessage("【ノーム】")
  ShowMessage("……………………")
  ShowMessageFace("undine_fc1",1,0,2,81)
  ShowMessage("【ウンディーネ】")
  ShowMessage("そうね……ありがとう、シルフ。")
  ShowMessage("あらためてエルベティエに会わないといけないわね。")
  ShowMessageFace("undine_fc1",1,0,2,82)
  ShowMessage("【ウンディーネ】")
  ShowMessage("ルカ……これからも、旅にご一緒させてもらうわ。")
  ShowMessage("これからは、仲間として共に戦いましょう。")
  PictureClear(5)
  249(bytes(0x04,0x08,0x6f,0x3a,0x0c,0x52,0x50,0x47,0x3a,0x3a,0x4d,0x45,0x08,0x3a,0x0a,0x40,0x6e,0x61,0x6d,0x65,0x49,0x22,0x0c,0x66,0x61,0x6e,0x66,0x61,0x6c,0x65,0x06,0x3a,0x06,0x45,0x54,0x3a,0x0b,0x40,0x70,0x69,0x74,0x63,0x68,0x69,0x69,0x3a,0x0c,0x40,0x76,0x6f,0x6c,0x75,0x6d,0x65,0x69,0x69))
  ShowMessageFace("",0,0,2,83)
  ShowMessage("ウンディーネが正式に仲間に加わった！")
  ChangeVariable(1001,1001,0,0,25)
  If(0,4,0)
   ShowMessageFace("alice_fc5",1,0,2,84)
   ShowMessage("【アリス】")
   ShowMessage("これで、ウンディーネとの契約は終わったな。")
   ShowMessage("グランドノアでも、反攻作戦の準備が出来た頃だろう。")
   ShowMessageFace("alice_fc5",1,0,2,85)
   ShowMessage("【アリス】")
   ShowMessage("グランドノア城に戻るぞ、ルカ。")
   ShowMessage("我々も、グランゴルドとの戦いに協力するのだからな。")
   ShowMessageFace("alice_fc5",3,0,2,86)
   ShowMessage("【アリス】")
   ShowMessage("そして、母様の真意を知らねば……")
   ShowMessage("いったいなぜ、大国を煽り大戦を引き起こしたのか……")
   0()
  EndIf()
  If(0,5,0)
   ShowMessageFace("iriasu_fc4",0,0,2,87)
   ShowMessage("【イリアス】")
   ShowMessage("これで、ウンディーネとの契約は終わりましたね。")
   ShowMessage("グランドノアでも、反攻作戦の準備が終わった頃です。")
   ShowMessageFace("iriasu_fc4",0,0,2,88)
   ShowMessage("【イリアス】")
   ShowMessage("グランドノア城に戻りましょう、ルカ。")
   ShowMessage("我々も、グランゴルドとの戦いに力を貸すのです。")
   ShowMessageFace("iriasu_fc4",0,0,2,89)
   ShowMessage("【イリアス】")
   ShowMessage("そして、グランゴルドを裏で操っている魔王を討つ……")
   ShowMessage("それこそ、我々が為さねばならない使命なのです。")
   0()
  EndIf()
  ShowMessageFace("ruka_fc1",0,0,2,90)
  ShowMessage("【ルカ】")
  ShowMessage("ああ、グランドノア城に戻ろう！")
  ShowMessageFace("",0,0,2,91)
  ShowMessage("こうして僕は、ウンディーネとの契約を終えた。")
  ShowMessage("次に待ち受けているのは、グランゴルドへの反攻作戦。")
  ShowMessageFace("",0,0,2,92)
  ShowMessage("それは、魔王の陰謀を暴くためでもある――")
  ShowMessage("僕は、これから先の激しい戦いを予感していた。")
  314(0,0)
  241(bytes(0x04,0x08,0x6f,0x3a,0x0d,0x52,0x50,0x47,0x3a,0x3a,0x42,0x47,0x4d,0x08,0x3a,0x0a,0x40,0x6e,0x61,0x6d,0x65,0x49,0x22,0x12,0x64,0x75,0x6e,0x67,0x65,0x6f,0x6e,0x5f,0x69,0x7a,0x75,0x6d,0x69,0x06,0x3a,0x06,0x45,0x54,0x3a,0x0c,0x40,0x76,0x6f,0x6c,0x75,0x6d,0x65,0x69,0x69,0x3a,0x0b,0x40,0x70,0x69,0x74,0x63,0x68,0x69,0x69))
  0()
 PAGE   2
  // condition: variable 1001 >= 25
  0()



EVENT   70
 PAGE   1
  // condition: switch 31 is ON
  0()



EVENT   71
 PAGE   1
  250(bytes(0x04,0x08,0x6f,0x3a,0x0c,0x52,0x50,0x47,0x3a,0x3a,0x53,0x45,0x08,0x3a,0x0a,0x40,0x6e,0x61,0x6d,0x65,0x49,0x22,0x0a,0x43,0x68,0x65,0x73,0x74,0x06,0x3a,0x06,0x45,0x54,0x3a,0x0b,0x40,0x70,0x69,0x74,0x63,0x68,0x69,0x69,0x3a,0x0c,0x40,0x76,0x6f,0x6c,0x75,0x6d,0x65,0x69,0x55))
  205(0,bytes(0x04,0x08,0x6f,0x3a,0x13,0x52,0x50,0x47,0x3a,0x3a,0x4d,0x6f,0x76,0x65,0x52,0x6f,0x75,0x74,0x65,0x09,0x3a,0x0c,0x40,0x72,0x65,0x70,0x65,0x61,0x74,0x46,0x3a,0x0f,0x40,0x73,0x6b,0x69,0x70,0x70,0x61,0x62,0x6c,0x65,0x46,0x3a,0x0a,0x40,0x77,0x61,0x69,0x74,0x54,0x3a,0x0a,0x40,0x6c,0x69,0x73,0x74,0x5b,0x0b,0x6f,0x3a,0x15,0x52,0x50,0x47,0x3a,0x3a,0x4d,0x6f,0x76,0x65,0x43,0x6f,0x6d,0x6d,0x61,0x6e,0x64,0x07,0x3a,0x0a,0x40,0x63,0x6f,0x64,0x65,0x69,0x29,0x3a,0x10,0x40,0x70,0x61,0x72,0x61,0x6d,0x65,0x74,0x65,0x72,0x73,0x5b,0x00,0x6f,0x3b,0x0a,0x07,0x3b,0x0b,0x69,0x16,0x3b,0x0c,0x5b,0x00,0x6f,0x3b,0x0a,0x07,0x3b,0x0b,0x69,0x14,0x3b,0x0c,0x5b,0x06,0x69,0x08,0x6f,0x3b,0x0a,0x07,0x3b,0x0b,0x69,0x17,0x3b,0x0c,0x5b,0x00,0x6f,0x3b,0x0a,0x07,0x3b,0x0b,0x69,0x14,0x3b,0x0c,0x5b,0x06,0x69,0x08,0x6f,0x3b,0x0a,0x07,0x3b,0x0b,0x69,0x00,0x3b,0x0c,0x5b,0x00))
  ShowMessageFace("",0,0,2,1)
  ShowMessage("宝箱はハコイリだった！")
  Battle(0,606,false,false)
  ChangeSelfSwitch("A",0)
  0()
 PAGE   2
  // condition: self-switch A is ON
  0()



EVENT   72
 PAGE   1
  // condition: switch 1014 is ON
  // condition: variable 1047 >= 2
  // condition: party contains actor #167
  ChangeVariable(1047,1047,0,0,3)
  ShowMessageFace("lusia_fc1",0,0,2,1)
  ShowMessage("【ルシア】")
  ShowMessage("ここは、水の精霊の力が集まる地ですね。")
  ShowMessage("静謐の中に、深い自然エネルギーを感じます。")
  ShowMessageFace("lusia_fc1",0,0,2,2)
  ShowMessage("【ルシア】")
  ShowMessage("少し、時間を頂いて良いでしょうか。")
  ShowMessage("精霊に関する観測データを集めたいもので……")
  If(0,6,0)
   ShowMessageFace("sonia_fc2",2,0,2,3)
   ShowMessage("【ソニア】")
   ShowMessage("あの計測マキナ、本当に大丈夫なの？")
   ShowMessage("なんだかシルフが壊れていってるんだけど……")
   0()
  Else()
   ShowMessageFace("ruka_fc1",0,0,2,4)
   ShowMessage("【ルカ】")
   ShowMessage("あの計測マキナ、本当に大丈夫なのか？")
   ShowMessage("なんだかシルフが壊れていってるんだけど……")
   0()
  EndIf()
  ShowMessageFace("lusia_fc1",0,0,2,5)
  ShowMessage("【ルシア】")
  ShowMessage("まあ、大丈夫でしょう。")
  ShowMessage("それでは計測を開始しますね……")
  ShowMessageFace("undine_fc1",0,0,2,6)
  ShowMessage("【ウンディーネ】")
  ShowMessage("……………………")
  ShowMessageFace("lusia_fc1",0,0,2,7)
  ShowMessage("【ルシア】")
  ShowMessage("対象を感知しましたね。")
  ShowMessage("それでは、こちらから干渉波を送りましょう……")
  ShowMessageFace("lusia_fc1",0,0,2,8)
  ShowMessage("【ルシア】")
  ShowMessage("干渉波を高めていきます。")
  ShowMessage("2倍……4倍……8倍……")
  ShowMessageFace("undine_fc1",2,0,2,9)
  ShowMessage("【ウンディーネ】")
  ShowMessage("……………………")
  ShowMessageFace("sylph_fc1",7,0,2,10)
  ShowMessage("【シルフ】")
  ShowMessage("……………………")
  ShowMessageFace("undine_fc1",2,0,2,11)
  ShowMessage("【ウンディーネ】")
  ShowMessage("……………………")
  ShowMessageFace("sylph_fc1",7,0,2,12)
  ShowMessage("【シルフ】")
  ShowMessage("ぴきぴき……")
  ShowMessageFace("undine_fc1",2,0,2,13)
  ShowMessage("【ウンディーネ】")
  ShowMessage("……………………")
  ShowMessageFace("sylph_fc1",7,0,2,14)
  ShowMessage("【シルフ】")
  ShowMessage("ち、ち……ちちちちちちち……")
  241(bytes(0x04,0x08,0x6f,0x3a,0x0d,0x52,0x50,0x47,0x3a,0x3a,0x42,0x47,0x4d,0x08,0x3a,0x0a,0x40,0x6e,0x61,0x6d,0x65,0x49,0x22,0x10,0x73,0x63,0x65,0x6e,0x65,0x5f,0x63,0x6f,0x6d,0x69,0x31,0x06,0x3a,0x06,0x45,0x54,0x3a,0x0c,0x40,0x76,0x6f,0x6c,0x75,0x6d,0x65,0x69,0x69,0x3a,0x0b,0x40,0x70,0x69,0x74,0x63,0x68,0x69,0x69))
  212(-1,1178,false)
  If(0,6,0)
   ShowMessageFace("sonia_fc3",2,0,2,15)
   ShowMessage("【ソニア】")
   ShowMessage("なんなのよ、これ！？")
   0()
  Else()
   ShowMessageFace("ruka_fc1",0,0,2,16)
   ShowMessage("【ルカ】")
   ShowMessage("わぁっ、津波が！！")
   0()
  EndIf()
  ShowMessageFace("sylph_fc2",2,0,2,17)
  ShowMessage("【シルフ】")
  ShowMessage("ぶくぶく、ごぼごぼ……")
  ShowMessageFace("lusia_fc1",0,0,2,18)
  ShowMessage("【ルシア】")
  ShowMessage("水への感応現象が、こんなに大規模に……")
  ShowMessage("この現象は、応用できるはずです。")
  ShowMessageFace("undine_fc1",0,0,2,19)
  ShowMessage("【ウンディーネ】")
  ShowMessage("あまり、科学の力を過信しない事ね……")
  ShowMessage("行き過ぎた探求は、身を滅ぼすわよ。")
  ShowMessageFace("lusia_fc1",0,0,2,20)
  ShowMessage("【ルシア】")
  ShowMessage("そちらこそ、科学というものを過信しているのでは？")
  ShowMessage("あくまで科学は方法論であり、力そのものではありませんよ。")
  ShowMessageFace("sylph_fc1",7,0,2,21)
  ShowMessage("【シルフ】")
  ShowMessage("らりぱっぱ！")
  ShowMessageFace("lusia_fc1",0,0,2,22)
  ShowMessage("【ルシア】")
  ShowMessage("感応波によって、自然現象を局地操作できれば……")
  ShowMessage("さらに、以前に観測した風と土の力も応用して……")
  318(0,167,0,859)
  318(0,167,0,3038)
  318(0,167,0,3043)
  318(0,167,0,3047)
  250(bytes(0x04,0x08,0x6f,0x3a,0x0c,0x52,0x50,0x47,0x3a,0x3a,0x53,0x45,0x08,0x3a,0x0a,0x40,0x6e,0x61,0x6d,0x65,0x49,0x22,0x0a,0x49,0x74,0x65,0x6d,0x31,0x06,0x3a,0x06,0x45,0x54,0x3a,0x0b,0x40,0x70,0x69,0x74,0x63,0x68,0x69,0x69,0x3a,0x0c,0x40,0x76,0x6f,0x6c,0x75,0x6d,0x65,0x69,0x55))
  ShowMessageFace("",0,0,2,23)
  ShowMessage("ルシアは\\I[300]\\C[1]「自然感応」使用可能\\C[0]を修得した！")
  ShowMessage("ルシアは\\I[300]\\C[1]突風\\C[0]を修得した！")
  ShowMessage("ルシアは\\I[300]\\C[1]地震\\C[0]を修得した！")
  ShowMessage("ルシアは\\I[300]\\C[1]津波\\C[0]を修得した！")
  ShowMessageFace("lusia_fc1",0,0,2,24)
  ShowMessage("【ルシア】")
  ShowMessage("次は、炎の精霊サラマンダーの住処……")
  ShowMessage("ゴルド火山洞窟に連れて行ってもらえませんか？")
  ShowMessageFace("lusia_fc1",0,0,2,25)
  ShowMessage("【ルシア】")
  ShowMessage("このエレメンタルの観測も、次で最後になるでしょう。")
  ShowMessage("おそらく、自然感応の秘密が解き明かされるはずです！")
  ShowMessageFace("sylph_fc1",7,0,2,26)
  ShowMessage("【シルフ】")
  ShowMessage("いいね！")
  If(0,6,0)
   ShowMessageFace("sonia_fc2",2,0,2,27)
   ShowMessage("【ソニア】")
   ShowMessage("（シルフちゃん、大丈夫なのかな……）")
   0()
  Else()
   ShowMessageFace("ruka_fc1",0,0,2,28)
   ShowMessage("【ルカ】")
   ShowMessage("（シルフ、大丈夫なのか……）")
   0()
  EndIf()
  241(bytes(0x04,0x08,0x6f,0x3a,0x0d,0x52,0x50,0x47,0x3a,0x3a,0x42,0x47,0x4d,0x08,0x3a,0x0a,0x40,0x6e,0x61,0x6d,0x65,0x49,0x22,0x12,0x64,0x75,0x6e,0x67,0x65,0x6f,0x6e,0x5f,0x69,0x7a,0x75,0x6d,0x69,0x06,0x3a,0x06,0x45,0x54,0x3a,0x0c,0x40,0x76,0x6f,0x6c,0x75,0x6d,0x65,0x69,0x69,0x3a,0x0b,0x40,0x70,0x69,0x74,0x63,0x68,0x69,0x69))
  EndEventProcessing()
  0()
 PAGE   2
  // condition: variable 1047 >= 3
  0()



EVENT   73
 PAGE   1
  250(bytes(0x04,0x08,0x6f,0x3a,0x0c,0x52,0x50,0x47,0x3a,0x3a,0x53,0x45,0x08,0x3a,0x0a,0x40,0x6e,0x61,0x6d,0x65,0x49,0x22,0x0a,0x48,0x65,0x61,0x6c,0x37,0x06,0x3a,0x06,0x45,0x54,0x3a,0x0b,0x40,0x70,0x69,0x74,0x63,0x68,0x69,0x69,0x3a,0x0c,0x40,0x76,0x6f,0x6c,0x75,0x6d,0x65,0x69,0x55))
  224(bytes(0x04,0x08,0x75,0x3a,0x0a,0x43,0x6f,0x6c,0x6f,0x72,0x25,0x00,0x00,0x00,0x00,0x00,0xe0,0x6f,0x40,0x00,0x00,0x00,0x00,0x00,0xe0,0x6f,0x40,0x00,0x00,0x00,0x00,0x00,0xe0,0x6f,0x40,0x00,0x00,0x00,0x00,0x00,0xe0,0x6f,0x40),30,true)
  314(0,0)
  ShowMessageFace("",0,0,2,1)
  ShowMessage("The party's HP and MP have been fully restored!")
  0()



EVENT   74
 PAGE   1
  ShowMessageFace("slime_fc1",0,0,2,1)
  ShowMessage("【スライム娘】")
  ShowMessage("あたしは、わるいスライムじゃないよ。")
  ShowMessage("だから、ひとつ教えてあげる！")
  ShowMessageFace("slime_fc1",0,0,2,2)
  ShowMessage("【スライム娘】")
  ShowMessage("ここにいる上位のスライムは、物理攻撃が通じにくいの。")
  ShowMessage("でも、属性攻撃にはとっても弱いよ♪")
  0()



EVENT   75
 PAGE   1
  // condition: switch 1014 is ON
  // condition: party contains actor #99
  ChangeSwitch(2143,2143,0)
  ShowMessageFace("namazu_fc1",0,0,2,1)
  ShowMessage("【ギギ】")
  ShowMessage("むむっ、水のエネルギーを感じるのう……")
  ShowMessage("ヒゲがぶるぶるしておるわ。")
  ShowMessageFace("namazu_fc1",0,0,2,2)
  ShowMessage("【ギギ】")
  ShowMessage("亀の甲より年の功、自然感応は得意じゃぞ。")
  ShowMessage("この水のエネルギーを、上手く取り込めば……")
  318(0,99,0,3047)
  250(bytes(0x04,0x08,0x6f,0x3a,0x0c,0x52,0x50,0x47,0x3a,0x3a,0x53,0x45,0x08,0x3a,0x0a,0x40,0x6e,0x61,0x6d,0x65,0x49,0x22,0x0a,0x49,0x74,0x65,0x6d,0x31,0x06,0x3a,0x06,0x45,0x54,0x3a,0x0b,0x40,0x70,0x69,0x74,0x63,0x68,0x69,0x69,0x3a,0x0c,0x40,0x76,0x6f,0x6c,0x75,0x6d,0x65,0x69,0x55))
  ShowMessageFace("",0,0,2,3)
  ShowMessage("ギギは\\I[157]\\C[1]津波\\C[0]を修得した！")
  ShowMessageFace("namazu_fc1",0,0,2,4)
  ShowMessage("【ギギ】")
  ShowMessage("うむ、この通りよ。")
  ShowMessage("それでは、行くとしようぞ！")
  EndEventProcessing()
  0()
 PAGE   2
  // condition: switch 2143 is ON
  0()
