=begin

==更新履歴
  Date
	17/7/18		新規:追加1

==
	追加1:ワープ時にスイッチ変更
=end

#追加1:ワープ時にスイッチ変更
#==============================================================================
# ■ Scene_Warp
#==============================================================================
class Scene_Warp < Scene_MenuBase
	#--------------------------------------------------------------------------
	# ● 確認：決定
	#-------------------------------------------------------------------------- 
	alias hima_confirm_ok confirm_ok
  def confirm_ok
		(31..39).each{|id|
			$game_switches[id] = false
		}
		hima_confirm_ok
  end
end


	