// EVENT 0111
Name "Pocket Castle Maid"

ShowMessageFace("People3",5,0,2,1)
ShowMessage("\\n<Maid>My services are at your disposal.\nYou can warp within the castle from the party edit menu.")
If(0,1918,1)
 355("unlimited_choices(11, [\"Edit party\",")
 655("\"Unequip non-party companions\", ")
 655("\"Teleport to front gate\",")
 655("\"Never mind\"])")
 0()
Else()
 355("unlimited_choices(11, [\"Edit party\",")
 655("\"Unequip non-party companions\", ")
 655("\"Teleport to front gate\",\"Board the MS Fish\",")
 655("\"Never mind\"])")
 0()
EndIf()
If(1,11,0,0,0)
 217()
 313(0,1,1,1)
 355("call_party_edit")
 0()
EndIf()
If(1,11,0,1,0)
 250(bytes(0x04,0x08,0x6f,0x3a,0x0c,0x52,0x50,0x47,0x3a,0x3a,0x53,0x45,0x08,0x3a,0x0a,0x40,0x6e,0x61,0x6d,0x65,0x49,0x22,0x09,0x53,0x61,0x6e,0x64,0x06,0x3a,0x06,0x45,0x54,0x3a,0x0b,0x40,0x70,0x69,0x74,0x63,0x68,0x69,0x69,0x3a,0x0c,0x40,0x76,0x6f,0x6c,0x75,0x6d,0x65,0x69,0x55))
 355("stand_members.each{|m|")
 655("  m.clear_equipments")
 655("}")
 0()
EndIf()
If(1,11,0,2,0)
 250(bytes(0x04,0x08,0x6f,0x3a,0x0c,0x52,0x50,0x47,0x3a,0x3a,0x53,0x45,0x08,0x3a,0x0a,0x40,0x6e,0x61,0x6d,0x65,0x49,0x22,0x09,0x4d,0x6f,0x76,0x65,0x06,0x3a,0x06,0x45,0x54,0x3a,0x0b,0x40,0x70,0x69,0x74,0x63,0x68,0x69,0x69,0x3a,0x0c,0x40,0x76,0x6f,0x6c,0x75,0x6d,0x65,0x69,0x55))
 TeleportPlayer(0,126,15,13,2,0)
 0()
EndIf()
If(1,11,0,3,0)
 If(0,1918,1)
  EndEventProcessing()
  0()
 Else()
  250(bytes(0x04,0x08,0x6f,0x3a,0x0c,0x52,0x50,0x47,0x3a,0x3a,0x53,0x45,0x08,0x3a,0x0a,0x40,0x6e,0x61,0x6d,0x65,0x49,0x22,0x0b,0x57,0x61,0x74,0x65,0x72,0x31,0x06,0x3a,0x06,0x45,0x54,0x3a,0x0b,0x40,0x70,0x69,0x74,0x63,0x68,0x69,0x69,0x3a,0x0c,0x40,0x76,0x6f,0x6c,0x75,0x6d,0x65,0x69,0x55))
  TeleportPlayer(0,724,13,24,2,0)
  0()
 EndIf()
 0()
EndIf()
If(1,11,0,4,0)
 EndEventProcessing()
 0()
EndIf()
0()
