// EVENT 0191
Name "サバイバル前章敵"

ChangeVariable(11,11,0,2,1,184)
If(1,11,0,1,0)
 Battle(0,331,false,false)
 EndEventProcessing()
 0()
EndIf()
If(1,11,0,2,0)
 Battle(0,332,false,false)
 EndEventProcessing()
 0()
EndIf()
If(1,11,0,3,0)
 Battle(0,333,false,false)
 EndEventProcessing()
 0()
EndIf()
If(1,11,0,4,0)
 Battle(0,334,false,false)
 EndEventProcessing()
 0()
EndIf()
If(1,11,0,5,0)
 Battle(0,335,false,false)
 EndEventProcessing()
 0()
EndIf()
If(1,11,0,6,0)
 Battle(0,336,false,false)
 EndEventProcessing()
 0()
EndIf()
If(1,11,0,7,0)
 Battle(0,337,false,false)
 EndEventProcessing()
 0()
EndIf()
If(1,11,0,8,0)
 Battle(0,338,false,false)
 EndEventProcessing()
 0()
EndIf()
If(1,11,0,9,0)
 Battle(0,339,false,false)
 EndEventProcessing()
 0()
EndIf()
If(1,11,0,10,0)
 Battle(0,340,false,false)
 EndEventProcessing()
 0()
EndIf()
If(1,11,0,11,0)
 Battle(0,341,false,false)
 EndEventProcessing()
 0()
EndIf()
If(1,11,0,12,0)
 Battle(0,342,false,false)
 EndEventProcessing()
 0()
EndIf()
If(1,11,0,13,0)
 Battle(0,343,false,false)
 EndEventProcessing()
 0()
EndIf()
If(1,11,0,14,0)
 Battle(0,344,false,false)
 EndEventProcessing()
 0()
EndIf()
If(1,11,0,15,0)
 Battle(0,345,false,false)
 EndEventProcessing()
 0()
EndIf()
If(1,11,0,16,0)
 Battle(0,346,false,false)
 EndEventProcessing()
 0()
EndIf()
If(1,11,0,17,0)
 Battle(0,347,false,false)
 EndEventProcessing()
 0()
EndIf()
If(1,11,0,18,0)
 Battle(0,348,false,false)
 EndEventProcessing()
 0()
EndIf()
If(1,11,0,19,0)
 Battle(0,349,false,false)
 EndEventProcessing()
 0()
EndIf()
If(1,11,0,20,0)
 Battle(0,350,false,false)
 EndEventProcessing()
 0()
EndIf()
If(1,11,0,21,0)
 Battle(0,351,false,false)
 EndEventProcessing()
 0()
EndIf()
If(1,11,0,22,0)
 Battle(0,352,false,false)
 EndEventProcessing()
 0()
EndIf()
If(1,11,0,23,0)
 Battle(0,353,false,false)
 EndEventProcessing()
 0()
EndIf()
If(1,11,0,24,0)
 Battle(0,354,false,false)
 EndEventProcessing()
 0()
EndIf()
If(1,11,0,25,0)
 Battle(0,355,false,false)
 EndEventProcessing()
 0()
EndIf()
If(1,11,0,26,0)
 Battle(0,356,false,false)
 EndEventProcessing()
 0()
EndIf()
If(1,11,0,27,0)
 Battle(0,357,false,false)
 EndEventProcessing()
 0()
EndIf()
If(1,11,0,28,0)
 Battle(0,358,false,false)
 EndEventProcessing()
 0()
EndIf()
If(1,11,0,29,0)
 Battle(0,359,false,false)
 EndEventProcessing()
 0()
EndIf()
If(1,11,0,30,0)
 Battle(0,360,false,false)
 EndEventProcessing()
 0()
EndIf()
If(1,11,0,31,0)
 Battle(0,361,false,false)
 EndEventProcessing()
 0()
EndIf()
If(1,11,0,32,0)
 Battle(0,362,false,false)
 EndEventProcessing()
 0()
EndIf()
If(1,11,0,33,0)
 Battle(0,363,false,false)
 EndEventProcessing()
 0()
EndIf()
If(1,11,0,34,0)
 Battle(0,366,false,false)
 EndEventProcessing()
 0()
EndIf()
If(1,11,0,35,0)
 Battle(0,367,false,false)
 EndEventProcessing()
 0()
EndIf()
If(1,11,0,36,0)
 Battle(0,368,false,false)
 EndEventProcessing()
 0()
EndIf()
If(1,11,0,37,0)
 Battle(0,369,false,false)
 EndEventProcessing()
 0()
EndIf()
If(1,11,0,38,0)
 Battle(0,370,false,false)
 EndEventProcessing()
 0()
EndIf()
If(1,11,0,39,0)
 Battle(0,371,false,false)
 EndEventProcessing()
 0()
EndIf()
If(1,11,0,40,0)
 Battle(0,372,false,false)
 EndEventProcessing()
 0()
EndIf()
If(1,11,0,41,0)
 Battle(0,373,false,false)
 EndEventProcessing()
 0()
EndIf()
If(1,11,0,42,0)
 Battle(0,374,false,false)
 EndEventProcessing()
 0()
EndIf()
If(1,11,0,43,0)
 Battle(0,375,false,false)
 EndEventProcessing()
 0()
EndIf()
If(1,11,0,44,0)
 Battle(0,376,false,false)
 EndEventProcessing()
 0()
EndIf()
If(1,11,0,45,0)
 Battle(0,377,false,false)
 EndEventProcessing()
 0()
EndIf()
If(1,11,0,46,0)
 Battle(0,378,false,false)
 EndEventProcessing()
 0()
EndIf()
If(1,11,0,47,0)
 Battle(0,379,false,false)
 EndEventProcessing()
 0()
EndIf()
If(1,11,0,48,0)
 Battle(0,380,false,false)
 EndEventProcessing()
 0()
EndIf()
If(1,11,0,49,0)
 Battle(0,381,false,false)
 EndEventProcessing()
 0()
EndIf()
If(1,11,0,50,0)
 Battle(0,382,false,false)
 EndEventProcessing()
 0()
EndIf()
If(1,11,0,51,0)
 Battle(0,383,false,false)
 EndEventProcessing()
 0()
EndIf()
If(1,11,0,52,0)
 Battle(0,384,false,false)
 EndEventProcessing()
 0()
EndIf()
If(1,11,0,53,0)
 Battle(0,385,false,false)
 EndEventProcessing()
 0()
EndIf()
If(1,11,0,54,0)
 Battle(0,386,false,false)
 EndEventProcessing()
 0()
EndIf()
If(1,11,0,55,0)
 Battle(0,387,false,false)
 EndEventProcessing()
 0()
EndIf()
If(1,11,0,56,0)
 Battle(0,388,false,false)
 EndEventProcessing()
 0()
EndIf()
If(1,11,0,57,0)
 Battle(0,389,false,false)
 EndEventProcessing()
 0()
EndIf()
If(1,11,0,58,0)
 Battle(0,390,false,false)
 EndEventProcessing()
 0()
EndIf()
If(1,11,0,59,0)
 Battle(0,391,false,false)
 EndEventProcessing()
 0()
EndIf()
If(1,11,0,60,0)
 Battle(0,392,false,false)
 EndEventProcessing()
 0()
EndIf()
If(1,11,0,61,0)
 Battle(0,393,false,false)
 EndEventProcessing()
 0()
EndIf()
If(1,11,0,62,0)
 Battle(0,394,false,false)
 EndEventProcessing()
 0()
EndIf()
If(1,11,0,63,0)
 Battle(0,395,false,false)
 EndEventProcessing()
 0()
EndIf()
If(1,11,0,64,0)
 Battle(0,396,false,false)
 EndEventProcessing()
 0()
EndIf()
If(1,11,0,65,0)
 Battle(0,397,false,false)
 EndEventProcessing()
 0()
EndIf()
If(1,11,0,66,0)
 Battle(0,398,false,false)
 EndEventProcessing()
 0()
EndIf()
If(1,11,0,67,0)
 Battle(0,399,false,false)
 EndEventProcessing()
 0()
EndIf()
If(1,11,0,68,0)
 Battle(0,400,false,false)
 EndEventProcessing()
 0()
EndIf()
If(1,11,0,69,0)
 Battle(0,401,false,false)
 EndEventProcessing()
 0()
EndIf()
If(1,11,0,70,0)
 Battle(0,402,false,false)
 EndEventProcessing()
 0()
EndIf()
If(1,11,0,71,0)
 Battle(0,403,false,false)
 EndEventProcessing()
 0()
EndIf()
If(1,11,0,72,0)
 Battle(0,404,false,false)
 EndEventProcessing()
 0()
EndIf()
If(1,11,0,73,0)
 Battle(0,405,false,false)
 EndEventProcessing()
 0()
EndIf()
If(1,11,0,74,0)
 Battle(0,409,false,false)
 EndEventProcessing()
 0()
EndIf()
If(1,11,0,75,0)
 Battle(0,410,false,false)
 EndEventProcessing()
 0()
EndIf()
If(1,11,0,76,0)
 Battle(0,411,false,false)
 EndEventProcessing()
 0()
EndIf()
If(1,11,0,77,0)
 Battle(0,412,false,false)
 EndEventProcessing()
 0()
EndIf()
If(1,11,0,78,0)
 Battle(0,413,false,false)
 EndEventProcessing()
 0()
EndIf()
If(1,11,0,79,0)
 Battle(0,414,false,false)
 EndEventProcessing()
 0()
EndIf()
If(1,11,0,80,0)
 Battle(0,415,false,false)
 EndEventProcessing()
 0()
EndIf()
If(1,11,0,81,0)
 Battle(0,416,false,false)
 EndEventProcessing()
 0()
EndIf()
If(1,11,0,82,0)
 Battle(0,417,false,false)
 EndEventProcessing()
 0()
EndIf()
If(1,11,0,83,0)
 Battle(0,418,false,false)
 EndEventProcessing()
 0()
EndIf()
If(1,11,0,84,0)
 Battle(0,419,false,false)
 EndEventProcessing()
 0()
EndIf()
If(1,11,0,85,0)
 Battle(0,420,false,false)
 EndEventProcessing()
 0()
EndIf()
If(1,11,0,86,0)
 Battle(0,421,false,false)
 EndEventProcessing()
 0()
EndIf()
If(1,11,0,87,0)
 Battle(0,422,false,false)
 EndEventProcessing()
 0()
EndIf()
If(1,11,0,88,0)
 Battle(0,423,false,false)
 EndEventProcessing()
 0()
EndIf()
If(1,11,0,89,0)
 Battle(0,424,false,false)
 EndEventProcessing()
 0()
EndIf()
If(1,11,0,90,0)
 Battle(0,428,false,false)
 EndEventProcessing()
 0()
EndIf()
If(1,11,0,91,0)
 Battle(0,429,false,false)
 EndEventProcessing()
 0()
EndIf()
If(1,11,0,92,0)
 Battle(0,430,false,false)
 EndEventProcessing()
 0()
EndIf()
If(1,11,0,93,0)
 Battle(0,431,false,false)
 EndEventProcessing()
 0()
EndIf()
If(1,11,0,94,0)
 Battle(0,432,false,false)
 EndEventProcessing()
 0()
EndIf()
If(1,11,0,95,0)
 Battle(0,433,false,false)
 EndEventProcessing()
 0()
EndIf()
If(1,11,0,96,0)
 Battle(0,434,false,false)
 EndEventProcessing()
 0()
EndIf()
If(1,11,0,97,0)
 Battle(0,435,false,false)
 EndEventProcessing()
 0()
EndIf()
If(1,11,0,98,0)
 Battle(0,436,false,false)
 EndEventProcessing()
 0()
EndIf()
If(1,11,0,99,0)
 Battle(0,437,false,false)
 EndEventProcessing()
 0()
EndIf()
If(1,11,0,100,0)
 Battle(0,438,false,false)
 EndEventProcessing()
 0()
EndIf()
If(1,11,0,101,0)
 Battle(0,439,false,false)
 EndEventProcessing()
 0()
EndIf()
If(1,11,0,102,0)
 Battle(0,440,false,false)
 EndEventProcessing()
 0()
EndIf()
If(1,11,0,103,0)
 Battle(0,441,false,false)
 EndEventProcessing()
 0()
EndIf()
If(1,11,0,104,0)
 Battle(0,442,false,false)
 EndEventProcessing()
 0()
EndIf()
If(1,11,0,105,0)
 Battle(0,443,false,false)
 EndEventProcessing()
 0()
EndIf()
If(1,11,0,106,0)
 Battle(0,444,false,false)
 EndEventProcessing()
 0()
EndIf()
If(1,11,0,107,0)
 Battle(0,445,false,false)
 EndEventProcessing()
 0()
EndIf()
If(1,11,0,108,0)
 Battle(0,446,false,false)
 EndEventProcessing()
 0()
EndIf()
If(1,11,0,109,0)
 Battle(0,450,false,false)
 EndEventProcessing()
 0()
EndIf()
If(1,11,0,110,0)
 Battle(0,451,false,false)
 EndEventProcessing()
 0()
EndIf()
If(1,11,0,111,0)
 Battle(0,452,false,false)
 EndEventProcessing()
 0()
EndIf()
If(1,11,0,112,0)
 Battle(0,453,false,false)
 EndEventProcessing()
 0()
EndIf()
If(1,11,0,113,0)
 Battle(0,454,false,false)
 EndEventProcessing()
 0()
EndIf()
If(1,11,0,114,0)
 Battle(0,455,false,false)
 EndEventProcessing()
 0()
EndIf()
If(1,11,0,115,0)
 Battle(0,456,false,false)
 EndEventProcessing()
 0()
EndIf()
If(1,11,0,116,0)
 Battle(0,457,false,false)
 EndEventProcessing()
 0()
EndIf()
If(1,11,0,117,0)
 Battle(0,458,false,false)
 EndEventProcessing()
 0()
EndIf()
If(1,11,0,118,0)
 Battle(0,459,false,false)
 EndEventProcessing()
 0()
EndIf()
If(1,11,0,119,0)
 Battle(0,460,false,false)
 EndEventProcessing()
 0()
EndIf()
If(1,11,0,120,0)
 Battle(0,461,false,false)
 EndEventProcessing()
 0()
EndIf()
If(1,11,0,121,0)
 Battle(0,462,false,false)
 EndEventProcessing()
 0()
EndIf()
If(1,11,0,122,0)
 Battle(0,463,false,false)
 EndEventProcessing()
 0()
EndIf()
If(1,11,0,123,0)
 Battle(0,464,false,false)
 EndEventProcessing()
 0()
EndIf()
If(1,11,0,124,0)
 Battle(0,465,false,false)
 EndEventProcessing()
 0()
EndIf()
If(1,11,0,125,0)
 Battle(0,466,false,false)
 EndEventProcessing()
 0()
EndIf()
If(1,11,0,126,0)
 Battle(0,467,false,false)
 EndEventProcessing()
 0()
EndIf()
If(1,11,0,127,0)
 Battle(0,468,false,false)
 EndEventProcessing()
 0()
EndIf()
If(1,11,0,128,0)
 Battle(0,469,false,false)
 EndEventProcessing()
 0()
EndIf()
If(1,11,0,129,0)
 Battle(0,470,false,false)
 EndEventProcessing()
 0()
EndIf()
If(1,11,0,130,0)
 Battle(0,471,false,false)
 EndEventProcessing()
 0()
EndIf()
If(1,11,0,131,0)
 Battle(0,472,false,false)
 EndEventProcessing()
 0()
EndIf()
If(1,11,0,132,0)
 Battle(0,473,false,false)
 EndEventProcessing()
 0()
EndIf()
If(1,11,0,133,0)
 Battle(0,474,false,false)
 EndEventProcessing()
 0()
EndIf()
If(1,11,0,134,0)
 Battle(0,475,false,false)
 EndEventProcessing()
 0()
EndIf()
If(1,11,0,135,0)
 Battle(0,476,false,false)
 EndEventProcessing()
 0()
EndIf()
If(1,11,0,136,0)
 Battle(0,477,false,false)
 EndEventProcessing()
 0()
EndIf()
If(1,11,0,137,0)
 Battle(0,478,false,false)
 EndEventProcessing()
 0()
EndIf()
If(1,11,0,138,0)
 Battle(0,479,false,false)
 EndEventProcessing()
 0()
EndIf()
If(1,11,0,139,0)
 Battle(0,480,false,false)
 EndEventProcessing()
 0()
EndIf()
If(1,11,0,140,0)
 Battle(0,481,false,false)
 EndEventProcessing()
 0()
EndIf()
If(1,11,0,141,0)
 Battle(0,482,false,false)
 EndEventProcessing()
 0()
EndIf()
If(1,11,0,142,0)
 Battle(0,483,false,false)
 EndEventProcessing()
 0()
EndIf()
If(1,11,0,143,0)
 Battle(0,484,false,false)
 EndEventProcessing()
 0()
EndIf()
If(1,11,0,144,0)
 Battle(0,485,false,false)
 EndEventProcessing()
 0()
EndIf()
If(1,11,0,145,0)
 Battle(0,486,false,false)
 EndEventProcessing()
 0()
EndIf()
If(1,11,0,146,0)
 Battle(0,487,false,false)
 EndEventProcessing()
 0()
EndIf()
If(1,11,0,147,0)
 Battle(0,488,false,false)
 EndEventProcessing()
 0()
EndIf()
If(1,11,0,148,0)
 Battle(0,489,false,false)
 EndEventProcessing()
 0()
EndIf()
If(1,11,0,149,0)
 Battle(0,490,false,false)
 EndEventProcessing()
 0()
EndIf()
If(1,11,0,150,0)
 Battle(0,491,false,false)
 EndEventProcessing()
 0()
EndIf()
If(1,11,0,151,0)
 Battle(0,492,false,false)
 EndEventProcessing()
 0()
EndIf()
If(1,11,0,152,0)
 Battle(0,493,false,false)
 EndEventProcessing()
 0()
EndIf()
If(1,11,0,153,0)
 Battle(0,494,false,false)
 EndEventProcessing()
 0()
EndIf()
If(1,11,0,154,0)
 Battle(0,495,false,false)
 EndEventProcessing()
 0()
EndIf()
If(1,11,0,155,0)
 Battle(0,496,false,false)
 EndEventProcessing()
 0()
EndIf()
If(1,11,0,156,0)
 Battle(0,497,false,false)
 EndEventProcessing()
 0()
EndIf()
If(1,11,0,157,0)
 Battle(0,501,false,false)
 EndEventProcessing()
 0()
EndIf()
If(1,11,0,158,0)
 Battle(0,502,false,false)
 EndEventProcessing()
 0()
EndIf()
If(1,11,0,159,0)
 Battle(0,503,false,false)
 EndEventProcessing()
 0()
EndIf()
If(1,11,0,160,0)
 Battle(0,504,false,false)
 EndEventProcessing()
 0()
EndIf()
If(1,11,0,161,0)
 Battle(0,505,false,false)
 EndEventProcessing()
 0()
EndIf()
If(1,11,0,162,0)
 Battle(0,506,false,false)
 EndEventProcessing()
 0()
EndIf()
If(1,11,0,163,0)
 Battle(0,507,false,false)
 EndEventProcessing()
 0()
EndIf()
If(1,11,0,164,0)
 Battle(0,508,false,false)
 EndEventProcessing()
 0()
EndIf()
If(1,11,0,165,0)
 Battle(0,509,false,false)
 EndEventProcessing()
 0()
EndIf()
If(1,11,0,166,0)
 Battle(0,510,false,false)
 EndEventProcessing()
 0()
EndIf()
If(1,11,0,167,0)
 Battle(0,511,false,false)
 EndEventProcessing()
 0()
EndIf()
If(1,11,0,168,0)
 Battle(0,512,false,false)
 EndEventProcessing()
 0()
EndIf()
If(1,11,0,169,0)
 Battle(0,513,false,false)
 EndEventProcessing()
 0()
EndIf()
If(1,11,0,170,0)
 Battle(0,514,false,false)
 EndEventProcessing()
 0()
EndIf()
If(1,11,0,171,0)
 Battle(0,515,false,false)
 EndEventProcessing()
 0()
EndIf()
If(1,11,0,172,0)
 Battle(0,516,false,false)
 EndEventProcessing()
 0()
EndIf()
If(1,11,0,173,0)
 Battle(0,517,false,false)
 EndEventProcessing()
 0()
EndIf()
If(1,11,0,174,0)
 Battle(0,518,false,false)
 EndEventProcessing()
 0()
EndIf()
If(1,11,0,175,0)
 Battle(0,519,false,false)
 EndEventProcessing()
 0()
EndIf()
If(1,11,0,176,0)
 Battle(0,520,false,false)
 EndEventProcessing()
 0()
EndIf()
If(1,11,0,177,0)
 Battle(0,521,false,false)
 EndEventProcessing()
 0()
EndIf()
If(1,11,0,178,0)
 Battle(0,522,false,false)
 EndEventProcessing()
 0()
EndIf()
If(1,11,0,179,0)
 Battle(0,523,false,false)
 EndEventProcessing()
 0()
EndIf()
If(1,11,0,180,0)
 Battle(0,524,false,false)
 EndEventProcessing()
 0()
EndIf()
If(1,11,0,181,0)
 Battle(0,525,false,false)
 EndEventProcessing()
 0()
EndIf()
If(1,11,0,182,0)
 Battle(0,526,false,false)
 EndEventProcessing()
 0()
EndIf()
If(1,11,0,183,0)
 Battle(0,527,false,false)
 EndEventProcessing()
 0()
EndIf()
If(1,11,0,184,0)
 Battle(0,528,false,false)
 EndEventProcessing()
 0()
EndIf()
0()
